%!PS-Adobe-2.0 EPSF-2.0
%%BoundingBox:  0 0 567 416
%%Title: dataset/plots/1v1roc_bkg_NOSIG_vs_Signal.eps: ROC Curve bkg_NOSIG (Sig) vs Signal (Bkg)
%%Creator: ROOT Version 6.18/00
%%CreationDate: Thu Aug  8 14:08:07 2019
%%DocumentNeededResources: ProcSet (FontSetInit)
%%EndComments
%%BeginProlog
80 dict begin
/s {stroke} def /l {lineto} def /m {moveto} def /t {translate} def
/r {rotate} def /rl {roll}  def /R {repeat} def
/d {rlineto} def /rm {rmoveto} def /gr {grestore} def /f {eofill} def
/c {setrgbcolor} def /black {0 setgray} def /sd {setdash} def
/cl {closepath} def /sf {scalefont setfont} def /lw {setlinewidth} def
/box {m dup 0 exch d exch 0 d 0 exch neg d cl} def
/NC{systemdict begin initclip end}def/C{NC box clip newpath}def
/bl {box s} def /bf {gsave box gsave f grestore 1 lw [] 0 sd s grestore} def /Y { 0 exch d} def /X { 0 d} def 
/K {{pop pop 0 moveto} exch kshow} bind def
/ita {/ang 15 def gsave [1 0 ang dup sin exch cos div 1 0 0] concat} def 
/mp {newpath /y exch def /x exch def} def
/side {[w .77 mul w .23 mul] .385 w mul sd w 0 l currentpoint t -144 r} def
/mr {mp x y w2 0 360 arc} def /m24 {mr s} def /m20 {mr f} def
/mb {mp x y w2 add m w2 neg 0 d 0 w neg d w 0 d 0 w d cl} def
/mt {mp x y w2 add m w2 neg w neg d w 0 d cl} def
/w4 {w 4 div} def
/w6 {w 6 div} def
/w8 {w 8 div} def
/m21 {mb f} def /m25 {mb s} def /m22 {mt f} def /m26{mt s} def
/m23 {mp x y w2 sub m w2 w d w neg 0 d cl f} def
/m27 {mp x y w2 add m w3 neg w2 neg d w3 w2 neg d w3 w2 d cl s} def
/m28 {mp x w2 sub y w2 sub w3 add m w3 0 d  0 w3 neg d w3 0 d 0 w3 d w3 0 d  0 w3 d w3 neg 0 d 0 w3 d w3 neg 0 d 0 w3 neg d w3 neg 0 d cl s } def
/m29 {mp gsave x w2 sub y w2 add w3 sub m currentpoint t 4 {side} repeat cl fill gr} def
/m30 {mp gsave x w2 sub y w2 add w3 sub m currentpoint t 4 {side} repeat cl s gr} def
/m31 {mp x y w2 sub m 0 w d x w2 sub y m w 0 d x w2 sub y w2 add m w w neg d x w2 sub y w2 sub m w w d s} def
/m32 {mp x y w2 sub m w2 w d w neg 0 d cl s} def
/m33 {mp x y w2 add m w3 neg w2 neg d w3 w2 neg d w3 w2 d cl f} def
/m34 {mp x w2 sub y w2 sub w3 add m w3 0 d  0 w3 neg d w3 0 d 0 w3 d w3 0 d  0 w3 d w3 neg 0 d 0 w3 d w3 neg 0 d 0 w3 neg d w3 neg 0 d cl f } def
/m35 {mp x y w2 add m w2 neg w2 neg d w2 w2 neg d w2 w2 d w2 neg w2 d x y w2 sub m 0 w d x w2 sub y m w 0 d s} def
/m36 {mb x w2 sub y w2 add m w w neg d x w2 sub y w2 sub m w w d s} def
/m37 {mp x y m w4 neg w2 d w4 neg w2 neg d w2 0 d  w4 neg w2 neg d w2 0 d w4 neg w2 d w2 0 d w4 neg w2 d w4 neg w2 neg d cl s} def
/m38 {mp x w4 sub y w2 add m w4 neg w4 neg d 0 w2 neg d w4 w4 neg d w2 0 d w4 w4 d 0 w2 d w4 neg w4 d w2 neg 0 d x y w2 sub m 0 w d x w2 sub y m w 0 d cl s} def
/m39 {mp x y m w4 neg w2 d w4 neg w2 neg d w2 0 d  w4 neg w2 neg d w2 0 d w4 neg w2 d w2 0 d w4 neg w2 d w4 neg w2 neg d cl f} def
/m40 {mp x y m w4 w2 d w4 w4 neg d w2 neg w4 neg d w2 w4 neg d w4 neg w4 neg d w4 neg w2 d w4 neg w2 neg d w4 neg w4 d w2 w4 d w2 neg w4 d w4 w4 d w4 w2 neg d cl s} def
/m41 {mp x y m w4 w2 d w4 w4 neg d w2 neg w4 neg d w2 w4 neg d w4 neg w4 neg d w4 neg w2 d w4 neg w2 neg d w4 neg w4 d w2 w4 d w2 neg w4 d w4 w4 d w4 w2 neg d cl f} def
/m42 {mp x y w2 add m w8 neg w2 -3 4 div mul d w2 -3 4 div mul w8 neg d w2 3 4 div mul w8 neg d w8 w2 -3 4 div mul d w8 w2 3 4 div mul d w2 3 4 div mul w8 d w2 -3 4 div mul w8 d w8 neg w2 3 4 div mul d cl s} def
/m43 {mp x y w2 add m w8 neg w2 -3 4 div mul d w2 -3 4 div mul w8 neg d w2 3 4 div mul w8 neg d w8 w2 -3 4 div mul d w8 w2 3 4 div mul d w2 3 4 div mul w8 d w2 -3 4 div mul w8 d w8 neg w2 3 4 div mul d cl f} def
/m44 {mp x y m w6 neg w2 d w2 2 3 div mul 0 d w6 neg w2 neg d w2 w6 d 0 w2 -2 3 div mul d w2 neg w6 d w6 w2 neg d w2 -2 3 div mul 0 d w6 w2 d w2 neg w6 neg d 0 w2 2 3 div mul d w2 w6 neg d cl s} def
/m45 {mp x y m w6 neg w2 d w2 2 3 div mul 0 d w6 neg w2 neg d w2 w6 d 0 w2 -2 3 div mul d w2 neg w6 d w6 w2 neg d w2 -2 3 div mul 0 d w6 w2 d w2 neg w6 neg d 0 w2 2 3 div mul d w2 w6 neg d cl f} def
/m46 {mp x y w4 add m w4 neg w4 d w4 neg w4 neg d  w4 w4 neg d w4 neg w4 neg d w4 w4 neg d w4 w4 d w4 w4 neg d w4 w4 d w4 neg w4 d w4 w4 d w4 neg w4 d w4 neg w4 neg d cl s} def
/m47 {mp x y w4 add m w4 neg w4 d w4 neg w4 neg d w4 w4 neg d w4 neg w4 neg d  w4 w4 neg d w4 w4 d w4 w4 neg d w4 w4 d w4 neg w4 d w4 w4 d w4 neg w4 d w4 neg w4 neg d cl f} def
/m48 {mp x y w4 add m w4 neg w4 d w4 neg w4 neg d w4 w4 neg d  w4 neg w4 neg d w4 w4 neg d w4 w4 d w4 w4 neg d w4 w4 d w4 neg w4 d w4 w4 d w4 neg w4 d w4 neg w4 neg d  w4 w4 neg d w4 neg w4 neg d w4 neg w4 d w4 w4 d cl f} def
/m49 {mp x w2 sub w3 add y w2 sub w3 add m  0 w3 neg d w3 0 d 0 w3 d w3 0 d 0 w3 d w3 neg 0 d 0 w3 d w3 neg 0 d 0 w3 neg d w3 neg 0 d 0 w3 neg d w3 0 d 0 w3 d w3 0 d 0 w3 neg d w3 neg 0 d cl f } def
/m2 {mp x y w2 sub m 0 w d x w2 sub y m w 0 d s} def
/m5 {mp x w2 sub y w2 sub m w w d x w2 sub y w2 add m w w neg d s} def
%%IncludeResource: ProcSet (FontSetInit)
%%IncludeResource: font Times-Roman
%%IncludeResource: font Times-Italic
%%IncludeResource: font Times-Bold
%%IncludeResource: font Times-BoldItalic
%%IncludeResource: font Helvetica
%%IncludeResource: font Helvetica-Oblique
%%IncludeResource: font Helvetica-Bold
%%IncludeResource: font Helvetica-BoldOblique
%%IncludeResource: font Courier
%%IncludeResource: font Courier-Oblique
%%IncludeResource: font Courier-Bold
%%IncludeResource: font Courier-BoldOblique
%%IncludeResource: font Symbol
%%IncludeResource: font ZapfDingbats
/reEncode {exch findfont dup length dict begin {1 index /FID eq  {pop pop} {def} ifelse } forall /Encoding exch def currentdict end dup /FontName get exch definefont pop } def [/Times-Bold /Times-Italic /Times-BoldItalic /Helvetica /Helvetica-Oblique
 /Helvetica-Bold /Helvetica-BoldOblique /Courier /Courier-Oblique /Courier-Bold /Courier-BoldOblique /Times-Roman /AvantGarde-Book /AvantGarde-BookOblique /AvantGarde-Demi /AvantGarde-DemiOblique /Bookman-Demi /Bookman-DemiItalic /Bookman-Light
 /Bookman-LightItalic /Helvetica-Narrow /Helvetica-Narrow-Bold /Helvetica-Narrow-BoldOblique /Helvetica-Narrow-Oblique /NewCenturySchlbk-Roman /NewCenturySchlbk-Bold /NewCenturySchlbk-BoldItalic /NewCenturySchlbk-Italic /Palatino-Bold
 /Palatino-BoldItalic /Palatino-Italic /Palatino-Roman ] {ISOLatin1Encoding reEncode } forall
%%EndProlog
%%BeginSetup
%%EndSetup
newpath  gsave  .25 .25 scale  gsave  0 0 t 0.490196 0.545098 0.615686 c[  ] 0 sd 3 lw 0.941176 0.941176 0.941176 c 2268 1666 0 0 bf black 1 1 0.992157 c 1909 1299 245 200 bf black 1909 1299 245 200 bl 1 1 0.992157 c 1909 1299 245 200 bf black 1909
 1299 245 200 bl 245 200 m 1909 X s 245 242 m -42 Y s[ 4 8] 0 sd 245 1499 m -1299 Y s[  ] 0 sd 283 221 m -21 Y s 321 221 m -21 Y s 359 221 m -21 Y s 398 221 m -21 Y s 436 242 m -42 Y s[ 4 8] 0 sd 436 1499 m -1299 Y s[  ] 0 sd 474 221 m -21 Y s 512
 221 m -21 Y s 550 221 m -21 Y s 589 221 m -21 Y s 627 242 m -42 Y s[ 4 8] 0 sd 627 1499 m -1299 Y s[  ] 0 sd 665 221 m -21 Y s 703 221 m -21 Y s 741 221 m -21 Y s 780 221 m -21 Y s 818 242 m -42 Y s[ 4 8] 0 sd 818 1499 m -1299 Y s[  ] 0 sd 856 221 m
 -21 Y s 894 221 m -21 Y s 932 221 m -21 Y s 970 221 m -21 Y s 1009 242 m -42 Y s[ 4 8] 0 sd 1009 1499 m -1299 Y s[  ] 0 sd 1047 221 m -21 Y s 1085 221 m -21 Y s 1123 221 m -21 Y s 1161 221 m -21 Y s 1200 242 m -42 Y s[ 4 8] 0 sd 1200 1499 m -1299 Y
 s[  ] 0 sd 1238 221 m -21 Y s 1276 221 m -21 Y s 1314 221 m -21 Y s 1352 221 m -21 Y s 1391 242 m -42 Y s[ 4 8] 0 sd 1391 1499 m -1299 Y s[  ] 0 sd 1429 221 m -21 Y s 1467 221 m -21 Y s 1505 221 m -21 Y s 1543 221 m -21 Y s 1582 242 m -42 Y s[ 4 8]
 0 sd 1582 1499 m -1299 Y s[  ] 0 sd 1620 221 m -21 Y s 1658 221 m -21 Y s 1696 221 m -21 Y s 1734 221 m -21 Y s 1772 242 m -42 Y s[ 4 8] 0 sd 1772 1499 m -1299 Y s[  ] 0 sd 1811 221 m -21 Y s 1849 221 m -21 Y s 1887 221 m -21 Y s 1925 221 m -21 Y s
 1963 242 m -42 Y s[ 4 8] 0 sd 1963 1499 m -1299 Y s[  ] 0 sd 2002 221 m -21 Y s 2040 221 m -21 Y s 2078 221 m -21 Y s 2116 221 m -21 Y s 2154 242 m -42 Y s[ 4 8] 0 sd 2154 1499 m -1299 Y s
 gsave  2268 1666 0 0 C 223.972 129.484 t 0 r /Helvetica-Bold findfont 62.9921 sf 0 0 m (0) show NC gr 
 gsave  2268 1666 0 0 C 395.451 129.484 t 0 r /Helvetica-Bold findfont 62.9921 sf 0 0 m (0.1) show NC gr 
 gsave  2268 1666 0 0 C 584.427 129.484 t 0 r /Helvetica-Bold findfont 62.9921 sf 0 0 m (0.2) show NC gr 
 gsave  2268 1666 0 0 C 773.403 129.484 t 0 r /Helvetica-Bold findfont 62.9921 sf 0 0 m (0.3) show NC gr 
 gsave  2268 1666 0 0 C 965.879 129.484 t 0 r /Helvetica-Bold findfont 62.9921 sf 0 0 m (0.4) show NC gr 
 gsave  2268 1666 0 0 C 1154.86 129.484 t 0 r /Helvetica-Bold findfont 62.9921 sf 0 0 m (0.5) show NC gr 
 gsave  2268 1666 0 0 C 1347.33 129.484 t 0 r /Helvetica-Bold findfont 62.9921 sf 0 0 m (0.6) show NC gr 
 gsave  2268 1666 0 0 C 1532.81 129.484 t 0 r /Helvetica-Bold findfont 62.9921 sf 0 0 m (0.7) show NC gr 
 gsave  2268 1666 0 0 C 1728.78 129.484 t 0 r /Helvetica-Bold findfont 62.9921 sf 0 0 m (0.8) show NC gr 
 gsave  2268 1666 0 0 C 1921.26 129.484 t 0 r /Helvetica-Bold findfont 62.9921 sf 0 0 m (0.9) show NC gr 
 gsave  2268 1666 0 0 C 2138.23 129.484 t 0 r /Helvetica-Bold findfont 62.9921 sf 0 0 m (1) show NC gr 
 gsave  2268 1666 0 0 C 1585.3 31.4961 t 0 r /Helvetica-Bold findfont 69.9912 sf 0 0 m (Signal Efficiency) show NC gr [  ] 0 sd 245 1499 m 1909 X s 245 1457 m 42 Y s 283 1478 m 21 Y s 321 1478 m 21 Y s 359 1478 m 21 Y s 398 1478 m 21 Y s 436 1457 m
 42 Y s 474 1478 m 21 Y s 512 1478 m 21 Y s 550 1478 m 21 Y s 589 1478 m 21 Y s 627 1457 m 42 Y s 665 1478 m 21 Y s 703 1478 m 21 Y s 741 1478 m 21 Y s 780 1478 m 21 Y s 818 1457 m 42 Y s 856 1478 m 21 Y s 894 1478 m 21 Y s 932 1478 m 21 Y s 970 1478
 m 21 Y s 1009 1457 m 42 Y s 1047 1478 m 21 Y s 1085 1478 m 21 Y s 1123 1478 m 21 Y s 1161 1478 m 21 Y s 1200 1457 m 42 Y s 1238 1478 m 21 Y s 1276 1478 m 21 Y s 1314 1478 m 21 Y s 1352 1478 m 21 Y s 1391 1457 m 42 Y s 1429 1478 m 21 Y s 1467 1478 m
 21 Y s 1505 1478 m 21 Y s 1543 1478 m 21 Y s 1582 1457 m 42 Y s 1620 1478 m 21 Y s 1658 1478 m 21 Y s 1696 1478 m 21 Y s 1734 1478 m 21 Y s 1772 1457 m 42 Y s 1811 1478 m 21 Y s 1849 1478 m 21 Y s 1887 1478 m 21 Y s 1925 1478 m 21 Y s 1963 1457 m 42
 Y s 2002 1478 m 21 Y s 2040 1478 m 21 Y s 2078 1478 m 21 Y s 2116 1478 m 21 Y s 2154 1457 m 42 Y s 245 200 m 1299 Y s 298 200 m -53 X s[ 4 8] 0 sd 2154 200 m -1909 X s[  ] 0 sd 271 226 m -26 X s 271 252 m -26 X s 271 278 m -26 X s 271 304 m -26 X s
 298 330 m -53 X s[ 4 8] 0 sd 2154 330 m -1909 X s[  ] 0 sd 271 356 m -26 X s 271 382 m -26 X s 271 408 m -26 X s 271 434 m -26 X s 298 460 m -53 X s[ 4 8] 0 sd 2154 460 m -1909 X s[  ] 0 sd 271 486 m -26 X s 271 512 m -26 X s 271 538 m -26 X s 271
 564 m -26 X s 298 590 m -53 X s[ 4 8] 0 sd 2154 590 m -1909 X s[  ] 0 sd 271 616 m -26 X s 271 642 m -26 X s 271 668 m -26 X s 271 694 m -26 X s 298 720 m -53 X s[ 4 8] 0 sd 2154 720 m -1909 X s[  ] 0 sd 271 746 m -26 X s 271 772 m -26 X s 271 798 m
 -26 X s 271 824 m -26 X s 298 850 m -53 X s[ 4 8] 0 sd 2154 850 m -1909 X s[  ] 0 sd 271 876 m -26 X s 271 902 m -26 X s 271 928 m -26 X s 271 953 m -26 X s 298 979 m -53 X s[ 4 8] 0 sd 2154 979 m -1909 X s[  ] 0 sd 271 1005 m -26 X s 271 1031 m -26
 X s 271 1057 m -26 X s 271 1083 m -26 X s 298 1109 m -53 X s[ 4 8] 0 sd 2154 1109 m -1909 X s[  ] 0 sd 271 1135 m -26 X s 271 1161 m -26 X s 271 1187 m -26 X s 271 1213 m -26 X s 298 1239 m -53 X s[ 4 8] 0 sd 2154 1239 m -1909 X s[  ] 0 sd 271 1265
 m -26 X s 271 1291 m -26 X s 271 1317 m -26 X s 271 1343 m -26 X s 298 1369 m -53 X s[ 4 8] 0 sd 2154 1369 m -1909 X s[  ] 0 sd 271 1395 m -26 X s 271 1421 m -26 X s 271 1447 m -26 X s 271 1473 m -26 X s 298 1499 m -53 X s[ 4 8] 0 sd 2154 1499 m
 -1909 X s
 gsave  2268 1666 0 0 C 181.977 178.478 t 0 r /Helvetica-Bold findfont 62.9921 sf 0 0 m (0) show NC gr 
 gsave  2268 1666 0 0 C 139.982 307.961 t 0 r /Helvetica-Bold findfont 62.9921 sf 0 0 m (0.1) show NC gr 
 gsave  2268 1666 0 0 C 132.983 437.445 t 0 r /Helvetica-Bold findfont 62.9921 sf 0 0 m (0.2) show NC gr 
 gsave  2268 1666 0 0 C 132.983 566.929 t 0 r /Helvetica-Bold findfont 62.9921 sf 0 0 m (0.3) show NC gr 
 gsave  2268 1666 0 0 C 132.983 696.413 t 0 r /Helvetica-Bold findfont 62.9921 sf 0 0 m (0.4) show NC gr 
 gsave  2268 1666 0 0 C 132.983 825.897 t 0 r /Helvetica-Bold findfont 62.9921 sf 0 0 m (0.5) show NC gr 
 gsave  2268 1666 0 0 C 132.983 955.381 t 0 r /Helvetica-Bold findfont 62.9921 sf 0 0 m (0.6) show NC gr 
 gsave  2268 1666 0 0 C 129.484 1088.36 t 0 r /Helvetica-Bold findfont 62.9921 sf 0 0 m (0.7) show NC gr 
 gsave  2268 1666 0 0 C 132.983 1217.85 t 0 r /Helvetica-Bold findfont 62.9921 sf 0 0 m (0.8) show NC gr 
 gsave  2268 1666 0 0 C 132.983 1347.33 t 0 r /Helvetica-Bold findfont 62.9921 sf 0 0 m (0.9) show NC gr 
 gsave  2268 1666 0 0 C 192.476 1476.82 t 0 r /Helvetica-Bold findfont 62.9921 sf 0 0 m (1) show NC gr 
 gsave  2268 1666 0 0 C 62.9921 496.938 t 90 r /Helvetica-Bold findfont 69.9912 sf 0 0 m (Background Rejection \(1 \255 eff\)) show NC gr [  ] 0 sd 2154 200 m 1299 Y s 2101 200 m 53 X s 2128 226 m 26 X s 2128 252 m 26 X s 2128 278 m 26 X s 2128 304 m
 26 X s 2101 330 m 53 X s 2128 356 m 26 X s 2128 382 m 26 X s 2128 408 m 26 X s 2128 434 m 26 X s 2101 460 m 53 X s 2128 486 m 26 X s 2128 512 m 26 X s 2128 538 m 26 X s 2128 564 m 26 X s 2101 590 m 53 X s 2128 616 m 26 X s 2128 642 m 26 X s 2128 668
 m 26 X s 2128 694 m 26 X s 2101 720 m 53 X s 2128 746 m 26 X s 2128 772 m 26 X s 2128 798 m 26 X s 2128 824 m 26 X s 2101 850 m 53 X s 2128 876 m 26 X s 2128 902 m 26 X s 2128 928 m 26 X s 2128 953 m 26 X s 2101 979 m 53 X s 2128 1005 m 26 X s 2128
 1031 m 26 X s 2128 1057 m 26 X s 2128 1083 m 26 X s 2101 1109 m 53 X s 2128 1135 m 26 X s 2128 1161 m 26 X s 2128 1187 m 26 X s 2128 1213 m 26 X s 2101 1239 m 53 X s 2128 1265 m 26 X s 2128 1291 m 26 X s 2128 1317 m 26 X s 2128 1343 m 26 X s 2101
 1369 m 53 X s 2128 1395 m 26 X s 2128 1421 m 26 X s 2128 1447 m 26 X s 2128 1473 m 26 X s 2101 1499 m 53 X s 0.490196 0.545098 0.615686 c 0.364706 0.419608 0.490196 c 1587 100 23 1557 bf 0.490196 0.545098 0.615686 c 23 1557 m 1587 X s 1610 1557 m
 100 Y s 1610 1657 m -1587 X s 23 1657 m -100 Y s 1 1 1 c black 1 1 1 c
 gsave  2268 1666 0 0 C 69.9912 1588.8 t 0 r /Helvetica-Bold findfont 69.9912 sf 0 0 m (ROC Curve bkg_NOSIG \(Sig\) vs Signal \(Bkg\)) show NC gr  black
 gsave  2268 1666 0 0 C 370.954 475.94 t 0 r /Helvetica-Bold findfont 55.993 sf 0 0 m (MVA Method:) show NC gr 
 gsave  2268 1666 0 0 C 654.418 335.958 t 0 r /Helvetica-Bold findfont 55.993 sf 0 0 m (BDTG) show NC gr  9 lw 388 355 m 222 X s 3 lw 1 1 0.992157 c 1909 1299 245 200 bf black 1909 1299 245 200 bl 245 200 m 1909 X s 245 242 m -42 Y s[ 4 8] 0 sd 245
 1499 m -1299 Y s[  ] 0 sd 283 221 m -21 Y s 321 221 m -21 Y s 359 221 m -21 Y s 398 221 m -21 Y s 436 242 m -42 Y s[ 4 8] 0 sd 436 1499 m -1299 Y s[  ] 0 sd 474 221 m -21 Y s 512 221 m -21 Y s 550 221 m -21 Y s 589 221 m -21 Y s 627 242 m -42 Y s[ 4
 8] 0 sd 627 1499 m -1299 Y s[  ] 0 sd 665 221 m -21 Y s 703 221 m -21 Y s 741 221 m -21 Y s 780 221 m -21 Y s 818 242 m -42 Y s[ 4 8] 0 sd 818 1499 m -1299 Y s[  ] 0 sd 856 221 m -21 Y s 894 221 m -21 Y s 932 221 m -21 Y s 970 221 m -21 Y s 1009 242
 m -42 Y s[ 4 8] 0 sd 1009 1499 m -1299 Y s[  ] 0 sd 1047 221 m -21 Y s 1085 221 m -21 Y s 1123 221 m -21 Y s 1161 221 m -21 Y s 1200 242 m -42 Y s[ 4 8] 0 sd 1200 1499 m -1299 Y s[  ] 0 sd 1238 221 m -21 Y s 1276 221 m -21 Y s 1314 221 m -21 Y s
 1352 221 m -21 Y s 1391 242 m -42 Y s[ 4 8] 0 sd 1391 1499 m -1299 Y s[  ] 0 sd 1429 221 m -21 Y s 1467 221 m -21 Y s 1505 221 m -21 Y s 1543 221 m -21 Y s 1582 242 m -42 Y s[ 4 8] 0 sd 1582 1499 m -1299 Y s[  ] 0 sd 1620 221 m -21 Y s 1658 221 m
 -21 Y s 1696 221 m -21 Y s 1734 221 m -21 Y s 1772 242 m -42 Y s[ 4 8] 0 sd 1772 1499 m -1299 Y s[  ] 0 sd 1811 221 m -21 Y s 1849 221 m -21 Y s 1887 221 m -21 Y s 1925 221 m -21 Y s 1963 242 m -42 Y s[ 4 8] 0 sd 1963 1499 m -1299 Y s[  ] 0 sd 2002
 221 m -21 Y s 2040 221 m -21 Y s 2078 221 m -21 Y s 2116 221 m -21 Y s 2154 242 m -42 Y s[ 4 8] 0 sd 2154 1499 m -1299 Y s
 gsave  2268 1666 0 0 C 223.972 129.484 t 0 r /Helvetica-Bold findfont 62.9921 sf 0 0 m (0) show NC gr 
 gsave  2268 1666 0 0 C 395.451 129.484 t 0 r /Helvetica-Bold findfont 62.9921 sf 0 0 m (0.1) show NC gr 
 gsave  2268 1666 0 0 C 584.427 129.484 t 0 r /Helvetica-Bold findfont 62.9921 sf 0 0 m (0.2) show NC gr 
 gsave  2268 1666 0 0 C 773.403 129.484 t 0 r /Helvetica-Bold findfont 62.9921 sf 0 0 m (0.3) show NC gr 
 gsave  2268 1666 0 0 C 965.879 129.484 t 0 r /Helvetica-Bold findfont 62.9921 sf 0 0 m (0.4) show NC gr 
 gsave  2268 1666 0 0 C 1154.86 129.484 t 0 r /Helvetica-Bold findfont 62.9921 sf 0 0 m (0.5) show NC gr 
 gsave  2268 1666 0 0 C 1347.33 129.484 t 0 r /Helvetica-Bold findfont 62.9921 sf 0 0 m (0.6) show NC gr 
 gsave  2268 1666 0 0 C 1532.81 129.484 t 0 r /Helvetica-Bold findfont 62.9921 sf 0 0 m (0.7) show NC gr 
 gsave  2268 1666 0 0 C 1728.78 129.484 t 0 r /Helvetica-Bold findfont 62.9921 sf 0 0 m (0.8) show NC gr 
 gsave  2268 1666 0 0 C 1921.26 129.484 t 0 r /Helvetica-Bold findfont 62.9921 sf 0 0 m (0.9) show NC gr 
 gsave  2268 1666 0 0 C 2138.23 129.484 t 0 r /Helvetica-Bold findfont 62.9921 sf 0 0 m (1) show NC gr 
 gsave  2268 1666 0 0 C 1585.3 31.4961 t 0 r /Helvetica-Bold findfont 69.9912 sf 0 0 m (Signal Efficiency) show NC gr [  ] 0 sd 245 1499 m 1909 X s 245 1457 m 42 Y s 283 1478 m 21 Y s 321 1478 m 21 Y s 359 1478 m 21 Y s 398 1478 m 21 Y s 436 1457 m
 42 Y s 474 1478 m 21 Y s 512 1478 m 21 Y s 550 1478 m 21 Y s 589 1478 m 21 Y s 627 1457 m 42 Y s 665 1478 m 21 Y s 703 1478 m 21 Y s 741 1478 m 21 Y s 780 1478 m 21 Y s 818 1457 m 42 Y s 856 1478 m 21 Y s 894 1478 m 21 Y s 932 1478 m 21 Y s 970 1478
 m 21 Y s 1009 1457 m 42 Y s 1047 1478 m 21 Y s 1085 1478 m 21 Y s 1123 1478 m 21 Y s 1161 1478 m 21 Y s 1200 1457 m 42 Y s 1238 1478 m 21 Y s 1276 1478 m 21 Y s 1314 1478 m 21 Y s 1352 1478 m 21 Y s 1391 1457 m 42 Y s 1429 1478 m 21 Y s 1467 1478 m
 21 Y s 1505 1478 m 21 Y s 1543 1478 m 21 Y s 1582 1457 m 42 Y s 1620 1478 m 21 Y s 1658 1478 m 21 Y s 1696 1478 m 21 Y s 1734 1478 m 21 Y s 1772 1457 m 42 Y s 1811 1478 m 21 Y s 1849 1478 m 21 Y s 1887 1478 m 21 Y s 1925 1478 m 21 Y s 1963 1457 m 42
 Y s 2002 1478 m 21 Y s 2040 1478 m 21 Y s 2078 1478 m 21 Y s 2116 1478 m 21 Y s 2154 1457 m 42 Y s 245 200 m 1299 Y s 298 200 m -53 X s[ 4 8] 0 sd 2154 200 m -1909 X s[  ] 0 sd 271 226 m -26 X s 271 252 m -26 X s 271 278 m -26 X s 271 304 m -26 X s
 298 330 m -53 X s[ 4 8] 0 sd 2154 330 m -1909 X s[  ] 0 sd 271 356 m -26 X s 271 382 m -26 X s 271 408 m -26 X s 271 434 m -26 X s 298 460 m -53 X s[ 4 8] 0 sd 2154 460 m -1909 X s[  ] 0 sd 271 486 m -26 X s 271 512 m -26 X s 271 538 m -26 X s 271
 564 m -26 X s 298 590 m -53 X s[ 4 8] 0 sd 2154 590 m -1909 X s[  ] 0 sd 271 616 m -26 X s 271 642 m -26 X s 271 668 m -26 X s 271 694 m -26 X s 298 720 m -53 X s[ 4 8] 0 sd 2154 720 m -1909 X s[  ] 0 sd 271 746 m -26 X s 271 772 m -26 X s 271 798 m
 -26 X s 271 824 m -26 X s 298 850 m -53 X s[ 4 8] 0 sd 2154 850 m -1909 X s[  ] 0 sd 271 876 m -26 X s 271 902 m -26 X s 271 928 m -26 X s 271 953 m -26 X s 298 979 m -53 X s[ 4 8] 0 sd 2154 979 m -1909 X s[  ] 0 sd 271 1005 m -26 X s 271 1031 m -26
 X s 271 1057 m -26 X s 271 1083 m -26 X s 298 1109 m -53 X s[ 4 8] 0 sd 2154 1109 m -1909 X s[  ] 0 sd 271 1135 m -26 X s 271 1161 m -26 X s 271 1187 m -26 X s 271 1213 m -26 X s 298 1239 m -53 X s[ 4 8] 0 sd 2154 1239 m -1909 X s[  ] 0 sd 271 1265
 m -26 X s 271 1291 m -26 X s 271 1317 m -26 X s 271 1343 m -26 X s 298 1369 m -53 X s[ 4 8] 0 sd 2154 1369 m -1909 X s[  ] 0 sd 271 1395 m -26 X s 271 1421 m -26 X s 271 1447 m -26 X s 271 1473 m -26 X s 298 1499 m -53 X s[ 4 8] 0 sd 2154 1499 m
 -1909 X s
 gsave  2268 1666 0 0 C 181.977 178.478 t 0 r /Helvetica-Bold findfont 62.9921 sf 0 0 m (0) show NC gr 
 gsave  2268 1666 0 0 C 139.982 307.961 t 0 r /Helvetica-Bold findfont 62.9921 sf 0 0 m (0.1) show NC gr 
 gsave  2268 1666 0 0 C 132.983 437.445 t 0 r /Helvetica-Bold findfont 62.9921 sf 0 0 m (0.2) show NC gr 
 gsave  2268 1666 0 0 C 132.983 566.929 t 0 r /Helvetica-Bold findfont 62.9921 sf 0 0 m (0.3) show NC gr 
 gsave  2268 1666 0 0 C 132.983 696.413 t 0 r /Helvetica-Bold findfont 62.9921 sf 0 0 m (0.4) show NC gr 
 gsave  2268 1666 0 0 C 132.983 825.897 t 0 r /Helvetica-Bold findfont 62.9921 sf 0 0 m (0.5) show NC gr 
 gsave  2268 1666 0 0 C 132.983 955.381 t 0 r /Helvetica-Bold findfont 62.9921 sf 0 0 m (0.6) show NC gr 
 gsave  2268 1666 0 0 C 129.484 1088.36 t 0 r /Helvetica-Bold findfont 62.9921 sf 0 0 m (0.7) show NC gr 
 gsave  2268 1666 0 0 C 132.983 1217.85 t 0 r /Helvetica-Bold findfont 62.9921 sf 0 0 m (0.8) show NC gr 
 gsave  2268 1666 0 0 C 132.983 1347.33 t 0 r /Helvetica-Bold findfont 62.9921 sf 0 0 m (0.9) show NC gr 
 gsave  2268 1666 0 0 C 192.476 1476.82 t 0 r /Helvetica-Bold findfont 62.9921 sf 0 0 m (1) show NC gr 
 gsave  2268 1666 0 0 C 62.9921 496.938 t 90 r /Helvetica-Bold findfont 69.9912 sf 0 0 m (Background Rejection \(1 \255 eff\)) show NC gr [  ] 0 sd 2154 200 m 1299 Y s 2101 200 m 53 X s 2128 226 m 26 X s 2128 252 m 26 X s 2128 278 m 26 X s 2128 304 m
 26 X s 2101 330 m 53 X s 2128 356 m 26 X s 2128 382 m 26 X s 2128 408 m 26 X s 2128 434 m 26 X s 2101 460 m 53 X s 2128 486 m 26 X s 2128 512 m 26 X s 2128 538 m 26 X s 2128 564 m 26 X s 2101 590 m 53 X s 2128 616 m 26 X s 2128 642 m 26 X s 2128 668
 m 26 X s 2128 694 m 26 X s 2101 720 m 53 X s 2128 746 m 26 X s 2128 772 m 26 X s 2128 798 m 26 X s 2128 824 m 26 X s 2101 850 m 53 X s 2128 876 m 26 X s 2128 902 m 26 X s 2128 928 m 26 X s 2128 953 m 26 X s 2101 979 m 53 X s 2128 1005 m 26 X s 2128
 1031 m 26 X s 2128 1057 m 26 X s 2128 1083 m 26 X s 2101 1109 m 53 X s 2128 1135 m 26 X s 2128 1161 m 26 X s 2128 1187 m 26 X s 2128 1213 m 26 X s 2101 1239 m 53 X s 2128 1265 m 26 X s 2128 1291 m 26 X s 2128 1317 m 26 X s 2128 1343 m 26 X s 2101
 1369 m 53 X s 2128 1395 m 26 X s 2128 1421 m 26 X s 2128 1447 m 26 X s 2128 1473 m 26 X s 2101 1499 m 53 X s 9 lw 1 1 1 c black 2154 200 m -3 X 1 Y -3 X 1 Y -3 X 1 Y -3 X 1 Y -1 X 1 Y -1 X 1 Y -1 X 1 Y -1 X 2 Y -1 X 1 Y -1 X 2 Y -1 X 2 Y -1 X 3 Y -1
 X 2 Y -1 X 2 Y -1 X 2 Y -1 X 2 Y -1 X 2 Y -1 X 2 Y -1 X 3 Y -1 X 3 Y -1 X 4 Y -1 X 4 Y -1 X 4 Y -1 X 5 Y -1 X 4 Y -1 X 4 Y -1 X 4 Y -1 X 4 Y -1 X 4 Y -1 X 4 Y -1 X 4 Y -1 X 5 Y -1 X 5 Y -1 X 5 Y -1 X 4 Y -1 X 5 Y -1 X 4 Y -1 X 5 Y -1 X 5 Y -1 X 4 Y
 -1 X 5 Y -1 X 5 Y -1 X 4 Y -1 X 6 Y -1 X 6 Y -1 X 5 Y -1 X 6 Y -1 X 6 Y -1 X 5 Y -1 X 5 Y -1 X 6 Y -1 X 5 Y -1 X 7 Y -1 X 5 Y -1 X 6 Y -1 X 7 Y -1 X 5 Y -1 X 6 Y -1 X 5 Y -1 X 6 Y -1 X 6 Y -1 X 6 Y -1 X 6 Y -1 X 7 Y -1 X 7 Y -1 X 6 Y -1 X 6 Y -1 X 6
 Y -1 X 7 Y -1 X 7 Y -1 X 7 Y -1 X 8 Y -1 X 7 Y -1 X 6 Y -1 X 7 Y -1 X 7 Y -1 X 7 Y -1 X 5 Y -1 X 7 Y -1 X 7 Y -1 X 7 Y -1 X 7 Y -1 X 6 Y -1 X 6 Y -1 X 7 Y -1 X 6 Y -1 X 7 Y -1 X 6 Y -1 X 6 Y -1 X 7 Y -1 X 8 Y -1 X 6 Y -1 X 7 Y -1 X 8 Y -1 X 8 Y -1 X
 7 Y -1 X 7 Y -1 X 6 Y -1 X 6 Y -1 X 7 Y -1 X 7 Y -1 X 6 Y -1 X 6 Y -1 X 7 Y -1 X 7 Y -1 X 5 Y -1 X 6 Y -1 X 7 Y -1 X 6 Y -1 X 7 Y -1 X 5 Y -1 X 7 Y -1 X 6 Y -1 X 6 Y -1 X 6 Y -1 X 7 Y -1 X 7 Y -1 X 5 Y -1 X 5 Y -1 X 5 Y -1 X 7 Y -1 X 5 Y -1 X 6 Y -1
 X 5 Y -1 X 6 Y -1 X 6 Y -1 X 5 Y -1 X 7 Y -1 X 5 Y -1 X 5 Y -1 X 6 Y -1 X 5 Y -1 X 5 Y -1 X 5 Y -1 X 5 Y -1 X 6 Y -1 X 6 Y -1 X 5 Y -1 X 4 Y -1 X 6 Y -1 X 6 Y -1 X 4 Y -1 X 5 Y -1 X 6 Y -1 X 6 Y -1 X 5 Y -1 X 6 Y -1 X 5 Y -1 X 4 Y -1 X 5 Y -1 X 4 Y
 -1 X 5 Y -1 X 5 Y -1 X 4 Y -1 X 5 Y -1 X 4 Y -1 X 6 Y -1 X 3 Y -1 X 5 Y -1 X 4 Y -1 X 6 Y -1 X 4 Y -1 X 5 Y -1 X 4 Y -1 X 5 Y -1 X 4 Y -1 X 4 Y -1 X 5 Y -1 X 3 Y -1 X 4 Y -1 X 4 Y -1 X 4 Y -1 X 3 Y -1 X 5 Y -1 X 4 Y -1 X 3 Y -1 X 3 Y -1 X 5 Y -1 X 4
 Y -1 X 3 Y -1 X 4 Y -1 X 3 Y -1 X 3 Y -1 X 3 Y -1 X 4 Y -1 X 3 Y -1 X 4 Y -1 X 3 Y -1 X 3 Y -1 X 3 Y -1 X 3 Y -1 X 3 Y -1 X 2 Y -1 X 3 Y -1 X 2 Y -1 X 2 Y -1 X 4 Y -1 X 2 Y -1 X 3 Y -1 X 2 Y -1 X 2 Y -1 X 2 Y -1 X 3 Y -1 X 3 Y -1 X 2 Y -1 X 2 Y -1 X
 3 Y -1 X 3 Y -1 X 2 Y -1 X 3 Y -1 X 2 Y -1 X 2 Y -1 X 3 Y -1 X 2 Y -1 X 2 Y -1 X 3 Y -1 X 2 Y -1 X 2 Y -1 X 2 Y -1 X 2 Y -1 X 2 Y -1 X 3 Y -1 X 2 Y -1 X 2 Y -1 X 2 Y -1 X 3 Y -1 X 2 Y -1 X 2 Y -1 X 2 Y -1 X 3 Y -1 X 1 Y -1 X 3 Y -1 X 2 Y -1 X 2 Y -1
 X 2 Y -1 X 2 Y -1 X 3 Y -1 X 1 Y -1 X 2 Y -1 X 2 Y -1 X 2 Y -1 X 1 Y -1 X 2 Y -1 X 1 Y -1 X 2 Y -1 X 2 Y -1 X 2 Y -1 X 2 Y -1 X 1 Y -1 X 2 Y -1 X 1 Y -1 X 2 Y -1 X 1 Y -1 X 2 Y -1 X 2 Y -1 X 2 Y -1 X 1 Y -1 X 2 Y -1 X 1 Y -1 X 1 Y -1 X 2 Y -1 X 1 Y
 -1 X 1 Y -1 X 2 Y -1 X 1 Y -1 X 1 Y -1 X 2 Y -1 X 1 Y -1 X 2 Y -1 X 1 Y -1 X 1 Y -1 X 2 Y -1 X 1 Y -1 X 1 Y -1 X 1 Y -1 X 2 Y -1 X 1 Y -1 X 2 Y -1 X 1 Y -1 X 2 Y -1 X 1 Y -1 X 1 Y -1 X 1 Y -1 X 1 Y -1 X 1 Y -1 X 1 Y -2 X 2 Y -1 X 1 Y -1 X 1 Y -1 X 2
 Y -1 X 1 Y -1 X 1 Y -1 X 1 Y -1 X 1 Y -1 X 1 Y -1 X 2 Y -1 X 1 Y -1 X 1 Y -2 X 1 Y -1 X 1 Y -1 X 1 Y -1 X 1 Y -1 X 2 Y -2 X 2 Y -2 X 1 Y -1 X 1 Y -1 X 1 Y -1 X 1 Y -2 X 1 Y -1 X 1 Y -1 X 1 Y -1 X 1 Y -1 X 1 Y -1 X 1 Y -1 X 1 Y -1 X 1 Y -1 X 1 Y -1 X
 1 Y -1 X 1 Y -2 X 1 Y -1 X 1 Y -1 X 1 Y -1 X 1 Y -1 X 1 Y -1 X 1 Y -1 X 1 Y -2 X 1 Y -1 X 1 Y -1 X 1 Y -2 X 2 Y -2 X 1 Y -1 X 1 Y -2 X 1 Y -1 X 1 Y -2 X 1 Y -1 X 1 Y -2 X 1 Y -1 X 1 Y -2 X 1 Y -1 X 1 Y -2 X 1 Y -2 X 1 Y -2 X 1 Y -1 X 1 Y -3 X 1 Y -3
 X 1 Y -1 X 1 Y -2 X 1 Y -2 X 1 Y -1 X 1 Y -3 X 1 Y -3 X 1 Y -2 X 1 Y -1 X 1 Y -3 X 1 Y -2 X 1 Y -2 X 1 Y -2 X 1 Y -2 X 1 Y -2 X 1 Y -2 X 1 Y -2 X 1 Y -2 X 1 Y -2 X 1 Y -2 X 1 Y -4 X 1 Y -2 X 1 Y -3 X 1 Y -3 X 1 Y -3 X 1 Y -3 X 1 Y -2 X 1 Y -2 X 1 Y
 -3 X 1 Y -3 X 1 Y -2 X 1 Y -3 X 1 Y -2 X 1 Y -4 X 1 Y -2 X 1 Y -2 X 1 Y -3 X 1 Y -3 X 1 Y -4 X 1 Y -4 X 1 Y -2 X 1 Y -3 X 1 Y -3 X 1 Y -7 X 1 Y -4 X 1 Y -3 X 1 Y -4 X 1 Y -5 X 1 Y -4 X 1 Y -6 X 1 Y -6 X 1 Y -5 X 1 Y -5 X 1 Y -5 X 1 Y -5 X 1 Y -3 X 1
 Y -2 X 1 Y -4 X 1 Y -2 X 1 Y -2 X 1 Y -2 X 1 Y -1 X 1 Y -1 X 1 Y -3 X 1 Y -2 X 1 Y -2 X 1 Y -1 X 1 Y -2 X 1 Y -1 X 1 Y -2 X 1 Y -2 X 1 Y -1 X 1 Y -2 X 1 Y -1 X 1 Y -3 X 1 Y -2 X 1 Y -5 X 1 Y -2 X 1 Y -4 X 1 Y -7 X 1 Y -6 X 1 Y -6 X 1 Y -5 X 1 Y -9 X
 1 Y -6 X 1 Y -8 X 1 Y -12 X 1 Y -7 X 1 Y -5 X 1 Y -9 X 1 Y -7 X 1 Y -8 X 1 Y -10 X 1 Y -10 X 1 Y -11 X 1 Y -12 X 1 Y -12 X 1 Y -21 X 1 Y -19 X 1 Y -43 X 1 Y -24 X 1 Y -28 X 1 Y -66 X 1 Y -75 X 1 Y -109 X 1 Y -164 X 1 Y -268 X 1 Y -354 X s
 gr  gr showpage
end
%%EOF
