%!PS-Adobe-2.0 EPSF-2.0
%%BoundingBox:  0 0 567 327
%%Title: dataset/plots/BDTG_5.eps: Reading weight file: /afs/cern.ch/user/q/qchristi/My_Project/IsolationDev/my_scripts/dataset/weights/TMVAMulticlass_BDTG.weights.xml
%%Creator: ROOT Version 6.18/00
%%CreationDate: Thu Aug  8 14:06:07 2019
%%DocumentNeededResources: ProcSet (FontSetInit)
%%EndComments
%%BeginProlog
80 dict begin
/s {stroke} def /l {lineto} def /m {moveto} def /t {translate} def
/r {rotate} def /rl {roll}  def /R {repeat} def
/d {rlineto} def /rm {rmoveto} def /gr {grestore} def /f {eofill} def
/c {setrgbcolor} def /black {0 setgray} def /sd {setdash} def
/cl {closepath} def /sf {scalefont setfont} def /lw {setlinewidth} def
/box {m dup 0 exch d exch 0 d 0 exch neg d cl} def
/NC{systemdict begin initclip end}def/C{NC box clip newpath}def
/bl {box s} def /bf {gsave box gsave f grestore 1 lw [] 0 sd s grestore} def /Y { 0 exch d} def /X { 0 d} def 
/K {{pop pop 0 moveto} exch kshow} bind def
/ita {/ang 15 def gsave [1 0 ang dup sin exch cos div 1 0 0] concat} def 
/mp {newpath /y exch def /x exch def} def
/side {[w .77 mul w .23 mul] .385 w mul sd w 0 l currentpoint t -144 r} def
/mr {mp x y w2 0 360 arc} def /m24 {mr s} def /m20 {mr f} def
/mb {mp x y w2 add m w2 neg 0 d 0 w neg d w 0 d 0 w d cl} def
/mt {mp x y w2 add m w2 neg w neg d w 0 d cl} def
/w4 {w 4 div} def
/w6 {w 6 div} def
/w8 {w 8 div} def
/m21 {mb f} def /m25 {mb s} def /m22 {mt f} def /m26{mt s} def
/m23 {mp x y w2 sub m w2 w d w neg 0 d cl f} def
/m27 {mp x y w2 add m w3 neg w2 neg d w3 w2 neg d w3 w2 d cl s} def
/m28 {mp x w2 sub y w2 sub w3 add m w3 0 d  0 w3 neg d w3 0 d 0 w3 d w3 0 d  0 w3 d w3 neg 0 d 0 w3 d w3 neg 0 d 0 w3 neg d w3 neg 0 d cl s } def
/m29 {mp gsave x w2 sub y w2 add w3 sub m currentpoint t 4 {side} repeat cl fill gr} def
/m30 {mp gsave x w2 sub y w2 add w3 sub m currentpoint t 4 {side} repeat cl s gr} def
/m31 {mp x y w2 sub m 0 w d x w2 sub y m w 0 d x w2 sub y w2 add m w w neg d x w2 sub y w2 sub m w w d s} def
/m32 {mp x y w2 sub m w2 w d w neg 0 d cl s} def
/m33 {mp x y w2 add m w3 neg w2 neg d w3 w2 neg d w3 w2 d cl f} def
/m34 {mp x w2 sub y w2 sub w3 add m w3 0 d  0 w3 neg d w3 0 d 0 w3 d w3 0 d  0 w3 d w3 neg 0 d 0 w3 d w3 neg 0 d 0 w3 neg d w3 neg 0 d cl f } def
/m35 {mp x y w2 add m w2 neg w2 neg d w2 w2 neg d w2 w2 d w2 neg w2 d x y w2 sub m 0 w d x w2 sub y m w 0 d s} def
/m36 {mb x w2 sub y w2 add m w w neg d x w2 sub y w2 sub m w w d s} def
/m37 {mp x y m w4 neg w2 d w4 neg w2 neg d w2 0 d  w4 neg w2 neg d w2 0 d w4 neg w2 d w2 0 d w4 neg w2 d w4 neg w2 neg d cl s} def
/m38 {mp x w4 sub y w2 add m w4 neg w4 neg d 0 w2 neg d w4 w4 neg d w2 0 d w4 w4 d 0 w2 d w4 neg w4 d w2 neg 0 d x y w2 sub m 0 w d x w2 sub y m w 0 d cl s} def
/m39 {mp x y m w4 neg w2 d w4 neg w2 neg d w2 0 d  w4 neg w2 neg d w2 0 d w4 neg w2 d w2 0 d w4 neg w2 d w4 neg w2 neg d cl f} def
/m40 {mp x y m w4 w2 d w4 w4 neg d w2 neg w4 neg d w2 w4 neg d w4 neg w4 neg d w4 neg w2 d w4 neg w2 neg d w4 neg w4 d w2 w4 d w2 neg w4 d w4 w4 d w4 w2 neg d cl s} def
/m41 {mp x y m w4 w2 d w4 w4 neg d w2 neg w4 neg d w2 w4 neg d w4 neg w4 neg d w4 neg w2 d w4 neg w2 neg d w4 neg w4 d w2 w4 d w2 neg w4 d w4 w4 d w4 w2 neg d cl f} def
/m42 {mp x y w2 add m w8 neg w2 -3 4 div mul d w2 -3 4 div mul w8 neg d w2 3 4 div mul w8 neg d w8 w2 -3 4 div mul d w8 w2 3 4 div mul d w2 3 4 div mul w8 d w2 -3 4 div mul w8 d w8 neg w2 3 4 div mul d cl s} def
/m43 {mp x y w2 add m w8 neg w2 -3 4 div mul d w2 -3 4 div mul w8 neg d w2 3 4 div mul w8 neg d w8 w2 -3 4 div mul d w8 w2 3 4 div mul d w2 3 4 div mul w8 d w2 -3 4 div mul w8 d w8 neg w2 3 4 div mul d cl f} def
/m44 {mp x y m w6 neg w2 d w2 2 3 div mul 0 d w6 neg w2 neg d w2 w6 d 0 w2 -2 3 div mul d w2 neg w6 d w6 w2 neg d w2 -2 3 div mul 0 d w6 w2 d w2 neg w6 neg d 0 w2 2 3 div mul d w2 w6 neg d cl s} def
/m45 {mp x y m w6 neg w2 d w2 2 3 div mul 0 d w6 neg w2 neg d w2 w6 d 0 w2 -2 3 div mul d w2 neg w6 d w6 w2 neg d w2 -2 3 div mul 0 d w6 w2 d w2 neg w6 neg d 0 w2 2 3 div mul d w2 w6 neg d cl f} def
/m46 {mp x y w4 add m w4 neg w4 d w4 neg w4 neg d  w4 w4 neg d w4 neg w4 neg d w4 w4 neg d w4 w4 d w4 w4 neg d w4 w4 d w4 neg w4 d w4 w4 d w4 neg w4 d w4 neg w4 neg d cl s} def
/m47 {mp x y w4 add m w4 neg w4 d w4 neg w4 neg d w4 w4 neg d w4 neg w4 neg d  w4 w4 neg d w4 w4 d w4 w4 neg d w4 w4 d w4 neg w4 d w4 w4 d w4 neg w4 d w4 neg w4 neg d cl f} def
/m48 {mp x y w4 add m w4 neg w4 d w4 neg w4 neg d w4 w4 neg d  w4 neg w4 neg d w4 w4 neg d w4 w4 d w4 w4 neg d w4 w4 d w4 neg w4 d w4 w4 d w4 neg w4 d w4 neg w4 neg d  w4 w4 neg d w4 neg w4 neg d w4 neg w4 d w4 w4 d cl f} def
/m49 {mp x w2 sub w3 add y w2 sub w3 add m  0 w3 neg d w3 0 d 0 w3 d w3 0 d 0 w3 d w3 neg 0 d 0 w3 d w3 neg 0 d 0 w3 neg d w3 neg 0 d 0 w3 neg d w3 0 d 0 w3 d w3 0 d 0 w3 neg d w3 neg 0 d cl f } def
/m2 {mp x y w2 sub m 0 w d x w2 sub y m w 0 d s} def
/m5 {mp x w2 sub y w2 sub m w w d x w2 sub y w2 add m w w neg d s} def
%%IncludeResource: ProcSet (FontSetInit)
%%IncludeResource: font Times-Roman
%%IncludeResource: font Times-Italic
%%IncludeResource: font Times-Bold
%%IncludeResource: font Times-BoldItalic
%%IncludeResource: font Helvetica
%%IncludeResource: font Helvetica-Oblique
%%IncludeResource: font Helvetica-Bold
%%IncludeResource: font Helvetica-BoldOblique
%%IncludeResource: font Courier
%%IncludeResource: font Courier-Oblique
%%IncludeResource: font Courier-Bold
%%IncludeResource: font Courier-BoldOblique
%%IncludeResource: font Symbol
%%IncludeResource: font ZapfDingbats
/reEncode {exch findfont dup length dict begin {1 index /FID eq  {pop pop} {def} ifelse } forall /Encoding exch def currentdict end dup /FontName get exch definefont pop } def [/Times-Bold /Times-Italic /Times-BoldItalic /Helvetica /Helvetica-Oblique
 /Helvetica-Bold /Helvetica-BoldOblique /Courier /Courier-Oblique /Courier-Bold /Courier-BoldOblique /Times-Roman /AvantGarde-Book /AvantGarde-BookOblique /AvantGarde-Demi /AvantGarde-DemiOblique /Bookman-Demi /Bookman-DemiItalic /Bookman-Light
 /Bookman-LightItalic /Helvetica-Narrow /Helvetica-Narrow-Bold /Helvetica-Narrow-BoldOblique /Helvetica-Narrow-Oblique /NewCenturySchlbk-Roman /NewCenturySchlbk-Bold /NewCenturySchlbk-BoldItalic /NewCenturySchlbk-Italic /Palatino-Bold
 /Palatino-BoldItalic /Palatino-Italic /Palatino-Roman ] {ISOLatin1Encoding reEncode } forall
%%EndProlog
%%BeginSetup
%%EndSetup
newpath  gsave  .25 .25 scale  gsave  0 0 t 0.490196 0.545098 0.615686 c[  ] 0 sd 3 lw 0.941176 0.941176 0.941176 c 2268 1309 0 0 bf 0.490196 0.545098 0.615686 c 6 lw 992 945 m -425 -145 d s 496 509 m -213 -145 d s 3 lw 0.96 0 0.04 c 425 291 71 73 bf
 0.490196 0.545098 0.615686 c 71 73 m 425 X s 496 73 m 291 Y s 496 364 m -425 X s 71 364 m -291 Y s 1 1 1 c black
 gsave  2268 1309 0 0 C 86.3459 199.959 t 0 r /Helvetica-Bold findfont 59.0788 sf 0 0 m (S/\(S+B\)=0.042) show NC gr  0.490196 0.545098 0.615686 c 6 lw 638 509 m 212 -145 d s 3 lw 0.92 0 0.08 c 425 291 638 73 bf 0.490196 0.545098 0.615686 c 638 73 m
 425 X s 1063 73 m 291 Y s 1063 364 m -425 X s 638 364 m -291 Y s 1 1 1 c black
 gsave  2268 1309 0 0 C 654.411 199.959 t 0 r /Helvetica-Bold findfont 59.0788 sf 0 0 m (S/\(S+B\)=0.089) show NC gr  0.490196 0.545098 0.615686 c 0.93 0 0.07 c 454 291 340 509 bf 0.490196 0.545098 0.615686 c 340 509 m 454 X s 794 509 m 291 Y s 794
 800 m -454 X s 340 800 m -291 Y s 1 1 1 c black
 gsave  2268 1309 0 0 C 445.363 715.762 t 0 r /Helvetica-Bold findfont 36.3562 sf 0 0 m (S/\(S+B\)=0.079) show NC gr 
 gsave  2268 1309 0 0 C 354.473 570.338 t 0 r /Helvetica-Bold findfont 36.3562 sf 0 0 m (muon_p_Tr_DETA>\2551.16) show NC gr  0.490196 0.545098 0.615686 c 6 lw 1276 945 m 425 -145 d s 1630 509 m -213 -145 d s 3 lw 0.91 0 0.09 c 425 291 1205 73 bf
 0.490196 0.545098 0.615686 c 1205 73 m 425 X s 1630 73 m 291 Y s 1630 364 m -425 X s 1205 364 m -291 Y s 1 1 1 c black
 gsave  2268 1309 0 0 C 1217.93 199.959 t 0 r /Helvetica-Bold findfont 59.0788 sf 0 0 m (S/\(S+B\)=0.098) show NC gr  0.490196 0.545098 0.615686 c 6 lw 1772 509 m 212 -145 d s 3 lw 0.8 0 0.2 c 425 291 1772 73 bf 0.490196 0.545098 0.615686 c 1772 73 m
 425 X s 2197 73 m 291 Y s 2197 364 m -425 X s 1772 364 m -291 Y s 1 1 1 c black
 gsave  2268 1309 0 0 C 1786 199.959 t 0 r /Helvetica-Bold findfont 59.0788 sf 0 0 m (S/\(S+B\)=0.208) show NC gr  0.490196 0.545098 0.615686 c 0.81 0 0.19 c 454 291 1474 509 bf 0.490196 0.545098 0.615686 c 1474 509 m 454 X s 1928 509 m 291 Y s 1928
 800 m -454 X s 1474 800 m -291 Y s 1 1 1 c black
 gsave  2268 1309 0 0 C 1588.31 715.762 t 0 r /Helvetica-Bold findfont 34.0839 sf 0 0 m (S/\(S+B\)=0.191) show NC gr 
 gsave  2268 1309 0 0 C 1483.79 570.338 t 0 r /Helvetica-Bold findfont 34.0839 sf 0 0 m (muon_p_Tr_FC_MU>0.393) show NC gr  0.490196 0.545098 0.615686 c 0.84 0 0.16 c 454 291 907 945 bf 0.490196 0.545098 0.615686 c 907 945 m 454 X s 1361 945 m 291 Y
 s 1361 1236 m -454 X s 907 1236 m -291 Y s 1 1 1 c black
 gsave  2268 1309 0 0 C 1020.25 1152.04 t 0 r /Helvetica-Bold findfont 34.0839 sf 0 0 m (S/\(S+B\)=0.162) show NC gr 
 gsave  2268 1309 0 0 C 922.538 1006.61 t 0 r /Helvetica-Bold findfont 34.0839 sf 0 0 m (muon_p_Tr_FC_MU> 0.33) show NC gr  0.490196 0.545098 0.615686 c 1 1 0.2 c 294 175 1928 1121 bf 0.490196 0.545098 0.615686 c 1928 1121 m 294 X s 2222 1121 m 175 Y
 s 2222 1296 m -294 X s 1928 1296 m -175 Y s 1 1 1 c black
 gsave  2268 1309 0 0 C 1933.69 1197.48 t 0 r /Helvetica-Bold findfont 29.5394 sf 0 0 m (Decision Tree no.: 5) show NC gr  0.490196 0.545098 0.615686 c 0 0 1 c 295 175 45 1121 bf 0.490196 0.545098 0.615686 c 45 1121 m 295 X s 340 1121 m 175 Y s 340
 1296 m -295 X s 45 1296 m -175 Y s 1 1 1 c 0.999 0.999 0.999 c black 0.999 0.999 0.999 c
 gsave  2268 1309 0 0 C 56.8065 1199.75 t 0 r /Helvetica-Bold findfont 29.5394 sf 0 0 m (Pure Signal Nodes) show NC gr  0.490196 0.545098 0.615686 c 1 0 0 c 295 174 45 912 bf 0.490196 0.545098 0.615686 c 45 912 m 295 X s 340 912 m 174 Y s 340 1086 m
 -295 X s 45 1086 m -174 Y s 1 1 1 c 0.999 0.999 0.999 c black 0.999 0.999 0.999 c
 gsave  2268 1309 0 0 C 59.0788 990.706 t 0 r /Helvetica-Bold findfont 27.2671 sf 0 0 m (Pure Backgr. Nodes) show NC gr 
 gr  gr showpage
end
%%EOF
