%!PS-Adobe-2.0 EPSF-2.0
%%BoundingBox:  0 0 567 326
%%Title: dataset/plots/BDTG_0.eps: Reading weight file: /afs/cern.ch/user/q/qchristi/My_Project/IsolationDev/my_scripts/dataset/weights/TMVAMulticlass_BDTG.weights.xml
%%Creator: ROOT Version 6.18/00
%%CreationDate: Thu Aug  8 15:48:50 2019
%%DocumentNeededResources: ProcSet (FontSetInit)
%%EndComments
%%BeginProlog
80 dict begin
/s {stroke} def /l {lineto} def /m {moveto} def /t {translate} def
/r {rotate} def /rl {roll}  def /R {repeat} def
/d {rlineto} def /rm {rmoveto} def /gr {grestore} def /f {eofill} def
/c {setrgbcolor} def /black {0 setgray} def /sd {setdash} def
/cl {closepath} def /sf {scalefont setfont} def /lw {setlinewidth} def
/box {m dup 0 exch d exch 0 d 0 exch neg d cl} def
/NC{systemdict begin initclip end}def/C{NC box clip newpath}def
/bl {box s} def /bf {gsave box gsave f grestore 1 lw [] 0 sd s grestore} def /Y { 0 exch d} def /X { 0 d} def 
/K {{pop pop 0 moveto} exch kshow} bind def
/ita {/ang 15 def gsave [1 0 ang dup sin exch cos div 1 0 0] concat} def 
/mp {newpath /y exch def /x exch def} def
/side {[w .77 mul w .23 mul] .385 w mul sd w 0 l currentpoint t -144 r} def
/mr {mp x y w2 0 360 arc} def /m24 {mr s} def /m20 {mr f} def
/mb {mp x y w2 add m w2 neg 0 d 0 w neg d w 0 d 0 w d cl} def
/mt {mp x y w2 add m w2 neg w neg d w 0 d cl} def
/w4 {w 4 div} def
/w6 {w 6 div} def
/w8 {w 8 div} def
/m21 {mb f} def /m25 {mb s} def /m22 {mt f} def /m26{mt s} def
/m23 {mp x y w2 sub m w2 w d w neg 0 d cl f} def
/m27 {mp x y w2 add m w3 neg w2 neg d w3 w2 neg d w3 w2 d cl s} def
/m28 {mp x w2 sub y w2 sub w3 add m w3 0 d  0 w3 neg d w3 0 d 0 w3 d w3 0 d  0 w3 d w3 neg 0 d 0 w3 d w3 neg 0 d 0 w3 neg d w3 neg 0 d cl s } def
/m29 {mp gsave x w2 sub y w2 add w3 sub m currentpoint t 4 {side} repeat cl fill gr} def
/m30 {mp gsave x w2 sub y w2 add w3 sub m currentpoint t 4 {side} repeat cl s gr} def
/m31 {mp x y w2 sub m 0 w d x w2 sub y m w 0 d x w2 sub y w2 add m w w neg d x w2 sub y w2 sub m w w d s} def
/m32 {mp x y w2 sub m w2 w d w neg 0 d cl s} def
/m33 {mp x y w2 add m w3 neg w2 neg d w3 w2 neg d w3 w2 d cl f} def
/m34 {mp x w2 sub y w2 sub w3 add m w3 0 d  0 w3 neg d w3 0 d 0 w3 d w3 0 d  0 w3 d w3 neg 0 d 0 w3 d w3 neg 0 d 0 w3 neg d w3 neg 0 d cl f } def
/m35 {mp x y w2 add m w2 neg w2 neg d w2 w2 neg d w2 w2 d w2 neg w2 d x y w2 sub m 0 w d x w2 sub y m w 0 d s} def
/m36 {mb x w2 sub y w2 add m w w neg d x w2 sub y w2 sub m w w d s} def
/m37 {mp x y m w4 neg w2 d w4 neg w2 neg d w2 0 d  w4 neg w2 neg d w2 0 d w4 neg w2 d w2 0 d w4 neg w2 d w4 neg w2 neg d cl s} def
/m38 {mp x w4 sub y w2 add m w4 neg w4 neg d 0 w2 neg d w4 w4 neg d w2 0 d w4 w4 d 0 w2 d w4 neg w4 d w2 neg 0 d x y w2 sub m 0 w d x w2 sub y m w 0 d cl s} def
/m39 {mp x y m w4 neg w2 d w4 neg w2 neg d w2 0 d  w4 neg w2 neg d w2 0 d w4 neg w2 d w2 0 d w4 neg w2 d w4 neg w2 neg d cl f} def
/m40 {mp x y m w4 w2 d w4 w4 neg d w2 neg w4 neg d w2 w4 neg d w4 neg w4 neg d w4 neg w2 d w4 neg w2 neg d w4 neg w4 d w2 w4 d w2 neg w4 d w4 w4 d w4 w2 neg d cl s} def
/m41 {mp x y m w4 w2 d w4 w4 neg d w2 neg w4 neg d w2 w4 neg d w4 neg w4 neg d w4 neg w2 d w4 neg w2 neg d w4 neg w4 d w2 w4 d w2 neg w4 d w4 w4 d w4 w2 neg d cl f} def
/m42 {mp x y w2 add m w8 neg w2 -3 4 div mul d w2 -3 4 div mul w8 neg d w2 3 4 div mul w8 neg d w8 w2 -3 4 div mul d w8 w2 3 4 div mul d w2 3 4 div mul w8 d w2 -3 4 div mul w8 d w8 neg w2 3 4 div mul d cl s} def
/m43 {mp x y w2 add m w8 neg w2 -3 4 div mul d w2 -3 4 div mul w8 neg d w2 3 4 div mul w8 neg d w8 w2 -3 4 div mul d w8 w2 3 4 div mul d w2 3 4 div mul w8 d w2 -3 4 div mul w8 d w8 neg w2 3 4 div mul d cl f} def
/m44 {mp x y m w6 neg w2 d w2 2 3 div mul 0 d w6 neg w2 neg d w2 w6 d 0 w2 -2 3 div mul d w2 neg w6 d w6 w2 neg d w2 -2 3 div mul 0 d w6 w2 d w2 neg w6 neg d 0 w2 2 3 div mul d w2 w6 neg d cl s} def
/m45 {mp x y m w6 neg w2 d w2 2 3 div mul 0 d w6 neg w2 neg d w2 w6 d 0 w2 -2 3 div mul d w2 neg w6 d w6 w2 neg d w2 -2 3 div mul 0 d w6 w2 d w2 neg w6 neg d 0 w2 2 3 div mul d w2 w6 neg d cl f} def
/m46 {mp x y w4 add m w4 neg w4 d w4 neg w4 neg d  w4 w4 neg d w4 neg w4 neg d w4 w4 neg d w4 w4 d w4 w4 neg d w4 w4 d w4 neg w4 d w4 w4 d w4 neg w4 d w4 neg w4 neg d cl s} def
/m47 {mp x y w4 add m w4 neg w4 d w4 neg w4 neg d w4 w4 neg d w4 neg w4 neg d  w4 w4 neg d w4 w4 d w4 w4 neg d w4 w4 d w4 neg w4 d w4 w4 d w4 neg w4 d w4 neg w4 neg d cl f} def
/m48 {mp x y w4 add m w4 neg w4 d w4 neg w4 neg d w4 w4 neg d  w4 neg w4 neg d w4 w4 neg d w4 w4 d w4 w4 neg d w4 w4 d w4 neg w4 d w4 w4 d w4 neg w4 d w4 neg w4 neg d  w4 w4 neg d w4 neg w4 neg d w4 neg w4 d w4 w4 d cl f} def
/m49 {mp x w2 sub w3 add y w2 sub w3 add m  0 w3 neg d w3 0 d 0 w3 d w3 0 d 0 w3 d w3 neg 0 d 0 w3 d w3 neg 0 d 0 w3 neg d w3 neg 0 d 0 w3 neg d w3 0 d 0 w3 d w3 0 d 0 w3 neg d w3 neg 0 d cl f } def
/m2 {mp x y w2 sub m 0 w d x w2 sub y m w 0 d s} def
/m5 {mp x w2 sub y w2 sub m w w d x w2 sub y w2 add m w w neg d s} def
%%IncludeResource: ProcSet (FontSetInit)
%%IncludeResource: font Times-Roman
%%IncludeResource: font Times-Italic
%%IncludeResource: font Times-Bold
%%IncludeResource: font Times-BoldItalic
%%IncludeResource: font Helvetica
%%IncludeResource: font Helvetica-Oblique
%%IncludeResource: font Helvetica-Bold
%%IncludeResource: font Helvetica-BoldOblique
%%IncludeResource: font Courier
%%IncludeResource: font Courier-Oblique
%%IncludeResource: font Courier-Bold
%%IncludeResource: font Courier-BoldOblique
%%IncludeResource: font Symbol
%%IncludeResource: font ZapfDingbats
/reEncode {exch findfont dup length dict begin {1 index /FID eq  {pop pop} {def} ifelse } forall /Encoding exch def currentdict end dup /FontName get exch definefont pop } def [/Times-Bold /Times-Italic /Times-BoldItalic /Helvetica /Helvetica-Oblique
 /Helvetica-Bold /Helvetica-BoldOblique /Courier /Courier-Oblique /Courier-Bold /Courier-BoldOblique /Times-Roman /AvantGarde-Book /AvantGarde-BookOblique /AvantGarde-Demi /AvantGarde-DemiOblique /Bookman-Demi /Bookman-DemiItalic /Bookman-Light
 /Bookman-LightItalic /Helvetica-Narrow /Helvetica-Narrow-Bold /Helvetica-Narrow-BoldOblique /Helvetica-Narrow-Oblique /NewCenturySchlbk-Roman /NewCenturySchlbk-Bold /NewCenturySchlbk-BoldItalic /NewCenturySchlbk-Italic /Palatino-Bold
 /Palatino-BoldItalic /Palatino-Italic /Palatino-Roman ] {ISOLatin1Encoding reEncode } forall
%%EndProlog
%%BeginSetup
%%EndSetup
newpath  gsave  .25 .25 scale  gsave  0 0 t 0.490196 0.545098 0.615686 c[  ] 0 sd 3 lw 0.941176 0.941176 0.941176 c 2268 1302 0 0 bf 0.490196 0.545098 0.615686 c 6 lw 992 940 m -425 -144 d s 496 506 m -213 -144 d s 3 lw 0.98 0 0.02 c 425 290 71 72 bf
 0.490196 0.545098 0.615686 c 71 72 m 425 X s 496 72 m 290 Y s 496 362 m -425 X s 71 362 m -290 Y s 1 1 1 c black
 gsave  2268 1302 0 0 C 86.3459 199.959 t 0 r /Helvetica-Bold findfont 59.0788 sf 0 0 m (S/\(S+B\)=0.020) show NC gr  0.490196 0.545098 0.615686 c 6 lw 638 506 m 212 -144 d s 3 lw 1 0 0 c 425 290 638 72 bf 0.490196 0.545098 0.615686 c 638 72 m 425 X
 s 1063 72 m 290 Y s 1063 362 m -425 X s 638 362 m -290 Y s 1 1 1 c black
 gsave  2268 1302 0 0 C 652.139 199.959 t 0 r /Helvetica-Bold findfont 59.0788 sf 0 0 m (S/\(S+B\)=0.007) show NC gr  0.490196 0.545098 0.615686 c 0.99 0 0.01 c 454 290 340 506 bf 0.490196 0.545098 0.615686 c 340 506 m 454 X s 794 506 m 290 Y s 794
 796 m -454 X s 340 796 m -290 Y s 1 1 1 c black
 gsave  2268 1302 0 0 C 452.18 713.49 t 0 r /Helvetica-Bold findfont 34.0839 sf 0 0 m (S/\(S+B\)=0.018) show NC gr 
 gsave  2268 1302 0 0 C 363.562 570.338 t 0 r /Helvetica-Bold findfont 34.0839 sf 0 0 m (muon_p_Tr_DETA>0.683) show NC gr  0.490196 0.545098 0.615686 c 6 lw 1276 940 m 425 -144 d s 1630 506 m -213 -144 d s 3 lw 1 0 0 c 425 290 1205 72 bf 0.490196
 0.545098 0.615686 c 1205 72 m 425 X s 1630 72 m 290 Y s 1630 362 m -425 X s 1205 362 m -290 Y s 1 1 1 c black
 gsave  2268 1302 0 0 C 1220.2 199.959 t 0 r /Helvetica-Bold findfont 59.0788 sf 0 0 m (S/\(S+B\)=0.005) show NC gr  0.490196 0.545098 0.615686 c 6 lw 1772 506 m 212 -144 d s 3 lw 1 0 0 c 425 290 1772 72 bf 0.490196 0.545098 0.615686 c 1772 72 m 425
 X s 2197 72 m 290 Y s 2197 362 m -425 X s 1772 362 m -290 Y s 1 1 1 c black
 gsave  2268 1302 0 0 C 1783.72 199.959 t 0 r /Helvetica-Bold findfont 61.351 sf 0 0 m (S/\(S+B\)=0.001) show NC gr  0.490196 0.545098 0.615686 c 1 0 0 c 454 290 1474 506 bf 0.490196 0.545098 0.615686 c 1474 506 m 454 X s 1928 506 m 290 Y s 1928 796
 m -454 X s 1474 796 m -290 Y s 1 1 1 c black
 gsave  2268 1302 0 0 C 1592.85 713.49 t 0 r /Helvetica-Bold findfont 31.8117 sf 0 0 m (S/\(S+B\)=0.002) show NC gr 
 gsave  2268 1302 0 0 C 1497.42 570.338 t 0 r /Helvetica-Bold findfont 31.8117 sf 0 0 m (muon_p_Tr_FC_MU>0.393) show NC gr  0.490196 0.545098 0.615686 c 1 0 0 c 454 290 907 940 bf 0.490196 0.545098 0.615686 c 907 940 m 454 X s 1361 940 m 290 Y s 1361
 1230 m -454 X s 907 1230 m -290 Y s 1 1 1 c black
 gsave  2268 1302 0 0 C 1020.25 1147.49 t 0 r /Helvetica-Bold findfont 34.0839 sf 0 0 m (S/\(S+B\)=0.006) show NC gr 
 gsave  2268 1302 0 0 C 922.538 1002.07 t 0 r /Helvetica-Bold findfont 34.0839 sf 0 0 m (muon_p_Tr_FC_MU> 0.33) show NC gr  0.490196 0.545098 0.615686 c 1 1 0.2 c 294 174 1928 1115 bf 0.490196 0.545098 0.615686 c 1928 1115 m 294 X s 2222 1115 m 174 Y
 s 2222 1289 m -294 X s 1928 1289 m -174 Y s 1 1 1 c black
 gsave  2268 1302 0 0 C 1933.69 1192.94 t 0 r /Helvetica-Bold findfont 29.5394 sf 0 0 m (Decision Tree no.: 0) show NC gr  0.490196 0.545098 0.615686 c 0 0 1 c 295 174 45 1115 bf 0.490196 0.545098 0.615686 c 45 1115 m 295 X s 340 1115 m 174 Y s 340
 1289 m -295 X s 45 1289 m -174 Y s 1 1 1 c 0.999 0.999 0.999 c black 0.999 0.999 0.999 c
 gsave  2268 1302 0 0 C 56.8065 1195.21 t 0 r /Helvetica-Bold findfont 29.5394 sf 0 0 m (Pure Signal Nodes) show NC gr  0.490196 0.545098 0.615686 c 1 0 0 c 295 174 45 907 bf 0.490196 0.545098 0.615686 c 45 907 m 295 X s 340 907 m 174 Y s 340 1081 m
 -295 X s 45 1081 m -174 Y s 1 1 1 c 0.999 0.999 0.999 c black 0.999 0.999 0.999 c
 gsave  2268 1302 0 0 C 59.0788 986.161 t 0 r /Helvetica-Bold findfont 27.2671 sf 0 0 m (Pure Backgr. Nodes) show NC gr 
 gr  gr showpage
end
%%EOF
