%!PS-Adobe-2.0 EPSF-2.0
%%BoundingBox:  0 0 567 546
%%Title: dataset/plots/CorrelationMatrixB.eps: Correlations between MVA input variables (background)
%%Creator: ROOT Version 6.18/00
%%CreationDate: Mon Aug  5 22:19:18 2019
%%DocumentNeededResources: ProcSet (FontSetInit)
%%EndComments
%%BeginProlog
80 dict begin
/s {stroke} def /l {lineto} def /m {moveto} def /t {translate} def
/r {rotate} def /rl {roll}  def /R {repeat} def
/d {rlineto} def /rm {rmoveto} def /gr {grestore} def /f {eofill} def
/c {setrgbcolor} def /black {0 setgray} def /sd {setdash} def
/cl {closepath} def /sf {scalefont setfont} def /lw {setlinewidth} def
/box {m dup 0 exch d exch 0 d 0 exch neg d cl} def
/NC{systemdict begin initclip end}def/C{NC box clip newpath}def
/bl {box s} def /bf {gsave box gsave f grestore 1 lw [] 0 sd s grestore} def /Y { 0 exch d} def /X { 0 d} def 
/K {{pop pop 0 moveto} exch kshow} bind def
/ita {/ang 15 def gsave [1 0 ang dup sin exch cos div 1 0 0] concat} def 
/mp {newpath /y exch def /x exch def} def
/side {[w .77 mul w .23 mul] .385 w mul sd w 0 l currentpoint t -144 r} def
/mr {mp x y w2 0 360 arc} def /m24 {mr s} def /m20 {mr f} def
/mb {mp x y w2 add m w2 neg 0 d 0 w neg d w 0 d 0 w d cl} def
/mt {mp x y w2 add m w2 neg w neg d w 0 d cl} def
/w4 {w 4 div} def
/w6 {w 6 div} def
/w8 {w 8 div} def
/m21 {mb f} def /m25 {mb s} def /m22 {mt f} def /m26{mt s} def
/m23 {mp x y w2 sub m w2 w d w neg 0 d cl f} def
/m27 {mp x y w2 add m w3 neg w2 neg d w3 w2 neg d w3 w2 d cl s} def
/m28 {mp x w2 sub y w2 sub w3 add m w3 0 d  0 w3 neg d w3 0 d 0 w3 d w3 0 d  0 w3 d w3 neg 0 d 0 w3 d w3 neg 0 d 0 w3 neg d w3 neg 0 d cl s } def
/m29 {mp gsave x w2 sub y w2 add w3 sub m currentpoint t 4 {side} repeat cl fill gr} def
/m30 {mp gsave x w2 sub y w2 add w3 sub m currentpoint t 4 {side} repeat cl s gr} def
/m31 {mp x y w2 sub m 0 w d x w2 sub y m w 0 d x w2 sub y w2 add m w w neg d x w2 sub y w2 sub m w w d s} def
/m32 {mp x y w2 sub m w2 w d w neg 0 d cl s} def
/m33 {mp x y w2 add m w3 neg w2 neg d w3 w2 neg d w3 w2 d cl f} def
/m34 {mp x w2 sub y w2 sub w3 add m w3 0 d  0 w3 neg d w3 0 d 0 w3 d w3 0 d  0 w3 d w3 neg 0 d 0 w3 d w3 neg 0 d 0 w3 neg d w3 neg 0 d cl f } def
/m35 {mp x y w2 add m w2 neg w2 neg d w2 w2 neg d w2 w2 d w2 neg w2 d x y w2 sub m 0 w d x w2 sub y m w 0 d s} def
/m36 {mb x w2 sub y w2 add m w w neg d x w2 sub y w2 sub m w w d s} def
/m37 {mp x y m w4 neg w2 d w4 neg w2 neg d w2 0 d  w4 neg w2 neg d w2 0 d w4 neg w2 d w2 0 d w4 neg w2 d w4 neg w2 neg d cl s} def
/m38 {mp x w4 sub y w2 add m w4 neg w4 neg d 0 w2 neg d w4 w4 neg d w2 0 d w4 w4 d 0 w2 d w4 neg w4 d w2 neg 0 d x y w2 sub m 0 w d x w2 sub y m w 0 d cl s} def
/m39 {mp x y m w4 neg w2 d w4 neg w2 neg d w2 0 d  w4 neg w2 neg d w2 0 d w4 neg w2 d w2 0 d w4 neg w2 d w4 neg w2 neg d cl f} def
/m40 {mp x y m w4 w2 d w4 w4 neg d w2 neg w4 neg d w2 w4 neg d w4 neg w4 neg d w4 neg w2 d w4 neg w2 neg d w4 neg w4 d w2 w4 d w2 neg w4 d w4 w4 d w4 w2 neg d cl s} def
/m41 {mp x y m w4 w2 d w4 w4 neg d w2 neg w4 neg d w2 w4 neg d w4 neg w4 neg d w4 neg w2 d w4 neg w2 neg d w4 neg w4 d w2 w4 d w2 neg w4 d w4 w4 d w4 w2 neg d cl f} def
/m42 {mp x y w2 add m w8 neg w2 -3 4 div mul d w2 -3 4 div mul w8 neg d w2 3 4 div mul w8 neg d w8 w2 -3 4 div mul d w8 w2 3 4 div mul d w2 3 4 div mul w8 d w2 -3 4 div mul w8 d w8 neg w2 3 4 div mul d cl s} def
/m43 {mp x y w2 add m w8 neg w2 -3 4 div mul d w2 -3 4 div mul w8 neg d w2 3 4 div mul w8 neg d w8 w2 -3 4 div mul d w8 w2 3 4 div mul d w2 3 4 div mul w8 d w2 -3 4 div mul w8 d w8 neg w2 3 4 div mul d cl f} def
/m44 {mp x y m w6 neg w2 d w2 2 3 div mul 0 d w6 neg w2 neg d w2 w6 d 0 w2 -2 3 div mul d w2 neg w6 d w6 w2 neg d w2 -2 3 div mul 0 d w6 w2 d w2 neg w6 neg d 0 w2 2 3 div mul d w2 w6 neg d cl s} def
/m45 {mp x y m w6 neg w2 d w2 2 3 div mul 0 d w6 neg w2 neg d w2 w6 d 0 w2 -2 3 div mul d w2 neg w6 d w6 w2 neg d w2 -2 3 div mul 0 d w6 w2 d w2 neg w6 neg d 0 w2 2 3 div mul d w2 w6 neg d cl f} def
/m46 {mp x y w4 add m w4 neg w4 d w4 neg w4 neg d  w4 w4 neg d w4 neg w4 neg d w4 w4 neg d w4 w4 d w4 w4 neg d w4 w4 d w4 neg w4 d w4 w4 d w4 neg w4 d w4 neg w4 neg d cl s} def
/m47 {mp x y w4 add m w4 neg w4 d w4 neg w4 neg d w4 w4 neg d w4 neg w4 neg d  w4 w4 neg d w4 w4 d w4 w4 neg d w4 w4 d w4 neg w4 d w4 w4 d w4 neg w4 d w4 neg w4 neg d cl f} def
/m48 {mp x y w4 add m w4 neg w4 d w4 neg w4 neg d w4 w4 neg d  w4 neg w4 neg d w4 w4 neg d w4 w4 d w4 w4 neg d w4 w4 d w4 neg w4 d w4 w4 d w4 neg w4 d w4 neg w4 neg d  w4 w4 neg d w4 neg w4 neg d w4 neg w4 d w4 w4 d cl f} def
/m49 {mp x w2 sub w3 add y w2 sub w3 add m  0 w3 neg d w3 0 d 0 w3 d w3 0 d 0 w3 d w3 neg 0 d 0 w3 d w3 neg 0 d 0 w3 neg d w3 neg 0 d 0 w3 neg d w3 0 d 0 w3 d w3 0 d 0 w3 neg d w3 neg 0 d cl f } def
/m2 {mp x y w2 sub m 0 w d x w2 sub y m w 0 d s} def
/m5 {mp x w2 sub y w2 sub m w w d x w2 sub y w2 add m w w neg d s} def
%%IncludeResource: ProcSet (FontSetInit)
%%IncludeResource: font Times-Roman
%%IncludeResource: font Times-Italic
%%IncludeResource: font Times-Bold
%%IncludeResource: font Times-BoldItalic
%%IncludeResource: font Helvetica
%%IncludeResource: font Helvetica-Oblique
%%IncludeResource: font Helvetica-Bold
%%IncludeResource: font Helvetica-BoldOblique
%%IncludeResource: font Courier
%%IncludeResource: font Courier-Oblique
%%IncludeResource: font Courier-Bold
%%IncludeResource: font Courier-BoldOblique
%%IncludeResource: font Symbol
%%IncludeResource: font ZapfDingbats
/reEncode {exch findfont dup length dict begin {1 index /FID eq  {pop pop} {def} ifelse } forall /Encoding exch def currentdict end dup /FontName get exch definefont pop } def [/Times-Bold /Times-Italic /Times-BoldItalic /Helvetica /Helvetica-Oblique
 /Helvetica-Bold /Helvetica-BoldOblique /Courier /Courier-Oblique /Courier-Bold /Courier-BoldOblique /Times-Roman /AvantGarde-Book /AvantGarde-BookOblique /AvantGarde-Demi /AvantGarde-DemiOblique /Bookman-Demi /Bookman-DemiItalic /Bookman-Light
 /Bookman-LightItalic /Helvetica-Narrow /Helvetica-Narrow-Bold /Helvetica-Narrow-BoldOblique /Helvetica-Narrow-Oblique /NewCenturySchlbk-Roman /NewCenturySchlbk-Bold /NewCenturySchlbk-BoldItalic /NewCenturySchlbk-Italic /Palatino-Bold
 /Palatino-BoldItalic /Palatino-Italic /Palatino-Roman ] {ISOLatin1Encoding reEncode } forall
%%EndProlog
%%BeginSetup
%%EndSetup
newpath  gsave  .25 .25 scale  gsave  0 0 t 0.490196 0.545098 0.615686 c[  ] 0 sd 3 lw 0.941176 0.941176 0.941176 c 2268 2184 0 0 bf black 1 1 0.992157 c 1633 1572 340 328 bf black 1633 1572 340 328 bl 1 1 0.992157 c 1633 1572 340 328 bf black 1633
 1572 340 328 bl 1 1 1 c 1 0 0 c 233 224 340 328 bf 234 224 573 328 bf 0.133333 1 0 c 233 224 807 328 bf 0 1 0.0533333 c 233 224 1040 328 bf 0 1 0.333333 c 233 224 1273 328 bf 0.133333 1 0 c 234 224 1506 328 bf 233 224 1740 328 bf 1 0 0 c 233 225 340
 552 bf 234 225 573 552 bf 0 1 0.0533333 c 233 225 807 552 bf 233 225 1040 552 bf 0 1 0.333333 c 233 225 1273 552 bf 0.133333 1 0 c 234 225 1506 552 bf 233 225 1740 552 bf 233 225 340 777 bf 0 1 0.0533333 c 234 225 573 777 bf 1 0 0 c 233 225 807 777
 bf 0 1 0.0533333 c 233 225 1040 777 bf 0 1 0.333333 c 233 225 1273 777 bf 0 1 0.0533333 c 234 225 1506 777 bf 0.6 1 0 c 233 225 1740 777 bf 0 1 0.0533333 c 233 224 340 1002 bf 234 224 573 1002 bf 233 224 807 1002 bf 1 0 0 c 233 224 1040 1002 bf 0 1
 0.0533333 c 233 224 1273 1002 bf 234 224 1506 1002 bf 233 224 1740 1002 bf 0 1 0.333333 c 233 225 340 1226 bf 234 225 573 1226 bf 233 225 807 1226 bf 0 1 0.0533333 c 233 225 1040 1226 bf 1 0 0 c 233 225 1273 1226 bf 0 1 0.333333 c 234 225 1506 1226
 bf 233 225 1740 1226 bf 0.133333 1 0 c 233 225 340 1451 bf 234 225 573 1451 bf 0 1 0.0533333 c 233 225 807 1451 bf 233 225 1040 1451 bf 0 1 0.333333 c 233 225 1273 1451 bf 1 0 0 c 234 225 1506 1451 bf 0 1 0.0533333 c 233 225 1740 1451 bf 0.133333 1
 0 c 233 224 340 1676 bf 234 224 573 1676 bf 0.6 1 0 c 233 224 807 1676 bf 0 1 0.0533333 c 233 224 1040 1676 bf 0 1 0.333333 c 233 224 1273 1676 bf 0 1 0.0533333 c 234 224 1506 1676 bf 1 0 0 c 233 224 1740 1676 bf 0.386667 0 1 c 102 78 1984 328 bf
 0.2 0 1 c 102 79 1984 406 bf 0 0.0800001 1 c 102 79 1984 485 bf 0 0.266667 1 c 102 78 1984 564 bf 0 0.546666 1 c 102 79 1984 642 bf 0 0.733333 1 c 102 78 1984 721 bf 0 1 0.986667 c 102 79 1984 799 bf 0 1 0.8 c 102 79 1984 878 bf 0 1 0.52 c 102 78
 1984 957 bf 0 1 0.333333 c 102 79 1984 1035 bf 0 1 0.0533333 c 102 79 1984 1114 bf 0.133333 1 0 c 102 78 1984 1193 bf 0.413333 1 0 c 102 79 1984 1271 bf 0.6 1 0 c 102 79 1984 1350 bf 0.88 1 0 c 102 78 1984 1429 bf 1 0.933333 0 c 102 79 1984 1507 bf
 1 0.653333 0 c 102 78 1984 1586 bf 1 0.466667 0 c 102 79 1984 1664 bf 1 0.186667 0 c 102 79 1984 1743 bf 1 0 0 c 102 78 1984 1822 bf black 2086 328 m 1572 Y s 2037 328 m 49 X s 2037 485 m 49 X s 2037 642 m 49 X s 2037 799 m 49 X s 2037 957 m 49 X s
 2037 1114 m 49 X s 2037 1271 m 49 X s 2037 1429 m 49 X s 2037 1586 m 49 X s 2037 1743 m 49 X s 2037 1900 m 49 X s
 gsave  2268 2184 0 0 C 2134.99 303.373 t 0 r /Helvetica findfont 72.0512 sf 0 0 m (100) show NC gr 
 gsave  2268 2184 0 0 C 2097.07 303.373 t 0 r /Symbol findfont 72.0512 sf 0 0 m (-) show NC gr 
 gsave  2268 2184 0 0 C 2134.99 458.852 t 0 r /Helvetica findfont 72.0512 sf 0 0 m (80) show NC gr 
 gsave  2268 2184 0 0 C 2097.07 458.852 t 0 r /Symbol findfont 72.0512 sf 0 0 m (-) show NC gr 
 gsave  2268 2184 0 0 C 2134.99 618.123 t 0 r /Helvetica findfont 72.0512 sf 0 0 m (60) show NC gr 
 gsave  2268 2184 0 0 C 2097.07 618.123 t 0 r /Symbol findfont 72.0512 sf 0 0 m (-) show NC gr 
 gsave  2268 2184 0 0 C 2134.99 773.602 t 0 r /Helvetica findfont 72.0512 sf 0 0 m (40) show NC gr 
 gsave  2268 2184 0 0 C 2097.07 773.602 t 0 r /Symbol findfont 72.0512 sf 0 0 m (-) show NC gr 
 gsave  2268 2184 0 0 C 2134.99 932.873 t 0 r /Helvetica findfont 72.0512 sf 0 0 m (20) show NC gr 
 gsave  2268 2184 0 0 C 2097.07 932.873 t 0 r /Symbol findfont 72.0512 sf 0 0 m (-) show NC gr 
 gsave  2268 2184 0 0 C 2097.07 1088.35 t 0 r /Helvetica findfont 72.0512 sf 0 0 m (0) show NC gr 
 gsave  2268 2184 0 0 C 2097.07 1247.62 t 0 r /Helvetica findfont 72.0512 sf 0 0 m (20) show NC gr 
 gsave  2268 2184 0 0 C 2097.07 1403.1 t 0 r /Helvetica findfont 72.0512 sf 0 0 m (40) show NC gr 
 gsave  2268 2184 0 0 C 2097.07 1562.37 t 0 r /Helvetica findfont 72.0512 sf 0 0 m (60) show NC gr 
 gsave  2268 2184 0 0 C 2097.07 1717.85 t 0 r /Helvetica findfont 72.0512 sf 0 0 m (80) show NC gr 
 gsave  2268 2184 0 0 C 2097.07 1877.12 t 0 r /Helvetica findfont 72.0512 sf 0 0 m (100) show NC gr  1 1 1 c black 340 328 m 1633 X s
 gsave  2268 2184 0 0 C 447.476 261.66 t -19 r /Helvetica findfont 53.0903 sf 0 0 m (muon_p_Tr_PVDIS) show NC gr 
 gsave  2268 2184 0 0 C 678.798 261.66 t -19 r /Helvetica findfont 53.0903 sf 0 0 m (muon_p_Tr_SVDIS) show NC gr 
 gsave  2268 2184 0 0 C 913.913 261.66 t -19 r /Helvetica findfont 53.0903 sf 0 0 m (muon_p_Tr_DOCA) show NC gr 
 gsave  2268 2184 0 0 C 1145.23 261.66 t -19 r /Helvetica findfont 53.0903 sf 0 0 m (muon_p_Tr_ANGLE) show NC gr 
 gsave  2268 2184 0 0 C 1380.35 261.66 t -19 r /Helvetica findfont 53.0903 sf 0 0 m (muon_p_Tr_FC_MU) show NC gr 
 gsave  2268 2184 0 0 C 1611.67 261.66 t -19 r /Helvetica findfont 53.0903 sf 0 0 m (muon_p_Tr_BPVZ) show NC gr 
 gsave  2268 2184 0 0 C 1846.79 261.66 t -19 r /Helvetica findfont 53.0903 sf 0 0 m (muon_p_Tr_BPVIPCHI2) show NC gr  340 375 m -47 Y s[ 4 8] 0 sd 340 1900 m -1572 Y s[  ] 0 sd 573 375 m -47 Y s[ 4 8] 0 sd 573 1900 m -1572 Y s[  ] 0 sd 807 375 m -47
 Y s[ 4 8] 0 sd 807 1900 m -1572 Y s[  ] 0 sd 1040 375 m -47 Y s[ 4 8] 0 sd 1040 1900 m -1572 Y s[  ] 0 sd 1273 375 m -47 Y s[ 4 8] 0 sd 1273 1900 m -1572 Y s[  ] 0 sd 1506 375 m -47 Y s[ 4 8] 0 sd 1506 1900 m -1572 Y s[  ] 0 sd 1740 375 m -47 Y s[ 4
 8] 0 sd 1740 1900 m -1572 Y s[  ] 0 sd 1973 375 m -47 Y s[ 4 8] 0 sd 1973 1900 m -1572 Y s[  ] 0 sd 340 1900 m 1633 X s 340 1853 m 47 Y s 573 1853 m 47 Y s 807 1853 m 47 Y s 1040 1853 m 47 Y s 1273 1853 m 47 Y s 1506 1853 m 47 Y s 1740 1853 m 47 Y s
 1973 1853 m 47 Y s 340 328 m 1572 Y s
 gsave  2268 2184 0 0 C -140.31 428.515 t 0 r /Helvetica findfont 53.0903 sf 0 0 m (muon_p_Tr_PVDIS) show NC gr 
 gsave  2268 2184 0 0 C -140.31 652.253 t 0 r /Helvetica findfont 53.0903 sf 0 0 m (muon_p_Tr_SVDIS) show NC gr 
 gsave  2268 2184 0 0 C -136.518 875.991 t 0 r /Helvetica findfont 53.0903 sf 0 0 m (muon_p_Tr_DOCA) show NC gr 
 gsave  2268 2184 0 0 C -163.063 1099.73 t 0 r /Helvetica findfont 53.0903 sf 0 0 m (muon_p_Tr_ANGLE) show NC gr 
 gsave  2268 2184 0 0 C -163.063 1327.26 t 0 r /Helvetica findfont 53.0903 sf 0 0 m (muon_p_Tr_FC_MU) show NC gr 
 gsave  2268 2184 0 0 C -121.349 1551 t 0 r /Helvetica findfont 53.0903 sf 0 0 m (muon_p_Tr_BPVZ) show NC gr 
 gsave  2268 2184 0 0 C -257.867 1774.73 t 0 r /Helvetica findfont 53.0903 sf 0 0 m (muon_p_Tr_BPVIPCHI2) show NC gr  389 328 m -49 X s[ 4 8] 0 sd 1973 328 m -1633 X s[  ] 0 sd 389 552 m -49 X s[ 4 8] 0 sd 1973 552 m -1633 X s[  ] 0 sd 389 777 m -49
 X s[ 4 8] 0 sd 1973 777 m -1633 X s[  ] 0 sd 389 1002 m -49 X s[ 4 8] 0 sd 1973 1002 m -1633 X s[  ] 0 sd 389 1226 m -49 X s[ 4 8] 0 sd 1973 1226 m -1633 X s[  ] 0 sd 389 1451 m -49 X s[ 4 8] 0 sd 1973 1451 m -1633 X s[  ] 0 sd 389 1676 m -49 X s[ 4
 8] 0 sd 1973 1676 m -1633 X s[  ] 0 sd 389 1900 m -49 X s[ 4 8] 0 sd 1973 1900 m -1633 X s[  ] 0 sd 1973 328 m 1572 Y s 1924 328 m 49 X s 1924 552 m 49 X s 1924 777 m 49 X s 1924 1002 m 49 X s 1924 1226 m 49 X s 1924 1451 m 49 X s 1924 1676 m 49 X s
 1924 1900 m 49 X s 0.490196 0.545098 0.615686 c 0.364706 0.419608 0.490196 c 1587 127 23 2046 bf 0.490196 0.545098 0.615686 c 23 2046 m 1587 X s 1610 2046 m 127 Y s 1610 2173 m -1587 X s 23 2173 m -127 Y s 1 1 1 c black 1 1 1 c
 gsave  2268 2184 0 0 C 87.2199 2085.69 t 0 r /Helvetica-Bold findfont 94.8042 sf 0 0 m (Correlation Matrix \(background\)) show NC gr  black 1 1 1 c
 gsave  2268 2184 0 0 C 401.97 420.931 t 0 r /Helvetica-Bold findfont 60.6747 sf 0 0 m (100) show NC gr  black 1 1 1 c
 gsave  2268 2184 0 0 C 644.669 420.931 t 0 r /Helvetica-Bold findfont 60.6747 sf 0 0 m ( 92) show NC gr  black 1 1 1 c
 gsave  2268 2184 0 0 C 883.575 417.138 t 0 r /Helvetica-Bold findfont 60.6747 sf 0 0 m ( 11) show NC gr  black 1 1 1 c
 gsave  2268 2184 0 0 C 1350.01 417.138 t 0 r /Helvetica-Bold findfont 60.6747 sf 0 0 m ( \2554) show NC gr  black 1 1 1 c
 gsave  2268 2184 0 0 C 1577.54 417.138 t 0 r /Helvetica-Bold findfont 60.6747 sf 0 0 m ( 12) show NC gr  black 1 1 1 c
 gsave  2268 2184 0 0 C 1812.66 420.931 t 0 r /Helvetica-Bold findfont 60.6747 sf 0 0 m ( 13) show NC gr  black 1 1 1 c
 gsave  2268 2184 0 0 C 413.346 644.669 t 0 r /Helvetica-Bold findfont 60.6747 sf 0 0 m ( 92) show NC gr  black 1 1 1 c
 gsave  2268 2184 0 0 C 633.292 644.669 t 0 r /Helvetica-Bold findfont 60.6747 sf 0 0 m (100) show NC gr  black 1 1 1 c
 gsave  2268 2184 0 0 C 887.367 644.669 t 0 r /Helvetica-Bold findfont 60.6747 sf 0 0 m (  9) show NC gr  black 1 1 1 c
 gsave  2268 2184 0 0 C 1122.48 640.876 t 0 r /Helvetica-Bold findfont 60.6747 sf 0 0 m (  1) show NC gr  black 1 1 1 c
 gsave  2268 2184 0 0 C 1350.01 640.876 t 0 r /Helvetica-Bold findfont 60.6747 sf 0 0 m ( \2554) show NC gr  black 1 1 1 c
 gsave  2268 2184 0 0 C 1581.33 640.876 t 0 r /Helvetica-Bold findfont 60.6747 sf 0 0 m ( 11) show NC gr  black 1 1 1 c
 gsave  2268 2184 0 0 C 1812.66 640.876 t 0 r /Helvetica-Bold findfont 60.6747 sf 0 0 m ( 12) show NC gr  black 1 1 1 c
 gsave  2268 2184 0 0 C 417.138 864.614 t 0 r /Helvetica-Bold findfont 60.6747 sf 0 0 m ( 11) show NC gr  black 1 1 1 c
 gsave  2268 2184 0 0 C 652.253 868.406 t 0 r /Helvetica-Bold findfont 60.6747 sf 0 0 m (  9) show NC gr  black 1 1 1 c
 gsave  2268 2184 0 0 C 868.406 868.406 t 0 r /Helvetica-Bold findfont 60.6747 sf 0 0 m (100) show NC gr  black 1 1 1 c
 gsave  2268 2184 0 0 C 1118.69 868.406 t 0 r /Helvetica-Bold findfont 60.6747 sf 0 0 m (  8) show NC gr  black 1 1 1 c
 gsave  2268 2184 0 0 C 1350.01 868.406 t 0 r /Helvetica-Bold findfont 60.6747 sf 0 0 m ( \2553) show NC gr  black 1 1 1 c
 gsave  2268 2184 0 0 C 1816.45 868.406 t 0 r /Helvetica-Bold findfont 60.6747 sf 0 0 m ( 31) show NC gr  black 1 1 1 c
 gsave  2268 2184 0 0 C 656.045 1088.35 t 0 r /Helvetica-Bold findfont 60.6747 sf 0 0 m (  1) show NC gr  black 1 1 1 c
 gsave  2268 2184 0 0 C 887.367 1092.14 t 0 r /Helvetica-Bold findfont 60.6747 sf 0 0 m (  8) show NC gr  black 1 1 1 c
 gsave  2268 2184 0 0 C 1099.73 1092.14 t 0 r /Helvetica-Bold findfont 60.6747 sf 0 0 m (100) show NC gr  black 1 1 1 c
 gsave  2268 2184 0 0 C 1353.8 1088.35 t 0 r /Helvetica-Bold findfont 60.6747 sf 0 0 m (  7) show NC gr  black 1 1 1 c
 gsave  2268 2184 0 0 C 1585.13 1092.14 t 0 r /Helvetica-Bold findfont 60.6747 sf 0 0 m (  3) show NC gr  black 1 1 1 c
 gsave  2268 2184 0 0 C 1820.24 1092.14 t 0 r /Helvetica-Bold findfont 60.6747 sf 0 0 m (  3) show NC gr  black 1 1 1 c
 gsave  2268 2184 0 0 C 417.138 1315.88 t 0 r /Helvetica-Bold findfont 60.6747 sf 0 0 m ( \2554) show NC gr  black 1 1 1 c
 gsave  2268 2184 0 0 C 648.461 1315.88 t 0 r /Helvetica-Bold findfont 60.6747 sf 0 0 m ( \2554) show NC gr  black 1 1 1 c
 gsave  2268 2184 0 0 C 883.575 1319.67 t 0 r /Helvetica-Bold findfont 60.6747 sf 0 0 m ( \2553) show NC gr  black 1 1 1 c
 gsave  2268 2184 0 0 C 1118.69 1315.88 t 0 r /Helvetica-Bold findfont 60.6747 sf 0 0 m (  7) show NC gr  black 1 1 1 c
 gsave  2268 2184 0 0 C 1334.84 1319.67 t 0 r /Helvetica-Bold findfont 60.6747 sf 0 0 m (100) show NC gr  black 1 1 1 c
 gsave  2268 2184 0 0 C 1581.33 1319.67 t 0 r /Helvetica-Bold findfont 60.6747 sf 0 0 m ( \2553) show NC gr  black 1 1 1 c
 gsave  2268 2184 0 0 C 1816.45 1319.67 t 0 r /Helvetica-Bold findfont 60.6747 sf 0 0 m ( \2553) show NC gr  black 1 1 1 c
 gsave  2268 2184 0 0 C 413.346 1539.62 t 0 r /Helvetica-Bold findfont 60.6747 sf 0 0 m ( 12) show NC gr  black 1 1 1 c
 gsave  2268 2184 0 0 C 648.461 1539.62 t 0 r /Helvetica-Bold findfont 60.6747 sf 0 0 m ( 11) show NC gr  black 1 1 1 c
 gsave  2268 2184 0 0 C 1118.69 1543.41 t 0 r /Helvetica-Bold findfont 60.6747 sf 0 0 m (  3) show NC gr  black 1 1 1 c
 gsave  2268 2184 0 0 C 1350.01 1543.41 t 0 r /Helvetica-Bold findfont 60.6747 sf 0 0 m ( \2553) show NC gr  black 1 1 1 c
 gsave  2268 2184 0 0 C 1566.17 1543.41 t 0 r /Helvetica-Bold findfont 60.6747 sf 0 0 m (100) show NC gr  black 1 1 1 c
 gsave  2268 2184 0 0 C 413.346 1767.15 t 0 r /Helvetica-Bold findfont 60.6747 sf 0 0 m ( 13) show NC gr  black 1 1 1 c
 gsave  2268 2184 0 0 C 644.669 1763.36 t 0 r /Helvetica-Bold findfont 60.6747 sf 0 0 m ( 12) show NC gr  black 1 1 1 c
 gsave  2268 2184 0 0 C 883.575 1767.15 t 0 r /Helvetica-Bold findfont 60.6747 sf 0 0 m ( 31) show NC gr  black 1 1 1 c
 gsave  2268 2184 0 0 C 1118.69 1767.15 t 0 r /Helvetica-Bold findfont 60.6747 sf 0 0 m (  3) show NC gr  black 1 1 1 c
 gsave  2268 2184 0 0 C 1350.01 1767.15 t 0 r /Helvetica-Bold findfont 60.6747 sf 0 0 m ( \2553) show NC gr  black 1 1 1 c
 gsave  2268 2184 0 0 C 1801.28 1767.15 t 0 r /Helvetica-Bold findfont 60.6747 sf 0 0 m (100) show NC gr  black
 gsave  2268 2184 0 0 C 1201.89 1922.17 t 0 r /Helvetica-Bold findfont 53.0903 sf 0 0 m (Linear correlation coefficients in %) show NC gr 
 gr  gr showpage
end
%%EOF
