%!PS-Adobe-2.0 EPSF-2.0
%%BoundingBox:  0 0 567 421
%%Title: dataset/plots/mva_Signal_BDTG.eps: TMVA response for class Signal BDTG
%%Creator: ROOT Version 6.18/00
%%CreationDate: Fri Aug  9 14:12:14 2019
%%DocumentNeededResources: ProcSet (FontSetInit)
%%EndComments
%%BeginProlog
80 dict begin
/s {stroke} def /l {lineto} def /m {moveto} def /t {translate} def
/r {rotate} def /rl {roll}  def /R {repeat} def
/d {rlineto} def /rm {rmoveto} def /gr {grestore} def /f {eofill} def
/c {setrgbcolor} def /black {0 setgray} def /sd {setdash} def
/cl {closepath} def /sf {scalefont setfont} def /lw {setlinewidth} def
/box {m dup 0 exch d exch 0 d 0 exch neg d cl} def
/NC{systemdict begin initclip end}def/C{NC box clip newpath}def
/bl {box s} def /bf {gsave box gsave f grestore 1 lw [] 0 sd s grestore} def /Y { 0 exch d} def /X { 0 d} def 
/K {{pop pop 0 moveto} exch kshow} bind def
/ita {/ang 15 def gsave [1 0 ang dup sin exch cos div 1 0 0] concat} def 
/mp {newpath /y exch def /x exch def} def
/side {[w .77 mul w .23 mul] .385 w mul sd w 0 l currentpoint t -144 r} def
/mr {mp x y w2 0 360 arc} def /m24 {mr s} def /m20 {mr f} def
/mb {mp x y w2 add m w2 neg 0 d 0 w neg d w 0 d 0 w d cl} def
/mt {mp x y w2 add m w2 neg w neg d w 0 d cl} def
/w4 {w 4 div} def
/w6 {w 6 div} def
/w8 {w 8 div} def
/m21 {mb f} def /m25 {mb s} def /m22 {mt f} def /m26{mt s} def
/m23 {mp x y w2 sub m w2 w d w neg 0 d cl f} def
/m27 {mp x y w2 add m w3 neg w2 neg d w3 w2 neg d w3 w2 d cl s} def
/m28 {mp x w2 sub y w2 sub w3 add m w3 0 d  0 w3 neg d w3 0 d 0 w3 d w3 0 d  0 w3 d w3 neg 0 d 0 w3 d w3 neg 0 d 0 w3 neg d w3 neg 0 d cl s } def
/m29 {mp gsave x w2 sub y w2 add w3 sub m currentpoint t 4 {side} repeat cl fill gr} def
/m30 {mp gsave x w2 sub y w2 add w3 sub m currentpoint t 4 {side} repeat cl s gr} def
/m31 {mp x y w2 sub m 0 w d x w2 sub y m w 0 d x w2 sub y w2 add m w w neg d x w2 sub y w2 sub m w w d s} def
/m32 {mp x y w2 sub m w2 w d w neg 0 d cl s} def
/m33 {mp x y w2 add m w3 neg w2 neg d w3 w2 neg d w3 w2 d cl f} def
/m34 {mp x w2 sub y w2 sub w3 add m w3 0 d  0 w3 neg d w3 0 d 0 w3 d w3 0 d  0 w3 d w3 neg 0 d 0 w3 d w3 neg 0 d 0 w3 neg d w3 neg 0 d cl f } def
/m35 {mp x y w2 add m w2 neg w2 neg d w2 w2 neg d w2 w2 d w2 neg w2 d x y w2 sub m 0 w d x w2 sub y m w 0 d s} def
/m36 {mb x w2 sub y w2 add m w w neg d x w2 sub y w2 sub m w w d s} def
/m37 {mp x y m w4 neg w2 d w4 neg w2 neg d w2 0 d  w4 neg w2 neg d w2 0 d w4 neg w2 d w2 0 d w4 neg w2 d w4 neg w2 neg d cl s} def
/m38 {mp x w4 sub y w2 add m w4 neg w4 neg d 0 w2 neg d w4 w4 neg d w2 0 d w4 w4 d 0 w2 d w4 neg w4 d w2 neg 0 d x y w2 sub m 0 w d x w2 sub y m w 0 d cl s} def
/m39 {mp x y m w4 neg w2 d w4 neg w2 neg d w2 0 d  w4 neg w2 neg d w2 0 d w4 neg w2 d w2 0 d w4 neg w2 d w4 neg w2 neg d cl f} def
/m40 {mp x y m w4 w2 d w4 w4 neg d w2 neg w4 neg d w2 w4 neg d w4 neg w4 neg d w4 neg w2 d w4 neg w2 neg d w4 neg w4 d w2 w4 d w2 neg w4 d w4 w4 d w4 w2 neg d cl s} def
/m41 {mp x y m w4 w2 d w4 w4 neg d w2 neg w4 neg d w2 w4 neg d w4 neg w4 neg d w4 neg w2 d w4 neg w2 neg d w4 neg w4 d w2 w4 d w2 neg w4 d w4 w4 d w4 w2 neg d cl f} def
/m42 {mp x y w2 add m w8 neg w2 -3 4 div mul d w2 -3 4 div mul w8 neg d w2 3 4 div mul w8 neg d w8 w2 -3 4 div mul d w8 w2 3 4 div mul d w2 3 4 div mul w8 d w2 -3 4 div mul w8 d w8 neg w2 3 4 div mul d cl s} def
/m43 {mp x y w2 add m w8 neg w2 -3 4 div mul d w2 -3 4 div mul w8 neg d w2 3 4 div mul w8 neg d w8 w2 -3 4 div mul d w8 w2 3 4 div mul d w2 3 4 div mul w8 d w2 -3 4 div mul w8 d w8 neg w2 3 4 div mul d cl f} def
/m44 {mp x y m w6 neg w2 d w2 2 3 div mul 0 d w6 neg w2 neg d w2 w6 d 0 w2 -2 3 div mul d w2 neg w6 d w6 w2 neg d w2 -2 3 div mul 0 d w6 w2 d w2 neg w6 neg d 0 w2 2 3 div mul d w2 w6 neg d cl s} def
/m45 {mp x y m w6 neg w2 d w2 2 3 div mul 0 d w6 neg w2 neg d w2 w6 d 0 w2 -2 3 div mul d w2 neg w6 d w6 w2 neg d w2 -2 3 div mul 0 d w6 w2 d w2 neg w6 neg d 0 w2 2 3 div mul d w2 w6 neg d cl f} def
/m46 {mp x y w4 add m w4 neg w4 d w4 neg w4 neg d  w4 w4 neg d w4 neg w4 neg d w4 w4 neg d w4 w4 d w4 w4 neg d w4 w4 d w4 neg w4 d w4 w4 d w4 neg w4 d w4 neg w4 neg d cl s} def
/m47 {mp x y w4 add m w4 neg w4 d w4 neg w4 neg d w4 w4 neg d w4 neg w4 neg d  w4 w4 neg d w4 w4 d w4 w4 neg d w4 w4 d w4 neg w4 d w4 w4 d w4 neg w4 d w4 neg w4 neg d cl f} def
/m48 {mp x y w4 add m w4 neg w4 d w4 neg w4 neg d w4 w4 neg d  w4 neg w4 neg d w4 w4 neg d w4 w4 d w4 w4 neg d w4 w4 d w4 neg w4 d w4 w4 d w4 neg w4 d w4 neg w4 neg d  w4 w4 neg d w4 neg w4 neg d w4 neg w4 d w4 w4 d cl f} def
/m49 {mp x w2 sub w3 add y w2 sub w3 add m  0 w3 neg d w3 0 d 0 w3 d w3 0 d 0 w3 d w3 neg 0 d 0 w3 d w3 neg 0 d 0 w3 neg d w3 neg 0 d 0 w3 neg d w3 0 d 0 w3 d w3 0 d 0 w3 neg d w3 neg 0 d cl f } def
/m2 {mp x y w2 sub m 0 w d x w2 sub y m w 0 d s} def
/m5 {mp x w2 sub y w2 sub m w w d x w2 sub y w2 add m w w neg d s} def
%%IncludeResource: ProcSet (FontSetInit)
%%IncludeResource: font Times-Roman
%%IncludeResource: font Times-Italic
%%IncludeResource: font Times-Bold
%%IncludeResource: font Times-BoldItalic
%%IncludeResource: font Helvetica
%%IncludeResource: font Helvetica-Oblique
%%IncludeResource: font Helvetica-Bold
%%IncludeResource: font Helvetica-BoldOblique
%%IncludeResource: font Courier
%%IncludeResource: font Courier-Oblique
%%IncludeResource: font Courier-Bold
%%IncludeResource: font Courier-BoldOblique
%%IncludeResource: font Symbol
%%IncludeResource: font ZapfDingbats
/reEncode {exch findfont dup length dict begin {1 index /FID eq  {pop pop} {def} ifelse } forall /Encoding exch def currentdict end dup /FontName get exch definefont pop } def [/Times-Bold /Times-Italic /Times-BoldItalic /Helvetica /Helvetica-Oblique
 /Helvetica-Bold /Helvetica-BoldOblique /Courier /Courier-Oblique /Courier-Bold /Courier-BoldOblique /Times-Roman /AvantGarde-Book /AvantGarde-BookOblique /AvantGarde-Demi /AvantGarde-DemiOblique /Bookman-Demi /Bookman-DemiItalic /Bookman-Light
 /Bookman-LightItalic /Helvetica-Narrow /Helvetica-Narrow-Bold /Helvetica-Narrow-BoldOblique /Helvetica-Narrow-Oblique /NewCenturySchlbk-Roman /NewCenturySchlbk-Bold /NewCenturySchlbk-BoldItalic /NewCenturySchlbk-Italic /Palatino-Bold
 /Palatino-BoldItalic /Palatino-Italic /Palatino-Roman ] {ISOLatin1Encoding reEncode } forall
%%EndProlog
%%BeginSetup
%%EndSetup
newpath  gsave  .25 .25 scale  gsave  0 0 t 0.490196 0.545098 0.615686 c[  ] 0 sd 3 lw 0.941176 0.941176 0.941176 c 2268 1684 0 0 bf black 1 1 0.992157 c 1916 1313 238 202 bf black 1916 1313 238 202 bl 1 1 0.992157 c 1916 1313 238 202 bf black 1916
 1313 238 202 bl 238 202 m 1916 X s 238 245 m -43 Y s 276 223 m -21 Y s 315 223 m -21 Y s 353 223 m -21 Y s 391 223 m -21 Y s 430 245 m -43 Y s 468 223 m -21 Y s 506 223 m -21 Y s 545 223 m -21 Y s 583 223 m -21 Y s 621 245 m -43 Y s 660 223 m -21 Y
 s 698 223 m -21 Y s 736 223 m -21 Y s 775 223 m -21 Y s 813 245 m -43 Y s 851 223 m -21 Y s 890 223 m -21 Y s 928 223 m -21 Y s 966 223 m -21 Y s 1005 245 m -43 Y s 1043 223 m -21 Y s 1081 223 m -21 Y s 1120 223 m -21 Y s 1158 223 m -21 Y s 1196 245
 m -43 Y s 1235 223 m -21 Y s 1273 223 m -21 Y s 1311 223 m -21 Y s 1350 223 m -21 Y s 1388 245 m -43 Y s 1426 223 m -21 Y s 1464 223 m -21 Y s 1503 223 m -21 Y s 1541 223 m -21 Y s 1579 245 m -43 Y s 1618 223 m -21 Y s 1656 223 m -21 Y s 1694 223 m
 -21 Y s 1733 223 m -21 Y s 1771 245 m -43 Y s 1809 223 m -21 Y s 1848 223 m -21 Y s 1886 223 m -21 Y s 1924 223 m -21 Y s 1963 245 m -43 Y s 2001 223 m -21 Y s 2039 223 m -21 Y s 2078 223 m -21 Y s 2116 223 m -21 Y s 2154 245 m -43 Y s
 gsave  2268 1684 0 0 C 216.154 128.934 t 0 r /Helvetica-Bold findfont 64.4669 sf 0 0 m (0) show NC gr 
 gsave  2268 1684 0 0 C 386.801 128.934 t 0 r /Helvetica-Bold findfont 64.4669 sf 0 0 m (0.1) show NC gr 
 gsave  2268 1684 0 0 C 572.617 128.934 t 0 r /Helvetica-Bold findfont 64.4669 sf 0 0 m (0.2) show NC gr 
 gsave  2268 1684 0 0 C 766.018 128.934 t 0 r /Helvetica-Bold findfont 64.4669 sf 0 0 m (0.3) show NC gr 
 gsave  2268 1684 0 0 C 955.626 128.934 t 0 r /Helvetica-Bold findfont 64.4669 sf 0 0 m (0.4) show NC gr 
 gsave  2268 1684 0 0 C 1149.03 128.934 t 0 r /Helvetica-Bold findfont 64.4669 sf 0 0 m (0.5) show NC gr 
 gsave  2268 1684 0 0 C 1338.64 128.934 t 0 r /Helvetica-Bold findfont 64.4669 sf 0 0 m (0.6) show NC gr 
 gsave  2268 1684 0 0 C 1532.04 128.934 t 0 r /Helvetica-Bold findfont 64.4669 sf 0 0 m (0.7) show NC gr 
 gsave  2268 1684 0 0 C 1725.44 128.934 t 0 r /Helvetica-Bold findfont 64.4669 sf 0 0 m (0.8) show NC gr 
 gsave  2268 1684 0 0 C 1915.04 128.934 t 0 r /Helvetica-Bold findfont 64.4669 sf 0 0 m (0.9) show NC gr 
 gsave  2268 1684 0 0 C 2138.78 128.934 t 0 r /Helvetica-Bold findfont 64.4669 sf 0 0 m (1) show NC gr 
 gsave  2268 1684 0 0 C 1251.42 30.3373 t 0 r /Helvetica-Bold findfont 72.0512 sf 0 0 m (BDTG response for Signal) show NC gr  238 1515 m 1916 X s 238 1473 m 42 Y s 276 1494 m 21 Y s 315 1494 m 21 Y s 353 1494 m 21 Y s 391 1494 m 21 Y s 430 1473 m 42
 Y s 468 1494 m 21 Y s 506 1494 m 21 Y s 545 1494 m 21 Y s 583 1494 m 21 Y s 621 1473 m 42 Y s 660 1494 m 21 Y s 698 1494 m 21 Y s 736 1494 m 21 Y s 775 1494 m 21 Y s 813 1473 m 42 Y s 851 1494 m 21 Y s 890 1494 m 21 Y s 928 1494 m 21 Y s 966 1494 m
 21 Y s 1005 1473 m 42 Y s 1043 1494 m 21 Y s 1081 1494 m 21 Y s 1120 1494 m 21 Y s 1158 1494 m 21 Y s 1196 1473 m 42 Y s 1235 1494 m 21 Y s 1273 1494 m 21 Y s 1311 1494 m 21 Y s 1350 1494 m 21 Y s 1388 1473 m 42 Y s 1426 1494 m 21 Y s 1464 1494 m 21
 Y s 1503 1494 m 21 Y s 1541 1494 m 21 Y s 1579 1473 m 42 Y s 1618 1494 m 21 Y s 1656 1494 m 21 Y s 1694 1494 m 21 Y s 1733 1494 m 21 Y s 1771 1473 m 42 Y s 1809 1494 m 21 Y s 1848 1494 m 21 Y s 1886 1494 m 21 Y s 1924 1494 m 21 Y s 1963 1473 m 42 Y
 s 2001 1494 m 21 Y s 2039 1494 m 21 Y s 2078 1494 m 21 Y s 2116 1494 m 21 Y s 2154 1473 m 42 Y s 238 202 m 1313 Y s 291 202 m -53 X s 265 230 m -27 X s 265 259 m -27 X s 265 287 m -27 X s 265 316 m -27 X s 291 344 m -53 X s 265 372 m -27 X s 265 401
 m -27 X s 265 429 m -27 X s 265 458 m -27 X s 291 486 m -53 X s 265 514 m -27 X s 265 543 m -27 X s 265 571 m -27 X s 265 599 m -27 X s 291 628 m -53 X s 265 656 m -27 X s 265 685 m -27 X s 265 713 m -27 X s 265 741 m -27 X s 291 770 m -53 X s 265
 798 m -27 X s 265 827 m -27 X s 265 855 m -27 X s 265 883 m -27 X s 291 912 m -53 X s 265 940 m -27 X s 265 968 m -27 X s 265 997 m -27 X s 265 1025 m -27 X s 291 1054 m -53 X s 265 1082 m -27 X s 265 1110 m -27 X s 265 1139 m -27 X s 265 1167 m -27
 X s 291 1196 m -53 X s 265 1224 m -27 X s 265 1252 m -27 X s 265 1281 m -27 X s 265 1309 m -27 X s 291 1337 m -53 X s 265 1366 m -27 X s 265 1394 m -27 X s 265 1423 m -27 X s 265 1451 m -27 X s 291 1479 m -53 X s 291 1479 m -53 X s 265 1508 m -27 X
 s
 gsave  2268 1684 0 0 C 174.44 178.232 t 0 r /Helvetica-Bold findfont 64.4669 sf 0 0 m (0) show NC gr 
 gsave  2268 1684 0 0 C 174.44 318.542 t 0 r /Helvetica-Bold findfont 64.4669 sf 0 0 m (5) show NC gr 
 gsave  2268 1684 0 0 C 136.518 462.645 t 0 r /Helvetica-Bold findfont 64.4669 sf 0 0 m (10) show NC gr 
 gsave  2268 1684 0 0 C 136.518 602.955 t 0 r /Helvetica-Bold findfont 64.4669 sf 0 0 m (15) show NC gr 
 gsave  2268 1684 0 0 C 136.518 743.265 t 0 r /Helvetica-Bold findfont 64.4669 sf 0 0 m (20) show NC gr 
 gsave  2268 1684 0 0 C 136.518 887.367 t 0 r /Helvetica-Bold findfont 64.4669 sf 0 0 m (25) show NC gr 
 gsave  2268 1684 0 0 C 136.518 1027.68 t 0 r /Helvetica-Bold findfont 64.4669 sf 0 0 m (30) show NC gr 
 gsave  2268 1684 0 0 C 136.518 1171.78 t 0 r /Helvetica-Bold findfont 64.4669 sf 0 0 m (35) show NC gr 
 gsave  2268 1684 0 0 C 136.518 1312.09 t 0 r /Helvetica-Bold findfont 64.4669 sf 0 0 m (40) show NC gr 
 gsave  2268 1684 0 0 C 136.518 1456.19 t 0 r /Helvetica-Bold findfont 64.4669 sf 0 0 m (45) show NC gr 
 gsave  2268 1684 0 0 C 64.4669 1433.44 t 90 r /Helvetica-Bold findfont 72.0512 sf 0 0 m (dx) show NC gr 
 gsave  2268 1684 0 0 C 30.3373 1422.06 t 90 r /Helvetica-Bold findfont 45.506 sf 0 0 m ( ) show NC gr 
 gsave  2268 1684 0 0 C 64.4669 1399.31 t 90 r /Helvetica-Bold findfont 72.0512 sf 0 0 m (/) show NC gr 
 gsave  2268 1684 0 0 C 30.3373 1387.93 t 90 r /Helvetica-Bold findfont 45.506 sf 0 0 m ( ) show NC gr 
 gsave  2268 1684 0 0 C 60.6747 1111.11 t 90 r /Helvetica-Bold findfont 72.0512 sf 0 0 m (\(1/N\) dN) show NC gr  2154 202 m 1313 Y s 2101 202 m 53 X s 2128 230 m 26 X s 2128 259 m 26 X s 2128 287 m 26 X s 2128 316 m 26 X s 2101 344 m 53 X s 2128 372
 m 26 X s 2128 401 m 26 X s 2128 429 m 26 X s 2128 458 m 26 X s 2101 486 m 53 X s 2128 514 m 26 X s 2128 543 m 26 X s 2128 571 m 26 X s 2128 599 m 26 X s 2101 628 m 53 X s 2128 656 m 26 X s 2128 685 m 26 X s 2128 713 m 26 X s 2128 741 m 26 X s 2101
 770 m 53 X s 2128 798 m 26 X s 2128 827 m 26 X s 2128 855 m 26 X s 2128 883 m 26 X s 2101 912 m 53 X s 2128 940 m 26 X s 2128 968 m 26 X s 2128 997 m 26 X s 2128 1025 m 26 X s 2101 1054 m 53 X s 2128 1082 m 26 X s 2128 1110 m 26 X s 2128 1139 m 26 X
 s 2128 1167 m 26 X s 2101 1196 m 53 X s 2128 1224 m 26 X s 2128 1252 m 26 X s 2128 1281 m 26 X s 2128 1309 m 26 X s 2101 1337 m 53 X s 2128 1366 m 26 X s 2128 1394 m 26 X s 2128 1423 m 26 X s 2128 1451 m 26 X s 2101 1479 m 53 X s 2101 1479 m 53 X s
 2128 1508 m 26 X s 0.490196 0.545098 0.615686 c 1 1 1 c 0.490196 0.545098 0.615686 c 680 202 238 1313 bl 238 1313 m 680 X s 918 1313 m 202 Y s 918 1515 m -680 X s 238 1515 m -202 Y s black
 gsave  2268 1684 0 0 C 439.892 1467.57 t 0 r /Helvetica-Bold findfont 56.8825 sf 0 0 m (Signal) show NC gr  0.49 0.6 0.82 c 269 1458 m 143 X 47 Y -143 X f 0 0 1 c 6 lw 269 1505 m 143 X s 269 1458 m 143 X s 412 1458 m 47 Y s 269 1458 m 47 Y s black
 gsave  2268 1684 0 0 C 439.892 1399.31 t 0 r /Helvetica-Bold findfont 56.8825 sf 0 0 m (bkg_NOSIG) show NC gr  1 0 0 c 3 lw 412 1422 m -31 -31 d s 380 1438 m -48 -47 d s 331 1438 m -47 -47 d s 283 1438 m -14 -15 d s 6 lw 0 0 1 c 1 0 0 c 269 1438 m
 143 X s 269 1391 m 143 X s 412 1391 m 47 Y s 269 1391 m 47 Y s black
 gsave  2268 1684 0 0 C 439.892 1334.84 t 0 r /Helvetica-Bold findfont 56.8825 sf 0 0 m (bkg_SIG) show NC gr  0 1 0 c 3 lw 1 lw << /PatternType 1 /PaintType 2 /TilingType 1 /BBox [ 0 0 96 16 ] /XStep 96 /YStep 16 /PaintProc { begin gsave [1 3] 0 sd 2
 13 m 98 13 l s 0 9 m 96 9 l s 2 5 m 98 5 l s 0 1 m 96 1 l s gr end } >> [ 2.0 0 0 2.0 0 0 ] makepattern /P03 exch def /cs {[/Pattern /DeviceRGB] setcolorspace} def /FA {f [/DeviceRGB] setcolorspace} def cs 0 1 0 P03 setcolor 269 1323 m 143 X 48 Y
 -143 X FA 6 lw 0 1 0 c 269 1371 m 143 X s 269 1323 m 143 X s 412 1323 m 48 Y s 269 1323 m 48 Y s 0 0 1 c 0.49 0.6 0.82 c black 3 lw 0.49 0.6 0.82 c 2154 202 m -1916 X 196 Y 48 X -97 Y 48 X 1 Y 48 X -5 Y 47 X -6 Y 48 X -10 Y 48 X -9 Y 48 X -6 Y 48 X
 -9 Y 48 X -7 Y 48 X -4 Y 48 X -9 Y 48 X -6 Y 48 X -3 Y 48 X -5 Y 48 X -3 Y 48 X -3 Y 47 X -3 Y 48 X -2 Y 48 X -2 Y 48 X -1 Y 48 X -2 Y 48 X -2 Y 96 X -1 Y 48 X -1 Y 144 X -1 Y 574 X f 6 lw 0 0 1 c 0.49 0.6 0.82 c 0 0 1 c 238 398 m 48 X -97 Y 48 X 1
 Y 48 X -5 Y 47 X -6 Y 48 X -10 Y 48 X -9 Y 48 X -6 Y 48 X -9 Y 48 X -7 Y 48 X -4 Y 48 X -9 Y 48 X -6 Y 48 X -3 Y 48 X -5 Y 48 X -3 Y 48 X -3 Y 47 X -3 Y 48 X -2 Y 48 X -2 Y 48 X -1 Y 48 X -2 Y 48 X -2 Y 96 X -1 Y 48 X -1 Y 144 X -1 Y 574 X s 1 0 0 c
 black 3 lw 1 0 0 c 2126 202 m s 2078 202 m s 2030 202 m s 1982 202 m s 1934 202 m cl s 1886 202 m s 1838 202 m s 1790 202 m s 1741 202 m s 1693 202 m s 1645 202 m s 1597 202 m s 1549 202 m s 1501 202 m s 1453 202 m s 1405 202 m s 1357 202 m s 1308
 202 m s 1260 202 m s 1212 202 m s 1164 202 m s 1116 202 m s 1068 202 m s 1020 202 m s 972 202 m s 924 202 m s 876 202 m s 828 202 m -1 X s 780 202 m -1 X s 731 202 m s 683 202 m s 636 203 m -1 -1 d s 588 203 m -1 -1 d s 540 203 m -1 -1 d s 492 204 m
 -1 -2 d s 445 205 m -2 -3 d s 399 206 m -5 -4 d s 355 210 m -9 -8 d s 318 222 m -20 -20 d s 286 238 m -36 -36 d s 286 286 m -48 -48 d s 286 334 m -48 -48 d s 286 382 m -48 -48 d s 286 430 m -48 -48 d s 286 478 m -48 -47 d s 286 526 m -48 -47 d s 286
 574 m -48 -47 d s 286 622 m -48 -47 d s 286 670 m -48 -47 d s 286 719 m -48 -48 d s 286 767 m -48 -48 d s 286 815 m -48 -48 d s 286 863 m -48 -48 d s 286 911 m -48 -48 d s 286 959 m -48 -47 d s 286 1007 m -48 -47 d s 286 1055 m -48 -47 d s 286 1103
 m -48 -47 d s 286 1152 m -48 -48 d s 286 1200 m -48 -48 d s 286 1248 m -48 -48 d s 286 1296 m -48 -48 d s 238 1296 m s 6 lw 238 1296 m 48 X -1074 Y 48 X -12 Y 48 X -4 Y 47 X -1 Y 48 X -1 Y 48 X -1 Y 144 X -1 Y 1485 X s 0 1 0 c black 3 lw 0 1 0 c cs
 0 1 0 P03 setcolor 2154 202 m -1916 X 1049 Y 48 X -1015 Y 48 X -16 Y 48 X -7 Y 47 X -4 Y 48 X -2 Y 48 X -2 Y 48 X -1 Y 96 X -1 Y 192 X -1 Y 1293 X FA 6 lw 0 1 0 c 238 1251 m 48 X -1015 Y 48 X -16 Y 48 X -7 Y 47 X -4 Y 48 X -2 Y 48 X -2 Y 48 X -1 Y
 96 X -1 Y 192 X -1 Y 1293 X s black 3 lw 238 202 m 1916 X s 238 245 m -43 Y s 276 223 m -21 Y s 315 223 m -21 Y s 353 223 m -21 Y s 391 223 m -21 Y s 430 245 m -43 Y s 468 223 m -21 Y s 506 223 m -21 Y s 545 223 m -21 Y s 583 223 m -21 Y s 621 245 m
 -43 Y s 660 223 m -21 Y s 698 223 m -21 Y s 736 223 m -21 Y s 775 223 m -21 Y s 813 245 m -43 Y s 851 223 m -21 Y s 890 223 m -21 Y s 928 223 m -21 Y s 966 223 m -21 Y s 1005 245 m -43 Y s 1043 223 m -21 Y s 1081 223 m -21 Y s 1120 223 m -21 Y s
 1158 223 m -21 Y s 1196 245 m -43 Y s 1235 223 m -21 Y s 1273 223 m -21 Y s 1311 223 m -21 Y s 1350 223 m -21 Y s 1388 245 m -43 Y s 1426 223 m -21 Y s 1464 223 m -21 Y s 1503 223 m -21 Y s 1541 223 m -21 Y s 1579 245 m -43 Y s 1618 223 m -21 Y s
 1656 223 m -21 Y s 1694 223 m -21 Y s 1733 223 m -21 Y s 1771 245 m -43 Y s 1809 223 m -21 Y s 1848 223 m -21 Y s 1886 223 m -21 Y s 1924 223 m -21 Y s 1963 245 m -43 Y s 2001 223 m -21 Y s 2039 223 m -21 Y s 2078 223 m -21 Y s 2116 223 m -21 Y s
 2154 245 m -43 Y s 238 1515 m 1916 X s 238 1473 m 42 Y s 276 1494 m 21 Y s 315 1494 m 21 Y s 353 1494 m 21 Y s 391 1494 m 21 Y s 430 1473 m 42 Y s 468 1494 m 21 Y s 506 1494 m 21 Y s 545 1494 m 21 Y s 583 1494 m 21 Y s 621 1473 m 42 Y s 660 1494 m
 21 Y s 698 1494 m 21 Y s 736 1494 m 21 Y s 775 1494 m 21 Y s 813 1473 m 42 Y s 851 1494 m 21 Y s 890 1494 m 21 Y s 928 1494 m 21 Y s 966 1494 m 21 Y s 1005 1473 m 42 Y s 1043 1494 m 21 Y s 1081 1494 m 21 Y s 1120 1494 m 21 Y s 1158 1494 m 21 Y s
 1196 1473 m 42 Y s 1235 1494 m 21 Y s 1273 1494 m 21 Y s 1311 1494 m 21 Y s 1350 1494 m 21 Y s 1388 1473 m 42 Y s 1426 1494 m 21 Y s 1464 1494 m 21 Y s 1503 1494 m 21 Y s 1541 1494 m 21 Y s 1579 1473 m 42 Y s 1618 1494 m 21 Y s 1656 1494 m 21 Y s
 1694 1494 m 21 Y s 1733 1494 m 21 Y s 1771 1473 m 42 Y s 1809 1494 m 21 Y s 1848 1494 m 21 Y s 1886 1494 m 21 Y s 1924 1494 m 21 Y s 1963 1473 m 42 Y s 2001 1494 m 21 Y s 2039 1494 m 21 Y s 2078 1494 m 21 Y s 2116 1494 m 21 Y s 2154 1473 m 42 Y s
 238 202 m 1313 Y s 291 202 m -53 X s 265 230 m -27 X s 265 259 m -27 X s 265 287 m -27 X s 265 316 m -27 X s 291 344 m -53 X s 265 372 m -27 X s 265 401 m -27 X s 265 429 m -27 X s 265 458 m -27 X s 291 486 m -53 X s 265 514 m -27 X s 265 543 m -27
 X s 265 571 m -27 X s 265 599 m -27 X s 291 628 m -53 X s 265 656 m -27 X s 265 685 m -27 X s 265 713 m -27 X s 265 741 m -27 X s 291 770 m -53 X s 265 798 m -27 X s 265 827 m -27 X s 265 855 m -27 X s 265 883 m -27 X s 291 912 m -53 X s 265 940 m
 -27 X s 265 968 m -27 X s 265 997 m -27 X s 265 1025 m -27 X s 291 1054 m -53 X s 265 1082 m -27 X s 265 1110 m -27 X s 265 1139 m -27 X s 265 1167 m -27 X s 291 1196 m -53 X s 265 1224 m -27 X s 265 1252 m -27 X s 265 1281 m -27 X s 265 1309 m -27
 X s 291 1337 m -53 X s 265 1366 m -27 X s 265 1394 m -27 X s 265 1423 m -27 X s 265 1451 m -27 X s 291 1479 m -53 X s 291 1479 m -53 X s 265 1508 m -27 X s 2154 202 m 1313 Y s 2101 202 m 53 X s 2128 230 m 26 X s 2128 259 m 26 X s 2128 287 m 26 X s
 2128 316 m 26 X s 2101 344 m 53 X s 2128 372 m 26 X s 2128 401 m 26 X s 2128 429 m 26 X s 2128 458 m 26 X s 2101 486 m 53 X s 2128 514 m 26 X s 2128 543 m 26 X s 2128 571 m 26 X s 2128 599 m 26 X s 2101 628 m 53 X s 2128 656 m 26 X s 2128 685 m 26 X
 s 2128 713 m 26 X s 2128 741 m 26 X s 2101 770 m 53 X s 2128 798 m 26 X s 2128 827 m 26 X s 2128 855 m 26 X s 2128 883 m 26 X s 2101 912 m 53 X s 2128 940 m 26 X s 2128 968 m 26 X s 2128 997 m 26 X s 2128 1025 m 26 X s 2101 1054 m 53 X s 2128 1082 m
 26 X s 2128 1110 m 26 X s 2128 1139 m 26 X s 2128 1167 m 26 X s 2101 1196 m 53 X s 2128 1224 m 26 X s 2128 1252 m 26 X s 2128 1281 m 26 X s 2128 1309 m 26 X s 2101 1337 m 53 X s 2128 1366 m 26 X s 2128 1394 m 26 X s 2128 1423 m 26 X s 2128 1451 m 26
 X s 2101 1479 m 53 X s 2101 1479 m 53 X s 2128 1508 m 26 X s 0.490196 0.545098 0.615686 c 0.364706 0.419608 0.490196 c 1486 100 23 1575 bf 0.490196 0.545098 0.615686 c 23 1575 m 1486 X s 1509 1575 m 100 Y s 1509 1675 m -1486 X s 23 1675 m -100 Y s 1
 1 1 c black 1 1 1 c
 gsave  2268 1684 0 0 C 72.0512 1604.09 t 0 r /Helvetica-Bold findfont 79.6355 sf 0 0 m (TMVA response for classifier: BDTG) show NC gr 
 gr  gr showpage
end
%%EOF
