%!PS-Adobe-2.0 EPSF-2.0
%%BoundingBox:  0 0 567 421
%%Title: dataset/plots/mva_BDTG.eps: TMVA response BDTG
%%Creator: ROOT Version 6.18/00
%%CreationDate: Fri Aug  9 15:59:07 2019
%%DocumentNeededResources: ProcSet (FontSetInit)
%%EndComments
%%BeginProlog
80 dict begin
/s {stroke} def /l {lineto} def /m {moveto} def /t {translate} def
/r {rotate} def /rl {roll}  def /R {repeat} def
/d {rlineto} def /rm {rmoveto} def /gr {grestore} def /f {eofill} def
/c {setrgbcolor} def /black {0 setgray} def /sd {setdash} def
/cl {closepath} def /sf {scalefont setfont} def /lw {setlinewidth} def
/box {m dup 0 exch d exch 0 d 0 exch neg d cl} def
/NC{systemdict begin initclip end}def/C{NC box clip newpath}def
/bl {box s} def /bf {gsave box gsave f grestore 1 lw [] 0 sd s grestore} def /Y { 0 exch d} def /X { 0 d} def 
/K {{pop pop 0 moveto} exch kshow} bind def
/ita {/ang 15 def gsave [1 0 ang dup sin exch cos div 1 0 0] concat} def 
/mp {newpath /y exch def /x exch def} def
/side {[w .77 mul w .23 mul] .385 w mul sd w 0 l currentpoint t -144 r} def
/mr {mp x y w2 0 360 arc} def /m24 {mr s} def /m20 {mr f} def
/mb {mp x y w2 add m w2 neg 0 d 0 w neg d w 0 d 0 w d cl} def
/mt {mp x y w2 add m w2 neg w neg d w 0 d cl} def
/w4 {w 4 div} def
/w6 {w 6 div} def
/w8 {w 8 div} def
/m21 {mb f} def /m25 {mb s} def /m22 {mt f} def /m26{mt s} def
/m23 {mp x y w2 sub m w2 w d w neg 0 d cl f} def
/m27 {mp x y w2 add m w3 neg w2 neg d w3 w2 neg d w3 w2 d cl s} def
/m28 {mp x w2 sub y w2 sub w3 add m w3 0 d  0 w3 neg d w3 0 d 0 w3 d w3 0 d  0 w3 d w3 neg 0 d 0 w3 d w3 neg 0 d 0 w3 neg d w3 neg 0 d cl s } def
/m29 {mp gsave x w2 sub y w2 add w3 sub m currentpoint t 4 {side} repeat cl fill gr} def
/m30 {mp gsave x w2 sub y w2 add w3 sub m currentpoint t 4 {side} repeat cl s gr} def
/m31 {mp x y w2 sub m 0 w d x w2 sub y m w 0 d x w2 sub y w2 add m w w neg d x w2 sub y w2 sub m w w d s} def
/m32 {mp x y w2 sub m w2 w d w neg 0 d cl s} def
/m33 {mp x y w2 add m w3 neg w2 neg d w3 w2 neg d w3 w2 d cl f} def
/m34 {mp x w2 sub y w2 sub w3 add m w3 0 d  0 w3 neg d w3 0 d 0 w3 d w3 0 d  0 w3 d w3 neg 0 d 0 w3 d w3 neg 0 d 0 w3 neg d w3 neg 0 d cl f } def
/m35 {mp x y w2 add m w2 neg w2 neg d w2 w2 neg d w2 w2 d w2 neg w2 d x y w2 sub m 0 w d x w2 sub y m w 0 d s} def
/m36 {mb x w2 sub y w2 add m w w neg d x w2 sub y w2 sub m w w d s} def
/m37 {mp x y m w4 neg w2 d w4 neg w2 neg d w2 0 d  w4 neg w2 neg d w2 0 d w4 neg w2 d w2 0 d w4 neg w2 d w4 neg w2 neg d cl s} def
/m38 {mp x w4 sub y w2 add m w4 neg w4 neg d 0 w2 neg d w4 w4 neg d w2 0 d w4 w4 d 0 w2 d w4 neg w4 d w2 neg 0 d x y w2 sub m 0 w d x w2 sub y m w 0 d cl s} def
/m39 {mp x y m w4 neg w2 d w4 neg w2 neg d w2 0 d  w4 neg w2 neg d w2 0 d w4 neg w2 d w2 0 d w4 neg w2 d w4 neg w2 neg d cl f} def
/m40 {mp x y m w4 w2 d w4 w4 neg d w2 neg w4 neg d w2 w4 neg d w4 neg w4 neg d w4 neg w2 d w4 neg w2 neg d w4 neg w4 d w2 w4 d w2 neg w4 d w4 w4 d w4 w2 neg d cl s} def
/m41 {mp x y m w4 w2 d w4 w4 neg d w2 neg w4 neg d w2 w4 neg d w4 neg w4 neg d w4 neg w2 d w4 neg w2 neg d w4 neg w4 d w2 w4 d w2 neg w4 d w4 w4 d w4 w2 neg d cl f} def
/m42 {mp x y w2 add m w8 neg w2 -3 4 div mul d w2 -3 4 div mul w8 neg d w2 3 4 div mul w8 neg d w8 w2 -3 4 div mul d w8 w2 3 4 div mul d w2 3 4 div mul w8 d w2 -3 4 div mul w8 d w8 neg w2 3 4 div mul d cl s} def
/m43 {mp x y w2 add m w8 neg w2 -3 4 div mul d w2 -3 4 div mul w8 neg d w2 3 4 div mul w8 neg d w8 w2 -3 4 div mul d w8 w2 3 4 div mul d w2 3 4 div mul w8 d w2 -3 4 div mul w8 d w8 neg w2 3 4 div mul d cl f} def
/m44 {mp x y m w6 neg w2 d w2 2 3 div mul 0 d w6 neg w2 neg d w2 w6 d 0 w2 -2 3 div mul d w2 neg w6 d w6 w2 neg d w2 -2 3 div mul 0 d w6 w2 d w2 neg w6 neg d 0 w2 2 3 div mul d w2 w6 neg d cl s} def
/m45 {mp x y m w6 neg w2 d w2 2 3 div mul 0 d w6 neg w2 neg d w2 w6 d 0 w2 -2 3 div mul d w2 neg w6 d w6 w2 neg d w2 -2 3 div mul 0 d w6 w2 d w2 neg w6 neg d 0 w2 2 3 div mul d w2 w6 neg d cl f} def
/m46 {mp x y w4 add m w4 neg w4 d w4 neg w4 neg d  w4 w4 neg d w4 neg w4 neg d w4 w4 neg d w4 w4 d w4 w4 neg d w4 w4 d w4 neg w4 d w4 w4 d w4 neg w4 d w4 neg w4 neg d cl s} def
/m47 {mp x y w4 add m w4 neg w4 d w4 neg w4 neg d w4 w4 neg d w4 neg w4 neg d  w4 w4 neg d w4 w4 d w4 w4 neg d w4 w4 d w4 neg w4 d w4 w4 d w4 neg w4 d w4 neg w4 neg d cl f} def
/m48 {mp x y w4 add m w4 neg w4 d w4 neg w4 neg d w4 w4 neg d  w4 neg w4 neg d w4 w4 neg d w4 w4 d w4 w4 neg d w4 w4 d w4 neg w4 d w4 w4 d w4 neg w4 d w4 neg w4 neg d  w4 w4 neg d w4 neg w4 neg d w4 neg w4 d w4 w4 d cl f} def
/m49 {mp x w2 sub w3 add y w2 sub w3 add m  0 w3 neg d w3 0 d 0 w3 d w3 0 d 0 w3 d w3 neg 0 d 0 w3 d w3 neg 0 d 0 w3 neg d w3 neg 0 d 0 w3 neg d w3 0 d 0 w3 d w3 0 d 0 w3 neg d w3 neg 0 d cl f } def
/m2 {mp x y w2 sub m 0 w d x w2 sub y m w 0 d s} def
/m5 {mp x w2 sub y w2 sub m w w d x w2 sub y w2 add m w w neg d s} def
%%IncludeResource: ProcSet (FontSetInit)
%%IncludeResource: font Times-Roman
%%IncludeResource: font Times-Italic
%%IncludeResource: font Times-Bold
%%IncludeResource: font Times-BoldItalic
%%IncludeResource: font Helvetica
%%IncludeResource: font Helvetica-Oblique
%%IncludeResource: font Helvetica-Bold
%%IncludeResource: font Helvetica-BoldOblique
%%IncludeResource: font Courier
%%IncludeResource: font Courier-Oblique
%%IncludeResource: font Courier-Bold
%%IncludeResource: font Courier-BoldOblique
%%IncludeResource: font Symbol
%%IncludeResource: font ZapfDingbats
/reEncode {exch findfont dup length dict begin {1 index /FID eq  {pop pop} {def} ifelse } forall /Encoding exch def currentdict end dup /FontName get exch definefont pop } def [/Times-Bold /Times-Italic /Times-BoldItalic /Helvetica /Helvetica-Oblique
 /Helvetica-Bold /Helvetica-BoldOblique /Courier /Courier-Oblique /Courier-Bold /Courier-BoldOblique /Times-Roman /AvantGarde-Book /AvantGarde-BookOblique /AvantGarde-Demi /AvantGarde-DemiOblique /Bookman-Demi /Bookman-DemiItalic /Bookman-Light
 /Bookman-LightItalic /Helvetica-Narrow /Helvetica-Narrow-Bold /Helvetica-Narrow-BoldOblique /Helvetica-Narrow-Oblique /NewCenturySchlbk-Roman /NewCenturySchlbk-Bold /NewCenturySchlbk-BoldItalic /NewCenturySchlbk-Italic /Palatino-Bold
 /Palatino-BoldItalic /Palatino-Italic /Palatino-Roman ] {ISOLatin1Encoding reEncode } forall
%%EndProlog
%%BeginSetup
%%EndSetup
newpath  gsave  .25 .25 scale  gsave  0 0 t 0.490196 0.545098 0.615686 c[  ] 0 sd 3 lw 0.941176 0.941176 0.941176 c 2268 1684 0 0 bf black 1 1 0.992157 c 1916 1313 238 202 bf black 1916 1313 238 202 bl 1 1 0.992157 c 1916 1313 238 202 bf black 1916
 1313 238 202 bl 238 202 m 1916 X s 416 245 m -43 Y s 465 223 m -21 Y s 513 223 m -21 Y s 561 223 m -21 Y s 610 245 m -43 Y s 658 223 m -21 Y s 706 223 m -21 Y s 754 223 m -21 Y s 803 245 m -43 Y s 851 223 m -21 Y s 899 223 m -21 Y s 947 223 m -21 Y
 s 996 245 m -43 Y s 1044 223 m -21 Y s 1092 223 m -21 Y s 1141 223 m -21 Y s 1189 245 m -43 Y s 1237 223 m -21 Y s 1285 223 m -21 Y s 1334 223 m -21 Y s 1382 245 m -43 Y s 1430 223 m -21 Y s 1478 223 m -21 Y s 1527 223 m -21 Y s 1575 245 m -43 Y s
 1623 223 m -21 Y s 1672 223 m -21 Y s 1720 223 m -21 Y s 1768 245 m -43 Y s 1816 223 m -21 Y s 1865 223 m -21 Y s 1913 223 m -21 Y s 1961 245 m -43 Y s 416 245 m -43 Y s 368 223 m -21 Y s 320 223 m -21 Y s 272 223 m -21 Y s 1961 245 m -43 Y s 2010
 223 m -21 Y s 2058 223 m -21 Y s 2106 223 m -21 Y s
 gsave  2268 1684 0 0 C 383.009 128.934 t 0 r /Helvetica-Bold findfont 64.4669 sf 0 0 m (0.8) show NC gr 
 gsave  2268 1684 0 0 C 352.672 128.934 t 0 r /Symbol findfont 64.4669 sf 0 0 m (-) show NC gr 
 gsave  2268 1684 0 0 C 576.41 128.934 t 0 r /Helvetica-Bold findfont 64.4669 sf 0 0 m (0.6) show NC gr 
 gsave  2268 1684 0 0 C 546.072 128.934 t 0 r /Symbol findfont 64.4669 sf 0 0 m (-) show NC gr 
 gsave  2268 1684 0 0 C 769.81 128.934 t 0 r /Helvetica-Bold findfont 64.4669 sf 0 0 m (0.4) show NC gr 
 gsave  2268 1684 0 0 C 739.473 128.934 t 0 r /Symbol findfont 64.4669 sf 0 0 m (-) show NC gr 
 gsave  2268 1684 0 0 C 963.211 128.934 t 0 r /Helvetica-Bold findfont 64.4669 sf 0 0 m (0.2) show NC gr 
 gsave  2268 1684 0 0 C 932.873 128.934 t 0 r /Symbol findfont 64.4669 sf 0 0 m (-) show NC gr 
 gsave  2268 1684 0 0 C 1167.99 128.934 t 0 r /Helvetica-Bold findfont 64.4669 sf 0 0 m (0) show NC gr 
 gsave  2268 1684 0 0 C 1334.84 128.934 t 0 r /Helvetica-Bold findfont 64.4669 sf 0 0 m (0.2) show NC gr 
 gsave  2268 1684 0 0 C 1528.24 128.934 t 0 r /Helvetica-Bold findfont 64.4669 sf 0 0 m (0.4) show NC gr 
 gsave  2268 1684 0 0 C 1721.64 128.934 t 0 r /Helvetica-Bold findfont 64.4669 sf 0 0 m (0.6) show NC gr 
 gsave  2268 1684 0 0 C 1915.04 128.934 t 0 r /Helvetica-Bold findfont 64.4669 sf 0 0 m (0.8) show NC gr 
 gsave  2268 1684 0 0 C 1604.09 30.3373 t 0 r /Helvetica-Bold findfont 72.0512 sf 0 0 m (BDTG response) show NC gr  238 1515 m 1916 X s 416 1473 m 42 Y s 465 1494 m 21 Y s 513 1494 m 21 Y s 561 1494 m 21 Y s 610 1473 m 42 Y s 658 1494 m 21 Y s 706
 1494 m 21 Y s 754 1494 m 21 Y s 803 1473 m 42 Y s 851 1494 m 21 Y s 899 1494 m 21 Y s 947 1494 m 21 Y s 996 1473 m 42 Y s 1044 1494 m 21 Y s 1092 1494 m 21 Y s 1141 1494 m 21 Y s 1189 1473 m 42 Y s 1237 1494 m 21 Y s 1285 1494 m 21 Y s 1334 1494 m
 21 Y s 1382 1473 m 42 Y s 1430 1494 m 21 Y s 1478 1494 m 21 Y s 1527 1494 m 21 Y s 1575 1473 m 42 Y s 1623 1494 m 21 Y s 1672 1494 m 21 Y s 1720 1494 m 21 Y s 1768 1473 m 42 Y s 1816 1494 m 21 Y s 1865 1494 m 21 Y s 1913 1494 m 21 Y s 1961 1473 m 42
 Y s 416 1473 m 42 Y s 368 1494 m 21 Y s 320 1494 m 21 Y s 272 1494 m 21 Y s 1961 1473 m 42 Y s 2010 1494 m 21 Y s 2058 1494 m 21 Y s 2106 1494 m 21 Y s 238 202 m 1313 Y s 291 202 m -53 X s 265 257 m -27 X s 265 312 m -27 X s 265 366 m -27 X s 291
 421 m -53 X s 265 476 m -27 X s 265 531 m -27 X s 265 585 m -27 X s 291 640 m -53 X s 265 695 m -27 X s 265 750 m -27 X s 265 805 m -27 X s 291 859 m -53 X s 265 914 m -27 X s 265 969 m -27 X s 265 1024 m -27 X s 291 1078 m -53 X s 265 1133 m -27 X
 s 265 1188 m -27 X s 265 1243 m -27 X s 291 1298 m -53 X s 291 1298 m -53 X s 265 1352 m -27 X s 265 1407 m -27 X s 265 1462 m -27 X s
 gsave  2268 1684 0 0 C 174.44 178.232 t 0 r /Helvetica-Bold findfont 64.4669 sf 0 0 m (0) show NC gr 
 gsave  2268 1684 0 0 C 174.44 398.178 t 0 r /Helvetica-Bold findfont 64.4669 sf 0 0 m (2) show NC gr 
 gsave  2268 1684 0 0 C 174.44 614.331 t 0 r /Helvetica-Bold findfont 64.4669 sf 0 0 m (4) show NC gr 
 gsave  2268 1684 0 0 C 174.44 834.277 t 0 r /Helvetica-Bold findfont 64.4669 sf 0 0 m (6) show NC gr 
 gsave  2268 1684 0 0 C 174.44 1054.22 t 0 r /Helvetica-Bold findfont 64.4669 sf 0 0 m (8) show NC gr 
 gsave  2268 1684 0 0 C 136.518 1274.17 t 0 r /Helvetica-Bold findfont 64.4669 sf 0 0 m (10) show NC gr 
 gsave  2268 1684 0 0 C 64.4669 1433.44 t 90 r /Helvetica-Bold findfont 72.0512 sf 0 0 m (dx) show NC gr 
 gsave  2268 1684 0 0 C 30.3373 1422.06 t 90 r /Helvetica-Bold findfont 45.506 sf 0 0 m ( ) show NC gr 
 gsave  2268 1684 0 0 C 64.4669 1399.31 t 90 r /Helvetica-Bold findfont 72.0512 sf 0 0 m (/) show NC gr 
 gsave  2268 1684 0 0 C 30.3373 1387.93 t 90 r /Helvetica-Bold findfont 45.506 sf 0 0 m ( ) show NC gr 
 gsave  2268 1684 0 0 C 60.6747 1111.11 t 90 r /Helvetica-Bold findfont 72.0512 sf 0 0 m (\(1/N\) dN) show NC gr  2154 202 m 1313 Y s 2101 202 m 53 X s 2128 257 m 26 X s 2128 312 m 26 X s 2128 366 m 26 X s 2101 421 m 53 X s 2128 476 m 26 X s 2128 531
 m 26 X s 2128 585 m 26 X s 2101 640 m 53 X s 2128 695 m 26 X s 2128 750 m 26 X s 2128 805 m 26 X s 2101 859 m 53 X s 2128 914 m 26 X s 2128 969 m 26 X s 2128 1024 m 26 X s 2101 1078 m 53 X s 2128 1133 m 26 X s 2128 1188 m 26 X s 2128 1243 m 26 X s
 2101 1298 m 53 X s 2101 1298 m 53 X s 2128 1352 m 26 X s 2128 1407 m 26 X s 2128 1462 m 26 X s 0.490196 0.545098 0.615686 c 1 1 1 c 0.490196 0.545098 0.615686 c 680 202 238 1313 bl 238 1313 m 680 X s 918 1313 m 202 Y s 918 1515 m -680 X s 238 1515 m
 -202 Y s black
 gsave  2268 1684 0 0 C 439.892 1444.82 t 0 r /Helvetica-Bold findfont 75.8434 sf 0 0 m (Signal) show NC gr  0.49 0.6 0.82 c 269 1429 m 143 X 71 Y -143 X f 0 0 0.933333 c 6 lw 269 1500 m 143 X s 269 1429 m 143 X s 412 1429 m 71 Y s 269 1429 m 71 Y s
 black
 gsave  2268 1684 0 0 C 439.892 1342.43 t 0 r /Helvetica-Bold findfont 75.8434 sf 0 0 m (Background) show NC gr  1 0 0 c 3 lw 412 1374 m -46 -46 d s 389 1399 m -71 -71 d s 341 1399 m -71 -71 d s 293 1399 m -24 -24 d s 6 lw 0 0 0.933333 c 1 0 0 c 269
 1399 m 143 X s 269 1328 m 143 X s 412 1328 m 71 Y s 269 1328 m 71 Y s 0 0 0.933333 c 0.49 0.6 0.82 c black 3 lw 0.49 0.6 0.82 c 238 202 m 4 Y 48 X 4 Y 48 X -2 Y 48 X -1 Y 191 X 1 Y 240 X 1 Y 192 X 1 Y 191 X 1 Y 96 X 1 Y 96 X 1 Y 48 X 1 Y 48 X 2 Y 48
 X 1 Y 47 X 2 Y 48 X 3 Y 48 X 3 Y 48 X 4 Y 48 X 5 Y 48 X 9 Y 48 X 12 Y 48 X 21 Y 48 X 41 Y 48 X 76 Y 48 X 112 Y 47 X 791 Y 48 X -1094 Y f 6 lw 0 0 0.933333 c 0.49 0.6 0.82 c 0 0 0.933333 c 238 206 m 48 X 4 Y 48 X -2 Y 48 X -1 Y 191 X 1 Y 240 X 1 Y
 192 X 1 Y 191 X 1 Y 96 X 1 Y 96 X 1 Y 48 X 1 Y 48 X 2 Y 48 X 1 Y 47 X 2 Y 48 X 3 Y 48 X 3 Y 48 X 4 Y 48 X 5 Y 48 X 9 Y 48 X 12 Y 48 X 21 Y 48 X 41 Y 48 X 76 Y 48 X 112 Y 47 X 791 Y 48 X -1094 Y s 1 0 0 c black 3 lw 1 0 0 c 2141 216 m -15 -14 d s
 2093 217 m -15 -15 d s 2038 210 m -8 -8 d s 1989 209 m -7 -7 d s 1939 207 m -5 -5 d s 1889 205 m -3 -3 d s 1842 206 m -4 -4 d s 1791 204 m -1 -2 d s 1746 206 m -5 -4 d s 1697 205 m -4 -3 d s 1649 206 m -4 -4 d s 1600 205 m -3 -3 d s 1552 205 m -3 -3
 d s 1505 206 m -4 -4 d s 1458 207 m -5 -5 d s 1408 205 m -3 -3 d s 1359 205 m -2 -3 d s 1313 207 m -5 -5 d s 1265 206 m -5 -4 d s 1219 209 m -7 -7 d s 1171 209 m -7 -7 d s 1124 210 m -8 -8 d s 1075 209 m -7 -7 d s 1029 212 m -9 -10 d s 981 211 m -9
 -9 d s 935 214 m -11 -12 d s 886 213 m -10 -11 d s 840 214 m -13 -12 d s 795 217 m -16 -15 d s 748 219 m -17 -17 d s 698 217 m -15 -15 d s 652 219 m -17 -17 d s 608 223 m -21 -21 d s 570 233 m -31 -31 d s 526 237 m -35 -35 d s 487 246 m -44 -44 d s
 452 260 m -58 -58 d s 430 285 m -84 -83 d s 392 295 m -94 -93 d s 382 334 m -132 -132 d s 382 382 m -144 -144 d s 351 400 m -113 -114 d s 334 430 m -96 -96 d s 334 478 m -96 -96 d s 334 526 m -96 -95 d s 334 574 m -96 -95 d s 334 623 m -96 -96 d s
 334 671 m -96 -96 d s 321 706 m -83 -83 d s 286 719 m -48 -48 d s 286 767 m -48 -48 d s 286 815 m -48 -48 d s 286 863 m -48 -48 d s 286 911 m -48 -48 d s 286 959 m -48 -47 d s 286 1008 m -48 -48 d s 286 1056 m -48 -48 d s 286 1104 m -48 -48 d s 286
 1152 m -48 -48 d s 286 1200 m -48 -48 d s 252 1214 m -14 -14 d s 6 lw 238 1214 m 48 X -508 Y 48 X -306 Y 48 X -105 Y 48 X -35 Y 48 X -14 Y 48 X -13 Y 47 X -10 Y 48 X -4 Y 48 X -2 Y 48 X 2 Y 48 X -2 Y 48 X -3 Y 48 X -1 Y 48 X 1 Y 48 X -3 Y 48 X 1 Y
 48 X -3 Y 47 X 1 Y 48 X -1 Y 96 X -3 Y 48 X 1 Y 48 X -2 Y 96 X 2 Y 48 X -1 Y 48 X -1 Y 95 X 1 Y 48 X -1 Y 48 X 1 Y 48 X -2 Y 48 X 2 Y 48 X -1 Y 48 X 2 Y 48 X 2 Y 48 X 1 Y 48 X 7 Y 47 X -1 Y 48 X -14 Y s black 3 lw 238 202 m 1916 X s 416 245 m -43 Y
 s 465 223 m -21 Y s 513 223 m -21 Y s 561 223 m -21 Y s 610 245 m -43 Y s 658 223 m -21 Y s 706 223 m -21 Y s 754 223 m -21 Y s 803 245 m -43 Y s 851 223 m -21 Y s 899 223 m -21 Y s 947 223 m -21 Y s 996 245 m -43 Y s 1044 223 m -21 Y s 1092 223 m
 -21 Y s 1141 223 m -21 Y s 1189 245 m -43 Y s 1237 223 m -21 Y s 1285 223 m -21 Y s 1334 223 m -21 Y s 1382 245 m -43 Y s 1430 223 m -21 Y s 1478 223 m -21 Y s 1527 223 m -21 Y s 1575 245 m -43 Y s 1623 223 m -21 Y s 1672 223 m -21 Y s 1720 223 m
 -21 Y s 1768 245 m -43 Y s 1816 223 m -21 Y s 1865 223 m -21 Y s 1913 223 m -21 Y s 1961 245 m -43 Y s 416 245 m -43 Y s 368 223 m -21 Y s 320 223 m -21 Y s 272 223 m -21 Y s 1961 245 m -43 Y s 2010 223 m -21 Y s 2058 223 m -21 Y s 2106 223 m -21 Y
 s 238 1515 m 1916 X s 416 1473 m 42 Y s 465 1494 m 21 Y s 513 1494 m 21 Y s 561 1494 m 21 Y s 610 1473 m 42 Y s 658 1494 m 21 Y s 706 1494 m 21 Y s 754 1494 m 21 Y s 803 1473 m 42 Y s 851 1494 m 21 Y s 899 1494 m 21 Y s 947 1494 m 21 Y s 996 1473 m
 42 Y s 1044 1494 m 21 Y s 1092 1494 m 21 Y s 1141 1494 m 21 Y s 1189 1473 m 42 Y s 1237 1494 m 21 Y s 1285 1494 m 21 Y s 1334 1494 m 21 Y s 1382 1473 m 42 Y s 1430 1494 m 21 Y s 1478 1494 m 21 Y s 1527 1494 m 21 Y s 1575 1473 m 42 Y s 1623 1494 m 21
 Y s 1672 1494 m 21 Y s 1720 1494 m 21 Y s 1768 1473 m 42 Y s 1816 1494 m 21 Y s 1865 1494 m 21 Y s 1913 1494 m 21 Y s 1961 1473 m 42 Y s 416 1473 m 42 Y s 368 1494 m 21 Y s 320 1494 m 21 Y s 272 1494 m 21 Y s 1961 1473 m 42 Y s 2010 1494 m 21 Y s
 2058 1494 m 21 Y s 2106 1494 m 21 Y s 238 202 m 1313 Y s 291 202 m -53 X s 265 257 m -27 X s 265 312 m -27 X s 265 366 m -27 X s 291 421 m -53 X s 265 476 m -27 X s 265 531 m -27 X s 265 585 m -27 X s 291 640 m -53 X s 265 695 m -27 X s 265 750 m
 -27 X s 265 805 m -27 X s 291 859 m -53 X s 265 914 m -27 X s 265 969 m -27 X s 265 1024 m -27 X s 291 1078 m -53 X s 265 1133 m -27 X s 265 1188 m -27 X s 265 1243 m -27 X s 291 1298 m -53 X s 291 1298 m -53 X s 265 1352 m -27 X s 265 1407 m -27 X
 s 265 1462 m -27 X s 2154 202 m 1313 Y s 2101 202 m 53 X s 2128 257 m 26 X s 2128 312 m 26 X s 2128 366 m 26 X s 2101 421 m 53 X s 2128 476 m 26 X s 2128 531 m 26 X s 2128 585 m 26 X s 2101 640 m 53 X s 2128 695 m 26 X s 2128 750 m 26 X s 2128 805 m
 26 X s 2101 859 m 53 X s 2128 914 m 26 X s 2128 969 m 26 X s 2128 1024 m 26 X s 2101 1078 m 53 X s 2128 1133 m 26 X s 2128 1188 m 26 X s 2128 1243 m 26 X s 2101 1298 m 53 X s 2101 1298 m 53 X s 2128 1352 m 26 X s 2128 1407 m 26 X s 2128 1462 m 26 X
 s
 gsave  2268 1684 0 0 C 2211.02 193.628 t 90 r /Helvetica-Bold findfont 45.506 sf 0 0 m (U/O\255flow \(S,B\): \(0.0, 0.0\)% / \(0.0, 0.0\)%) show NC gr  0.490196 0.545098 0.615686 c 0.364706 0.419608 0.490196 c 1486 100 23 1575 bf 0.490196 0.545098
 0.615686 c 23 1575 m 1486 X s 1509 1575 m 100 Y s 1509 1675 m -1486 X s 23 1675 m -100 Y s 1 1 1 c black 1 1 1 c
 gsave  2268 1684 0 0 C 72.0512 1604.09 t 0 r /Helvetica-Bold findfont 79.6355 sf 0 0 m (TMVA response for classifier: BDTG) show NC gr 
 gr  gr showpage
end
%%EOF
