%!PS-Adobe-2.0 EPSF-2.0
%%BoundingBox:  0 0 567 421
%%Title: dataset/plots/mva_bkg_SIG_BDTG.eps: TMVA response for class bkg_SIG BDTG
%%Creator: ROOT Version 6.18/00
%%CreationDate: Fri Aug  9 14:12:16 2019
%%DocumentNeededResources: ProcSet (FontSetInit)
%%EndComments
%%BeginProlog
80 dict begin
/s {stroke} def /l {lineto} def /m {moveto} def /t {translate} def
/r {rotate} def /rl {roll}  def /R {repeat} def
/d {rlineto} def /rm {rmoveto} def /gr {grestore} def /f {eofill} def
/c {setrgbcolor} def /black {0 setgray} def /sd {setdash} def
/cl {closepath} def /sf {scalefont setfont} def /lw {setlinewidth} def
/box {m dup 0 exch d exch 0 d 0 exch neg d cl} def
/NC{systemdict begin initclip end}def/C{NC box clip newpath}def
/bl {box s} def /bf {gsave box gsave f grestore 1 lw [] 0 sd s grestore} def /Y { 0 exch d} def /X { 0 d} def 
/K {{pop pop 0 moveto} exch kshow} bind def
/ita {/ang 15 def gsave [1 0 ang dup sin exch cos div 1 0 0] concat} def 
/mp {newpath /y exch def /x exch def} def
/side {[w .77 mul w .23 mul] .385 w mul sd w 0 l currentpoint t -144 r} def
/mr {mp x y w2 0 360 arc} def /m24 {mr s} def /m20 {mr f} def
/mb {mp x y w2 add m w2 neg 0 d 0 w neg d w 0 d 0 w d cl} def
/mt {mp x y w2 add m w2 neg w neg d w 0 d cl} def
/w4 {w 4 div} def
/w6 {w 6 div} def
/w8 {w 8 div} def
/m21 {mb f} def /m25 {mb s} def /m22 {mt f} def /m26{mt s} def
/m23 {mp x y w2 sub m w2 w d w neg 0 d cl f} def
/m27 {mp x y w2 add m w3 neg w2 neg d w3 w2 neg d w3 w2 d cl s} def
/m28 {mp x w2 sub y w2 sub w3 add m w3 0 d  0 w3 neg d w3 0 d 0 w3 d w3 0 d  0 w3 d w3 neg 0 d 0 w3 d w3 neg 0 d 0 w3 neg d w3 neg 0 d cl s } def
/m29 {mp gsave x w2 sub y w2 add w3 sub m currentpoint t 4 {side} repeat cl fill gr} def
/m30 {mp gsave x w2 sub y w2 add w3 sub m currentpoint t 4 {side} repeat cl s gr} def
/m31 {mp x y w2 sub m 0 w d x w2 sub y m w 0 d x w2 sub y w2 add m w w neg d x w2 sub y w2 sub m w w d s} def
/m32 {mp x y w2 sub m w2 w d w neg 0 d cl s} def
/m33 {mp x y w2 add m w3 neg w2 neg d w3 w2 neg d w3 w2 d cl f} def
/m34 {mp x w2 sub y w2 sub w3 add m w3 0 d  0 w3 neg d w3 0 d 0 w3 d w3 0 d  0 w3 d w3 neg 0 d 0 w3 d w3 neg 0 d 0 w3 neg d w3 neg 0 d cl f } def
/m35 {mp x y w2 add m w2 neg w2 neg d w2 w2 neg d w2 w2 d w2 neg w2 d x y w2 sub m 0 w d x w2 sub y m w 0 d s} def
/m36 {mb x w2 sub y w2 add m w w neg d x w2 sub y w2 sub m w w d s} def
/m37 {mp x y m w4 neg w2 d w4 neg w2 neg d w2 0 d  w4 neg w2 neg d w2 0 d w4 neg w2 d w2 0 d w4 neg w2 d w4 neg w2 neg d cl s} def
/m38 {mp x w4 sub y w2 add m w4 neg w4 neg d 0 w2 neg d w4 w4 neg d w2 0 d w4 w4 d 0 w2 d w4 neg w4 d w2 neg 0 d x y w2 sub m 0 w d x w2 sub y m w 0 d cl s} def
/m39 {mp x y m w4 neg w2 d w4 neg w2 neg d w2 0 d  w4 neg w2 neg d w2 0 d w4 neg w2 d w2 0 d w4 neg w2 d w4 neg w2 neg d cl f} def
/m40 {mp x y m w4 w2 d w4 w4 neg d w2 neg w4 neg d w2 w4 neg d w4 neg w4 neg d w4 neg w2 d w4 neg w2 neg d w4 neg w4 d w2 w4 d w2 neg w4 d w4 w4 d w4 w2 neg d cl s} def
/m41 {mp x y m w4 w2 d w4 w4 neg d w2 neg w4 neg d w2 w4 neg d w4 neg w4 neg d w4 neg w2 d w4 neg w2 neg d w4 neg w4 d w2 w4 d w2 neg w4 d w4 w4 d w4 w2 neg d cl f} def
/m42 {mp x y w2 add m w8 neg w2 -3 4 div mul d w2 -3 4 div mul w8 neg d w2 3 4 div mul w8 neg d w8 w2 -3 4 div mul d w8 w2 3 4 div mul d w2 3 4 div mul w8 d w2 -3 4 div mul w8 d w8 neg w2 3 4 div mul d cl s} def
/m43 {mp x y w2 add m w8 neg w2 -3 4 div mul d w2 -3 4 div mul w8 neg d w2 3 4 div mul w8 neg d w8 w2 -3 4 div mul d w8 w2 3 4 div mul d w2 3 4 div mul w8 d w2 -3 4 div mul w8 d w8 neg w2 3 4 div mul d cl f} def
/m44 {mp x y m w6 neg w2 d w2 2 3 div mul 0 d w6 neg w2 neg d w2 w6 d 0 w2 -2 3 div mul d w2 neg w6 d w6 w2 neg d w2 -2 3 div mul 0 d w6 w2 d w2 neg w6 neg d 0 w2 2 3 div mul d w2 w6 neg d cl s} def
/m45 {mp x y m w6 neg w2 d w2 2 3 div mul 0 d w6 neg w2 neg d w2 w6 d 0 w2 -2 3 div mul d w2 neg w6 d w6 w2 neg d w2 -2 3 div mul 0 d w6 w2 d w2 neg w6 neg d 0 w2 2 3 div mul d w2 w6 neg d cl f} def
/m46 {mp x y w4 add m w4 neg w4 d w4 neg w4 neg d  w4 w4 neg d w4 neg w4 neg d w4 w4 neg d w4 w4 d w4 w4 neg d w4 w4 d w4 neg w4 d w4 w4 d w4 neg w4 d w4 neg w4 neg d cl s} def
/m47 {mp x y w4 add m w4 neg w4 d w4 neg w4 neg d w4 w4 neg d w4 neg w4 neg d  w4 w4 neg d w4 w4 d w4 w4 neg d w4 w4 d w4 neg w4 d w4 w4 d w4 neg w4 d w4 neg w4 neg d cl f} def
/m48 {mp x y w4 add m w4 neg w4 d w4 neg w4 neg d w4 w4 neg d  w4 neg w4 neg d w4 w4 neg d w4 w4 d w4 w4 neg d w4 w4 d w4 neg w4 d w4 w4 d w4 neg w4 d w4 neg w4 neg d  w4 w4 neg d w4 neg w4 neg d w4 neg w4 d w4 w4 d cl f} def
/m49 {mp x w2 sub w3 add y w2 sub w3 add m  0 w3 neg d w3 0 d 0 w3 d w3 0 d 0 w3 d w3 neg 0 d 0 w3 d w3 neg 0 d 0 w3 neg d w3 neg 0 d 0 w3 neg d w3 0 d 0 w3 d w3 0 d 0 w3 neg d w3 neg 0 d cl f } def
/m2 {mp x y w2 sub m 0 w d x w2 sub y m w 0 d s} def
/m5 {mp x w2 sub y w2 sub m w w d x w2 sub y w2 add m w w neg d s} def
%%IncludeResource: ProcSet (FontSetInit)
%%IncludeResource: font Times-Roman
%%IncludeResource: font Times-Italic
%%IncludeResource: font Times-Bold
%%IncludeResource: font Times-BoldItalic
%%IncludeResource: font Helvetica
%%IncludeResource: font Helvetica-Oblique
%%IncludeResource: font Helvetica-Bold
%%IncludeResource: font Helvetica-BoldOblique
%%IncludeResource: font Courier
%%IncludeResource: font Courier-Oblique
%%IncludeResource: font Courier-Bold
%%IncludeResource: font Courier-BoldOblique
%%IncludeResource: font Symbol
%%IncludeResource: font ZapfDingbats
/reEncode {exch findfont dup length dict begin {1 index /FID eq  {pop pop} {def} ifelse } forall /Encoding exch def currentdict end dup /FontName get exch definefont pop } def [/Times-Bold /Times-Italic /Times-BoldItalic /Helvetica /Helvetica-Oblique
 /Helvetica-Bold /Helvetica-BoldOblique /Courier /Courier-Oblique /Courier-Bold /Courier-BoldOblique /Times-Roman /AvantGarde-Book /AvantGarde-BookOblique /AvantGarde-Demi /AvantGarde-DemiOblique /Bookman-Demi /Bookman-DemiItalic /Bookman-Light
 /Bookman-LightItalic /Helvetica-Narrow /Helvetica-Narrow-Bold /Helvetica-Narrow-BoldOblique /Helvetica-Narrow-Oblique /NewCenturySchlbk-Roman /NewCenturySchlbk-Bold /NewCenturySchlbk-BoldItalic /NewCenturySchlbk-Italic /Palatino-Bold
 /Palatino-BoldItalic /Palatino-Italic /Palatino-Roman ] {ISOLatin1Encoding reEncode } forall
%%EndProlog
%%BeginSetup
%%EndSetup
newpath  gsave  .25 .25 scale  gsave  0 0 t 0.490196 0.545098 0.615686 c[  ] 0 sd 3 lw 0.941176 0.941176 0.941176 c 2268 1684 0 0 bf black 1 1 0.992157 c 1916 1313 238 202 bf black 1916 1313 238 202 bl 1 1 0.992157 c 1916 1313 238 202 bf black 1916
 1313 238 202 bl 238 202 m 1916 X s 238 245 m -43 Y s 276 223 m -21 Y s 315 223 m -21 Y s 353 223 m -21 Y s 391 223 m -21 Y s 430 245 m -43 Y s 468 223 m -21 Y s 506 223 m -21 Y s 545 223 m -21 Y s 583 223 m -21 Y s 621 245 m -43 Y s 660 223 m -21 Y
 s 698 223 m -21 Y s 736 223 m -21 Y s 775 223 m -21 Y s 813 245 m -43 Y s 851 223 m -21 Y s 890 223 m -21 Y s 928 223 m -21 Y s 966 223 m -21 Y s 1005 245 m -43 Y s 1043 223 m -21 Y s 1081 223 m -21 Y s 1120 223 m -21 Y s 1158 223 m -21 Y s 1196 245
 m -43 Y s 1235 223 m -21 Y s 1273 223 m -21 Y s 1311 223 m -21 Y s 1350 223 m -21 Y s 1388 245 m -43 Y s 1426 223 m -21 Y s 1464 223 m -21 Y s 1503 223 m -21 Y s 1541 223 m -21 Y s 1579 245 m -43 Y s 1618 223 m -21 Y s 1656 223 m -21 Y s 1694 223 m
 -21 Y s 1733 223 m -21 Y s 1771 245 m -43 Y s 1809 223 m -21 Y s 1848 223 m -21 Y s 1886 223 m -21 Y s 1924 223 m -21 Y s 1963 245 m -43 Y s 2001 223 m -21 Y s 2039 223 m -21 Y s 2078 223 m -21 Y s 2116 223 m -21 Y s 2154 245 m -43 Y s
 gsave  2268 1684 0 0 C 216.154 128.934 t 0 r /Helvetica-Bold findfont 64.4669 sf 0 0 m (0) show NC gr 
 gsave  2268 1684 0 0 C 386.801 128.934 t 0 r /Helvetica-Bold findfont 64.4669 sf 0 0 m (0.1) show NC gr 
 gsave  2268 1684 0 0 C 572.617 128.934 t 0 r /Helvetica-Bold findfont 64.4669 sf 0 0 m (0.2) show NC gr 
 gsave  2268 1684 0 0 C 766.018 128.934 t 0 r /Helvetica-Bold findfont 64.4669 sf 0 0 m (0.3) show NC gr 
 gsave  2268 1684 0 0 C 955.626 128.934 t 0 r /Helvetica-Bold findfont 64.4669 sf 0 0 m (0.4) show NC gr 
 gsave  2268 1684 0 0 C 1149.03 128.934 t 0 r /Helvetica-Bold findfont 64.4669 sf 0 0 m (0.5) show NC gr 
 gsave  2268 1684 0 0 C 1338.64 128.934 t 0 r /Helvetica-Bold findfont 64.4669 sf 0 0 m (0.6) show NC gr 
 gsave  2268 1684 0 0 C 1532.04 128.934 t 0 r /Helvetica-Bold findfont 64.4669 sf 0 0 m (0.7) show NC gr 
 gsave  2268 1684 0 0 C 1725.44 128.934 t 0 r /Helvetica-Bold findfont 64.4669 sf 0 0 m (0.8) show NC gr 
 gsave  2268 1684 0 0 C 1915.04 128.934 t 0 r /Helvetica-Bold findfont 64.4669 sf 0 0 m (0.9) show NC gr 
 gsave  2268 1684 0 0 C 2138.78 128.934 t 0 r /Helvetica-Bold findfont 64.4669 sf 0 0 m (1) show NC gr 
 gsave  2268 1684 0 0 C 1171.78 30.3373 t 0 r /Helvetica-Bold findfont 72.0512 sf 0 0 m (BDTG response for bkg_SIG) show NC gr  238 1515 m 1916 X s 238 1473 m 42 Y s 276 1494 m 21 Y s 315 1494 m 21 Y s 353 1494 m 21 Y s 391 1494 m 21 Y s 430 1473 m
 42 Y s 468 1494 m 21 Y s 506 1494 m 21 Y s 545 1494 m 21 Y s 583 1494 m 21 Y s 621 1473 m 42 Y s 660 1494 m 21 Y s 698 1494 m 21 Y s 736 1494 m 21 Y s 775 1494 m 21 Y s 813 1473 m 42 Y s 851 1494 m 21 Y s 890 1494 m 21 Y s 928 1494 m 21 Y s 966 1494
 m 21 Y s 1005 1473 m 42 Y s 1043 1494 m 21 Y s 1081 1494 m 21 Y s 1120 1494 m 21 Y s 1158 1494 m 21 Y s 1196 1473 m 42 Y s 1235 1494 m 21 Y s 1273 1494 m 21 Y s 1311 1494 m 21 Y s 1350 1494 m 21 Y s 1388 1473 m 42 Y s 1426 1494 m 21 Y s 1464 1494 m
 21 Y s 1503 1494 m 21 Y s 1541 1494 m 21 Y s 1579 1473 m 42 Y s 1618 1494 m 21 Y s 1656 1494 m 21 Y s 1694 1494 m 21 Y s 1733 1494 m 21 Y s 1771 1473 m 42 Y s 1809 1494 m 21 Y s 1848 1494 m 21 Y s 1886 1494 m 21 Y s 1924 1494 m 21 Y s 1963 1473 m 42
 Y s 2001 1494 m 21 Y s 2039 1494 m 21 Y s 2078 1494 m 21 Y s 2116 1494 m 21 Y s 2154 1473 m 42 Y s 238 202 m 1313 Y s 291 202 m -53 X s 265 229 m -27 X s 265 256 m -27 X s 265 283 m -27 X s 265 311 m -27 X s 291 338 m -53 X s 265 365 m -27 X s 265
 392 m -27 X s 265 419 m -27 X s 265 446 m -27 X s 291 473 m -53 X s 265 501 m -27 X s 265 528 m -27 X s 265 555 m -27 X s 265 582 m -27 X s 291 609 m -53 X s 265 636 m -27 X s 265 663 m -27 X s 265 690 m -27 X s 265 718 m -27 X s 291 745 m -53 X s
 265 772 m -27 X s 265 799 m -27 X s 265 826 m -27 X s 265 853 m -27 X s 291 880 m -53 X s 265 908 m -27 X s 265 935 m -27 X s 265 962 m -27 X s 265 989 m -27 X s 291 1016 m -53 X s 265 1043 m -27 X s 265 1070 m -27 X s 265 1097 m -27 X s 265 1125 m
 -27 X s 291 1152 m -53 X s 265 1179 m -27 X s 265 1206 m -27 X s 265 1233 m -27 X s 265 1260 m -27 X s 291 1287 m -53 X s 265 1315 m -27 X s 265 1342 m -27 X s 265 1369 m -27 X s 265 1396 m -27 X s 291 1423 m -53 X s 291 1423 m -53 X s 265 1450 m
 -27 X s 265 1477 m -27 X s 265 1505 m -27 X s
 gsave  2268 1684 0 0 C 174.44 178.232 t 0 r /Helvetica-Bold findfont 64.4669 sf 0 0 m (0) show NC gr 
 gsave  2268 1684 0 0 C 182.024 314.75 t 0 r /Helvetica-Bold findfont 64.4669 sf 0 0 m (1) show NC gr 
 gsave  2268 1684 0 0 C 174.44 447.476 t 0 r /Helvetica-Bold findfont 64.4669 sf 0 0 m (2) show NC gr 
 gsave  2268 1684 0 0 C 174.44 583.994 t 0 r /Helvetica-Bold findfont 64.4669 sf 0 0 m (3) show NC gr 
 gsave  2268 1684 0 0 C 174.44 720.512 t 0 r /Helvetica-Bold findfont 64.4669 sf 0 0 m (4) show NC gr 
 gsave  2268 1684 0 0 C 174.44 857.03 t 0 r /Helvetica-Bold findfont 64.4669 sf 0 0 m (5) show NC gr 
 gsave  2268 1684 0 0 C 174.44 989.756 t 0 r /Helvetica-Bold findfont 64.4669 sf 0 0 m (6) show NC gr 
 gsave  2268 1684 0 0 C 174.44 1126.27 t 0 r /Helvetica-Bold findfont 64.4669 sf 0 0 m (7) show NC gr 
 gsave  2268 1684 0 0 C 174.44 1262.79 t 0 r /Helvetica-Bold findfont 64.4669 sf 0 0 m (8) show NC gr 
 gsave  2268 1684 0 0 C 174.44 1399.31 t 0 r /Helvetica-Bold findfont 64.4669 sf 0 0 m (9) show NC gr 
 gsave  2268 1684 0 0 C 64.4669 1433.44 t 90 r /Helvetica-Bold findfont 72.0512 sf 0 0 m (dx) show NC gr 
 gsave  2268 1684 0 0 C 30.3373 1422.06 t 90 r /Helvetica-Bold findfont 45.506 sf 0 0 m ( ) show NC gr 
 gsave  2268 1684 0 0 C 64.4669 1399.31 t 90 r /Helvetica-Bold findfont 72.0512 sf 0 0 m (/) show NC gr 
 gsave  2268 1684 0 0 C 30.3373 1387.93 t 90 r /Helvetica-Bold findfont 45.506 sf 0 0 m ( ) show NC gr 
 gsave  2268 1684 0 0 C 60.6747 1111.11 t 90 r /Helvetica-Bold findfont 72.0512 sf 0 0 m (\(1/N\) dN) show NC gr  2154 202 m 1313 Y s 2101 202 m 53 X s 2128 229 m 26 X s 2128 256 m 26 X s 2128 283 m 26 X s 2128 311 m 26 X s 2101 338 m 53 X s 2128 365
 m 26 X s 2128 392 m 26 X s 2128 419 m 26 X s 2128 446 m 26 X s 2101 473 m 53 X s 2128 501 m 26 X s 2128 528 m 26 X s 2128 555 m 26 X s 2128 582 m 26 X s 2101 609 m 53 X s 2128 636 m 26 X s 2128 663 m 26 X s 2128 690 m 26 X s 2128 718 m 26 X s 2101
 745 m 53 X s 2128 772 m 26 X s 2128 799 m 26 X s 2128 826 m 26 X s 2128 853 m 26 X s 2101 880 m 53 X s 2128 908 m 26 X s 2128 935 m 26 X s 2128 962 m 26 X s 2128 989 m 26 X s 2101 1016 m 53 X s 2128 1043 m 26 X s 2128 1070 m 26 X s 2128 1097 m 26 X
 s 2128 1125 m 26 X s 2101 1152 m 53 X s 2128 1179 m 26 X s 2128 1206 m 26 X s 2128 1233 m 26 X s 2128 1260 m 26 X s 2101 1287 m 53 X s 2128 1315 m 26 X s 2128 1342 m 26 X s 2128 1369 m 26 X s 2128 1396 m 26 X s 2101 1423 m 53 X s 2101 1423 m 53 X s
 2128 1450 m 26 X s 2128 1477 m 26 X s 2128 1505 m 26 X s 0.490196 0.545098 0.615686 c 1 1 1 c 0.490196 0.545098 0.615686 c 680 202 238 1313 bl 238 1313 m 680 X s 918 1313 m 202 Y s 918 1515 m -680 X s 238 1515 m -202 Y s black
 gsave  2268 1684 0 0 C 439.892 1467.57 t 0 r /Helvetica-Bold findfont 56.8825 sf 0 0 m (Signal) show NC gr  0.49 0.6 0.82 c 269 1458 m 143 X 47 Y -143 X f 0 0 1 c 6 lw 269 1505 m 143 X s 269 1458 m 143 X s 412 1458 m 47 Y s 269 1458 m 47 Y s black
 gsave  2268 1684 0 0 C 439.892 1399.31 t 0 r /Helvetica-Bold findfont 56.8825 sf 0 0 m (bkg_NOSIG) show NC gr  1 0 0 c 3 lw 412 1422 m -31 -31 d s 380 1438 m -48 -47 d s 331 1438 m -47 -47 d s 283 1438 m -14 -15 d s 6 lw 0 0 1 c 1 0 0 c 269 1438 m
 143 X s 269 1391 m 143 X s 412 1391 m 47 Y s 269 1391 m 47 Y s black
 gsave  2268 1684 0 0 C 439.892 1334.84 t 0 r /Helvetica-Bold findfont 56.8825 sf 0 0 m (bkg_SIG) show NC gr  0 1 0 c 3 lw 1 lw << /PatternType 1 /PaintType 2 /TilingType 1 /BBox [ 0 0 96 16 ] /XStep 96 /YStep 16 /PaintProc { begin gsave [1 3] 0 sd 2
 13 m 98 13 l s 0 9 m 96 9 l s 2 5 m 98 5 l s 0 1 m 96 1 l s gr end } >> [ 2.0 0 0 2.0 0 0 ] makepattern /P03 exch def /cs {[/Pattern /DeviceRGB] setcolorspace} def /FA {f [/DeviceRGB] setcolorspace} def cs 0 1 0 P03 setcolor 269 1323 m 143 X 48 Y
 -143 X FA 6 lw 0 1 0 c 269 1371 m 143 X s 269 1323 m 143 X s 412 1323 m 48 Y s 269 1323 m 48 Y s 0 0 1 c 0.49 0.6 0.82 c black 3 lw 0.49 0.6 0.82 c 2154 202 m -1916 X 3 Y 48 X 17 Y 48 X 85 Y 48 X 141 Y 47 X 118 Y 48 X 45 Y 48 X 87 Y 48 X 24 Y 48 X
 -46 Y 48 X -59 Y 48 X -18 Y 48 X -34 Y 48 X -56 Y 48 X -76 Y 48 X -28 Y 48 X -23 Y 48 X -27 Y 47 X -28 Y 48 X -29 Y 48 X -14 Y 48 X -13 Y 48 X -18 Y 48 X -17 Y 48 X -9 Y 48 X -11 Y 48 X -5 Y 48 X 1 Y 96 X -3 Y 48 X -3 Y 47 X -3 Y 96 X -1 Y 383 X f 6
 lw 0 0 1 c 0.49 0.6 0.82 c 0 0 1 c 238 205 m 48 X 17 Y 48 X 85 Y 48 X 141 Y 47 X 118 Y 48 X 45 Y 48 X 87 Y 48 X 24 Y 48 X -46 Y 48 X -59 Y 48 X -18 Y 48 X -34 Y 48 X -56 Y 48 X -76 Y 48 X -28 Y 48 X -23 Y 48 X -27 Y 47 X -28 Y 48 X -29 Y 48 X -14 Y
 48 X -13 Y 48 X -18 Y 48 X -17 Y 48 X -9 Y 48 X -11 Y 48 X -5 Y 48 X 1 Y 96 X -3 Y 48 X -3 Y 47 X -3 Y 96 X -1 Y 383 X s 1 0 0 c black 3 lw 1 0 0 c 2126 202 m s 2078 202 m s 2030 202 m s 1982 202 m s 1934 202 m cl s 1886 202 m s 1838 202 m s 1790
 202 m s 1742 203 m -1 -1 d s 1695 203 m -2 -1 d s 1648 204 m -3 -2 d s 1601 206 m -4 -4 d s 1554 207 m -5 -5 d s 1507 208 m -6 -6 d s 1461 210 m -8 -8 d s 1416 214 m -11 -12 d s 1371 217 m -14 -15 d s 1327 220 m -19 -18 d s 1282 224 m -22 -22 d s
 1239 229 m -27 -27 d s 1196 233 m -32 -31 d s 1148 234 m -32 -32 d s 1105 239 m -37 -37 d s 1063 245 m -43 -43 d s 1022 253 m -50 -51 d s 982 261 m -58 -59 d s 944 271 m -68 -69 d s 909 283 m -82 -81 d s 861 283 m -82 -81 d s 828 298 m -97 -96 d s
 796 315 m -113 -113 d s 765 332 m -130 -130 d s 721 336 m -134 -134 d s 698 361 m -159 -159 d s 669 380 m -178 -178 d s 629 389 m -186 -187 d s 616 424 m -222 -222 d s 573 429 m -227 -227 d s 564 467 m -266 -265 d s 525 477 m -275 -275 d s 518 518 m
 -280 -280 d s 477 525 m -239 -239 d s 477 574 m -239 -240 d s 435 579 m -197 -197 d s 429 622 m -191 -191 d s 428 669 m -190 -190 d s 382 670 m -144 -143 d s 382 718 m -144 -143 d s 382 766 m -144 -143 d s 382 814 m -144 -143 d s 334 815 m -96 -96 d
 s 334 863 m -96 -96 d s 334 911 m -96 -96 d s 334 959 m -96 -96 d s 334 1007 m -96 -95 d s 334 1055 m -96 -95 d s 323 1092 m -85 -84 d s 286 1103 m -48 -47 d s 286 1152 m -48 -48 d s 286 1200 m -48 -48 d s 286 1248 m -48 -48 d s 286 1296 m -48 -48 d
 s 238 1296 m s 6 lw 238 1296 m 48 X -204 Y 48 X -277 Y 48 X -146 Y 47 X -90 Y 48 X -61 Y 48 X -51 Y 48 X -43 Y 48 X -35 Y 48 X -28 Y 48 X -25 Y 48 X -21 Y 48 X -17 Y 48 X -15 Y 48 X -12 Y 48 X -10 Y 48 X -8 Y 47 X -8 Y 48 X -6 Y 48 X -6 Y 48 X -4 Y
 48 X -5 Y 48 X -4 Y 48 X -3 Y 48 X -3 Y 48 X -4 Y 48 X -2 Y 48 X -1 Y 48 X -1 Y 48 X -2 Y 47 X -1 Y 96 X -1 Y 383 X s 0 1 0 c black 3 lw 0 1 0 c cs 0 1 0 P03 setcolor 2154 202 m -1916 X 105 Y 48 X 40 Y 48 X -4 Y 48 X 17 Y 47 X 23 Y 48 X 25 Y 48 X 26
 Y 48 X 9 Y 48 X 9 Y 48 X 12 Y 48 X 2 Y 48 X -7 Y 48 X -2 Y 48 X -3 Y 48 X -8 Y 48 X -9 Y 48 X -9 Y 47 X -6 Y 48 X -9 Y 48 X -9 Y 48 X -16 Y 48 X -14 Y 48 X -15 Y 48 X -14 Y 48 X -20 Y 48 X -27 Y 48 X -22 Y 48 X -14 Y 48 X -10 Y 48 X -12 Y 47 X -15 Y
 48 X -12 Y 48 X -6 Y 48 X -3 Y 48 X -2 Y 287 X FA 6 lw 0 1 0 c 238 307 m 48 X 40 Y 48 X -4 Y 48 X 17 Y 47 X 23 Y 48 X 25 Y 48 X 26 Y 48 X 9 Y 48 X 9 Y 48 X 12 Y 48 X 2 Y 48 X -7 Y 48 X -2 Y 48 X -3 Y 48 X -8 Y 48 X -9 Y 48 X -9 Y 47 X -6 Y 48 X -9 Y
 48 X -9 Y 48 X -16 Y 48 X -14 Y 48 X -15 Y 48 X -14 Y 48 X -20 Y 48 X -27 Y 48 X -22 Y 48 X -14 Y 48 X -10 Y 48 X -12 Y 47 X -15 Y 48 X -12 Y 48 X -6 Y 48 X -3 Y 48 X -2 Y 287 X s black 3 lw 238 202 m 1916 X s 238 245 m -43 Y s 276 223 m -21 Y s 315
 223 m -21 Y s 353 223 m -21 Y s 391 223 m -21 Y s 430 245 m -43 Y s 468 223 m -21 Y s 506 223 m -21 Y s 545 223 m -21 Y s 583 223 m -21 Y s 621 245 m -43 Y s 660 223 m -21 Y s 698 223 m -21 Y s 736 223 m -21 Y s 775 223 m -21 Y s 813 245 m -43 Y s
 851 223 m -21 Y s 890 223 m -21 Y s 928 223 m -21 Y s 966 223 m -21 Y s 1005 245 m -43 Y s 1043 223 m -21 Y s 1081 223 m -21 Y s 1120 223 m -21 Y s 1158 223 m -21 Y s 1196 245 m -43 Y s 1235 223 m -21 Y s 1273 223 m -21 Y s 1311 223 m -21 Y s 1350
 223 m -21 Y s 1388 245 m -43 Y s 1426 223 m -21 Y s 1464 223 m -21 Y s 1503 223 m -21 Y s 1541 223 m -21 Y s 1579 245 m -43 Y s 1618 223 m -21 Y s 1656 223 m -21 Y s 1694 223 m -21 Y s 1733 223 m -21 Y s 1771 245 m -43 Y s 1809 223 m -21 Y s 1848
 223 m -21 Y s 1886 223 m -21 Y s 1924 223 m -21 Y s 1963 245 m -43 Y s 2001 223 m -21 Y s 2039 223 m -21 Y s 2078 223 m -21 Y s 2116 223 m -21 Y s 2154 245 m -43 Y s 238 1515 m 1916 X s 238 1473 m 42 Y s 276 1494 m 21 Y s 315 1494 m 21 Y s 353 1494
 m 21 Y s 391 1494 m 21 Y s 430 1473 m 42 Y s 468 1494 m 21 Y s 506 1494 m 21 Y s 545 1494 m 21 Y s 583 1494 m 21 Y s 621 1473 m 42 Y s 660 1494 m 21 Y s 698 1494 m 21 Y s 736 1494 m 21 Y s 775 1494 m 21 Y s 813 1473 m 42 Y s 851 1494 m 21 Y s 890
 1494 m 21 Y s 928 1494 m 21 Y s 966 1494 m 21 Y s 1005 1473 m 42 Y s 1043 1494 m 21 Y s 1081 1494 m 21 Y s 1120 1494 m 21 Y s 1158 1494 m 21 Y s 1196 1473 m 42 Y s 1235 1494 m 21 Y s 1273 1494 m 21 Y s 1311 1494 m 21 Y s 1350 1494 m 21 Y s 1388 1473
 m 42 Y s 1426 1494 m 21 Y s 1464 1494 m 21 Y s 1503 1494 m 21 Y s 1541 1494 m 21 Y s 1579 1473 m 42 Y s 1618 1494 m 21 Y s 1656 1494 m 21 Y s 1694 1494 m 21 Y s 1733 1494 m 21 Y s 1771 1473 m 42 Y s 1809 1494 m 21 Y s 1848 1494 m 21 Y s 1886 1494 m
 21 Y s 1924 1494 m 21 Y s 1963 1473 m 42 Y s 2001 1494 m 21 Y s 2039 1494 m 21 Y s 2078 1494 m 21 Y s 2116 1494 m 21 Y s 2154 1473 m 42 Y s 238 202 m 1313 Y s 291 202 m -53 X s 265 229 m -27 X s 265 256 m -27 X s 265 283 m -27 X s 265 311 m -27 X s
 291 338 m -53 X s 265 365 m -27 X s 265 392 m -27 X s 265 419 m -27 X s 265 446 m -27 X s 291 473 m -53 X s 265 501 m -27 X s 265 528 m -27 X s 265 555 m -27 X s 265 582 m -27 X s 291 609 m -53 X s 265 636 m -27 X s 265 663 m -27 X s 265 690 m -27 X
 s 265 718 m -27 X s 291 745 m -53 X s 265 772 m -27 X s 265 799 m -27 X s 265 826 m -27 X s 265 853 m -27 X s 291 880 m -53 X s 265 908 m -27 X s 265 935 m -27 X s 265 962 m -27 X s 265 989 m -27 X s 291 1016 m -53 X s 265 1043 m -27 X s 265 1070 m
 -27 X s 265 1097 m -27 X s 265 1125 m -27 X s 291 1152 m -53 X s 265 1179 m -27 X s 265 1206 m -27 X s 265 1233 m -27 X s 265 1260 m -27 X s 291 1287 m -53 X s 265 1315 m -27 X s 265 1342 m -27 X s 265 1369 m -27 X s 265 1396 m -27 X s 291 1423 m
 -53 X s 291 1423 m -53 X s 265 1450 m -27 X s 265 1477 m -27 X s 265 1505 m -27 X s 2154 202 m 1313 Y s 2101 202 m 53 X s 2128 229 m 26 X s 2128 256 m 26 X s 2128 283 m 26 X s 2128 311 m 26 X s 2101 338 m 53 X s 2128 365 m 26 X s 2128 392 m 26 X s
 2128 419 m 26 X s 2128 446 m 26 X s 2101 473 m 53 X s 2128 501 m 26 X s 2128 528 m 26 X s 2128 555 m 26 X s 2128 582 m 26 X s 2101 609 m 53 X s 2128 636 m 26 X s 2128 663 m 26 X s 2128 690 m 26 X s 2128 718 m 26 X s 2101 745 m 53 X s 2128 772 m 26 X
 s 2128 799 m 26 X s 2128 826 m 26 X s 2128 853 m 26 X s 2101 880 m 53 X s 2128 908 m 26 X s 2128 935 m 26 X s 2128 962 m 26 X s 2128 989 m 26 X s 2101 1016 m 53 X s 2128 1043 m 26 X s 2128 1070 m 26 X s 2128 1097 m 26 X s 2128 1125 m 26 X s 2101
 1152 m 53 X s 2128 1179 m 26 X s 2128 1206 m 26 X s 2128 1233 m 26 X s 2128 1260 m 26 X s 2101 1287 m 53 X s 2128 1315 m 26 X s 2128 1342 m 26 X s 2128 1369 m 26 X s 2128 1396 m 26 X s 2101 1423 m 53 X s 2101 1423 m 53 X s 2128 1450 m 26 X s 2128
 1477 m 26 X s 2128 1505 m 26 X s 0.490196 0.545098 0.615686 c 0.364706 0.419608 0.490196 c 1486 100 23 1575 bf 0.490196 0.545098 0.615686 c 23 1575 m 1486 X s 1509 1575 m 100 Y s 1509 1675 m -1486 X s 23 1675 m -100 Y s 1 1 1 c black 1 1 1 c
 gsave  2268 1684 0 0 C 72.0512 1604.09 t 0 r /Helvetica-Bold findfont 79.6355 sf 0 0 m (TMVA response for classifier: BDTG) show NC gr 
 gr  gr showpage
end
%%EOF
