%!PS-Adobe-2.0 EPSF-2.0
%%BoundingBox:  0 0 567 421
%%Title: dataset/plots/overtrain_BDTG.eps: TMVA comparison BDTG
%%Creator: ROOT Version 6.18/00
%%CreationDate: Mon Aug  5 16:38:34 2019
%%DocumentNeededResources: ProcSet (FontSetInit)
%%EndComments
%%BeginProlog
80 dict begin
/s {stroke} def /l {lineto} def /m {moveto} def /t {translate} def
/r {rotate} def /rl {roll}  def /R {repeat} def
/d {rlineto} def /rm {rmoveto} def /gr {grestore} def /f {eofill} def
/c {setrgbcolor} def /black {0 setgray} def /sd {setdash} def
/cl {closepath} def /sf {scalefont setfont} def /lw {setlinewidth} def
/box {m dup 0 exch d exch 0 d 0 exch neg d cl} def
/NC{systemdict begin initclip end}def/C{NC box clip newpath}def
/bl {box s} def /bf {gsave box gsave f grestore 1 lw [] 0 sd s grestore} def /Y { 0 exch d} def /X { 0 d} def 
/K {{pop pop 0 moveto} exch kshow} bind def
/ita {/ang 15 def gsave [1 0 ang dup sin exch cos div 1 0 0] concat} def 
/mp {newpath /y exch def /x exch def} def
/side {[w .77 mul w .23 mul] .385 w mul sd w 0 l currentpoint t -144 r} def
/mr {mp x y w2 0 360 arc} def /m24 {mr s} def /m20 {mr f} def
/mb {mp x y w2 add m w2 neg 0 d 0 w neg d w 0 d 0 w d cl} def
/mt {mp x y w2 add m w2 neg w neg d w 0 d cl} def
/w4 {w 4 div} def
/w6 {w 6 div} def
/w8 {w 8 div} def
/m21 {mb f} def /m25 {mb s} def /m22 {mt f} def /m26{mt s} def
/m23 {mp x y w2 sub m w2 w d w neg 0 d cl f} def
/m27 {mp x y w2 add m w3 neg w2 neg d w3 w2 neg d w3 w2 d cl s} def
/m28 {mp x w2 sub y w2 sub w3 add m w3 0 d  0 w3 neg d w3 0 d 0 w3 d w3 0 d  0 w3 d w3 neg 0 d 0 w3 d w3 neg 0 d 0 w3 neg d w3 neg 0 d cl s } def
/m29 {mp gsave x w2 sub y w2 add w3 sub m currentpoint t 4 {side} repeat cl fill gr} def
/m30 {mp gsave x w2 sub y w2 add w3 sub m currentpoint t 4 {side} repeat cl s gr} def
/m31 {mp x y w2 sub m 0 w d x w2 sub y m w 0 d x w2 sub y w2 add m w w neg d x w2 sub y w2 sub m w w d s} def
/m32 {mp x y w2 sub m w2 w d w neg 0 d cl s} def
/m33 {mp x y w2 add m w3 neg w2 neg d w3 w2 neg d w3 w2 d cl f} def
/m34 {mp x w2 sub y w2 sub w3 add m w3 0 d  0 w3 neg d w3 0 d 0 w3 d w3 0 d  0 w3 d w3 neg 0 d 0 w3 d w3 neg 0 d 0 w3 neg d w3 neg 0 d cl f } def
/m35 {mp x y w2 add m w2 neg w2 neg d w2 w2 neg d w2 w2 d w2 neg w2 d x y w2 sub m 0 w d x w2 sub y m w 0 d s} def
/m36 {mb x w2 sub y w2 add m w w neg d x w2 sub y w2 sub m w w d s} def
/m37 {mp x y m w4 neg w2 d w4 neg w2 neg d w2 0 d  w4 neg w2 neg d w2 0 d w4 neg w2 d w2 0 d w4 neg w2 d w4 neg w2 neg d cl s} def
/m38 {mp x w4 sub y w2 add m w4 neg w4 neg d 0 w2 neg d w4 w4 neg d w2 0 d w4 w4 d 0 w2 d w4 neg w4 d w2 neg 0 d x y w2 sub m 0 w d x w2 sub y m w 0 d cl s} def
/m39 {mp x y m w4 neg w2 d w4 neg w2 neg d w2 0 d  w4 neg w2 neg d w2 0 d w4 neg w2 d w2 0 d w4 neg w2 d w4 neg w2 neg d cl f} def
/m40 {mp x y m w4 w2 d w4 w4 neg d w2 neg w4 neg d w2 w4 neg d w4 neg w4 neg d w4 neg w2 d w4 neg w2 neg d w4 neg w4 d w2 w4 d w2 neg w4 d w4 w4 d w4 w2 neg d cl s} def
/m41 {mp x y m w4 w2 d w4 w4 neg d w2 neg w4 neg d w2 w4 neg d w4 neg w4 neg d w4 neg w2 d w4 neg w2 neg d w4 neg w4 d w2 w4 d w2 neg w4 d w4 w4 d w4 w2 neg d cl f} def
/m42 {mp x y w2 add m w8 neg w2 -3 4 div mul d w2 -3 4 div mul w8 neg d w2 3 4 div mul w8 neg d w8 w2 -3 4 div mul d w8 w2 3 4 div mul d w2 3 4 div mul w8 d w2 -3 4 div mul w8 d w8 neg w2 3 4 div mul d cl s} def
/m43 {mp x y w2 add m w8 neg w2 -3 4 div mul d w2 -3 4 div mul w8 neg d w2 3 4 div mul w8 neg d w8 w2 -3 4 div mul d w8 w2 3 4 div mul d w2 3 4 div mul w8 d w2 -3 4 div mul w8 d w8 neg w2 3 4 div mul d cl f} def
/m44 {mp x y m w6 neg w2 d w2 2 3 div mul 0 d w6 neg w2 neg d w2 w6 d 0 w2 -2 3 div mul d w2 neg w6 d w6 w2 neg d w2 -2 3 div mul 0 d w6 w2 d w2 neg w6 neg d 0 w2 2 3 div mul d w2 w6 neg d cl s} def
/m45 {mp x y m w6 neg w2 d w2 2 3 div mul 0 d w6 neg w2 neg d w2 w6 d 0 w2 -2 3 div mul d w2 neg w6 d w6 w2 neg d w2 -2 3 div mul 0 d w6 w2 d w2 neg w6 neg d 0 w2 2 3 div mul d w2 w6 neg d cl f} def
/m46 {mp x y w4 add m w4 neg w4 d w4 neg w4 neg d  w4 w4 neg d w4 neg w4 neg d w4 w4 neg d w4 w4 d w4 w4 neg d w4 w4 d w4 neg w4 d w4 w4 d w4 neg w4 d w4 neg w4 neg d cl s} def
/m47 {mp x y w4 add m w4 neg w4 d w4 neg w4 neg d w4 w4 neg d w4 neg w4 neg d  w4 w4 neg d w4 w4 d w4 w4 neg d w4 w4 d w4 neg w4 d w4 w4 d w4 neg w4 d w4 neg w4 neg d cl f} def
/m48 {mp x y w4 add m w4 neg w4 d w4 neg w4 neg d w4 w4 neg d  w4 neg w4 neg d w4 w4 neg d w4 w4 d w4 w4 neg d w4 w4 d w4 neg w4 d w4 w4 d w4 neg w4 d w4 neg w4 neg d  w4 w4 neg d w4 neg w4 neg d w4 neg w4 d w4 w4 d cl f} def
/m49 {mp x w2 sub w3 add y w2 sub w3 add m  0 w3 neg d w3 0 d 0 w3 d w3 0 d 0 w3 d w3 neg 0 d 0 w3 d w3 neg 0 d 0 w3 neg d w3 neg 0 d 0 w3 neg d w3 0 d 0 w3 d w3 0 d 0 w3 neg d w3 neg 0 d cl f } def
/m2 {mp x y w2 sub m 0 w d x w2 sub y m w 0 d s} def
/m5 {mp x w2 sub y w2 sub m w w d x w2 sub y w2 add m w w neg d s} def
%%IncludeResource: ProcSet (FontSetInit)
%%IncludeResource: font Times-Roman
%%IncludeResource: font Times-Italic
%%IncludeResource: font Times-Bold
%%IncludeResource: font Times-BoldItalic
%%IncludeResource: font Helvetica
%%IncludeResource: font Helvetica-Oblique
%%IncludeResource: font Helvetica-Bold
%%IncludeResource: font Helvetica-BoldOblique
%%IncludeResource: font Courier
%%IncludeResource: font Courier-Oblique
%%IncludeResource: font Courier-Bold
%%IncludeResource: font Courier-BoldOblique
%%IncludeResource: font Symbol
%%IncludeResource: font ZapfDingbats
/reEncode {exch findfont dup length dict begin {1 index /FID eq  {pop pop} {def} ifelse } forall /Encoding exch def currentdict end dup /FontName get exch definefont pop } def [/Times-Bold /Times-Italic /Times-BoldItalic /Helvetica /Helvetica-Oblique
 /Helvetica-Bold /Helvetica-BoldOblique /Courier /Courier-Oblique /Courier-Bold /Courier-BoldOblique /Times-Roman /AvantGarde-Book /AvantGarde-BookOblique /AvantGarde-Demi /AvantGarde-DemiOblique /Bookman-Demi /Bookman-DemiItalic /Bookman-Light
 /Bookman-LightItalic /Helvetica-Narrow /Helvetica-Narrow-Bold /Helvetica-Narrow-BoldOblique /Helvetica-Narrow-Oblique /NewCenturySchlbk-Roman /NewCenturySchlbk-Bold /NewCenturySchlbk-BoldItalic /NewCenturySchlbk-Italic /Palatino-Bold
 /Palatino-BoldItalic /Palatino-Italic /Palatino-Roman ] {ISOLatin1Encoding reEncode } forall
%%EndProlog
%%BeginSetup
%%EndSetup
newpath  gsave  .25 .25 scale  gsave  0 0 t 0.490196 0.545098 0.615686 c[  ] 0 sd 3 lw 0.941176 0.941176 0.941176 c 2268 1684 0 0 bf black 1 1 0.992157 c 1916 1313 238 202 bf black 1916 1313 238 202 bl 1 1 0.992157 c 1916 1313 238 202 bf black 1916
 1313 238 202 bl 238 202 m 1916 X s 433 245 m -43 Y s 482 223 m -21 Y s 530 223 m -21 Y s 579 223 m -21 Y s 628 245 m -43 Y s 676 223 m -21 Y s 725 223 m -21 Y s 774 223 m -21 Y s 823 245 m -43 Y s 871 223 m -21 Y s 920 223 m -21 Y s 969 223 m -21 Y
 s 1017 245 m -43 Y s 1066 223 m -21 Y s 1115 223 m -21 Y s 1163 223 m -21 Y s 1212 245 m -43 Y s 1261 223 m -21 Y s 1310 223 m -21 Y s 1358 223 m -21 Y s 1407 245 m -43 Y s 1456 223 m -21 Y s 1504 223 m -21 Y s 1553 223 m -21 Y s 1602 245 m -43 Y s
 1651 223 m -21 Y s 1699 223 m -21 Y s 1748 223 m -21 Y s 1797 245 m -43 Y s 1845 223 m -21 Y s 1894 223 m -21 Y s 1943 223 m -21 Y s 1991 245 m -43 Y s 433 245 m -43 Y s 384 223 m -21 Y s 336 223 m -21 Y s 287 223 m -21 Y s 1991 245 m -43 Y s 2040
 223 m -21 Y s 2089 223 m -21 Y s 2138 223 m -21 Y s
 gsave  2268 1684 0 0 C 401.97 128.934 t 0 r /Helvetica-Bold findfont 64.4669 sf 0 0 m (0.8) show NC gr 
 gsave  2268 1684 0 0 C 371.632 128.934 t 0 r /Symbol findfont 64.4669 sf 0 0 m (-) show NC gr 
 gsave  2268 1684 0 0 C 595.37 128.934 t 0 r /Helvetica-Bold findfont 64.4669 sf 0 0 m (0.6) show NC gr 
 gsave  2268 1684 0 0 C 565.033 128.934 t 0 r /Symbol findfont 64.4669 sf 0 0 m (-) show NC gr 
 gsave  2268 1684 0 0 C 788.771 128.934 t 0 r /Helvetica-Bold findfont 64.4669 sf 0 0 m (0.4) show NC gr 
 gsave  2268 1684 0 0 C 758.434 128.934 t 0 r /Symbol findfont 64.4669 sf 0 0 m (-) show NC gr 
 gsave  2268 1684 0 0 C 985.964 128.934 t 0 r /Helvetica-Bold findfont 64.4669 sf 0 0 m (0.2) show NC gr 
 gsave  2268 1684 0 0 C 955.626 128.934 t 0 r /Symbol findfont 64.4669 sf 0 0 m (-) show NC gr 
 gsave  2268 1684 0 0 C 1190.74 128.934 t 0 r /Helvetica-Bold findfont 64.4669 sf 0 0 m (0) show NC gr 
 gsave  2268 1684 0 0 C 1361.39 128.934 t 0 r /Helvetica-Bold findfont 64.4669 sf 0 0 m (0.2) show NC gr 
 gsave  2268 1684 0 0 C 1554.79 128.934 t 0 r /Helvetica-Bold findfont 64.4669 sf 0 0 m (0.4) show NC gr 
 gsave  2268 1684 0 0 C 1748.19 128.934 t 0 r /Helvetica-Bold findfont 64.4669 sf 0 0 m (0.6) show NC gr 
 gsave  2268 1684 0 0 C 1945.38 128.934 t 0 r /Helvetica-Bold findfont 64.4669 sf 0 0 m (0.8) show NC gr 
 gsave  2268 1684 0 0 C 1604.09 30.3373 t 0 r /Helvetica-Bold findfont 72.0512 sf 0 0 m (BDTG response) show NC gr  238 1515 m 1916 X s 433 1473 m 42 Y s 482 1494 m 21 Y s 530 1494 m 21 Y s 579 1494 m 21 Y s 628 1473 m 42 Y s 676 1494 m 21 Y s 725
 1494 m 21 Y s 774 1494 m 21 Y s 823 1473 m 42 Y s 871 1494 m 21 Y s 920 1494 m 21 Y s 969 1494 m 21 Y s 1017 1473 m 42 Y s 1066 1494 m 21 Y s 1115 1494 m 21 Y s 1163 1494 m 21 Y s 1212 1473 m 42 Y s 1261 1494 m 21 Y s 1310 1494 m 21 Y s 1358 1494 m
 21 Y s 1407 1473 m 42 Y s 1456 1494 m 21 Y s 1504 1494 m 21 Y s 1553 1494 m 21 Y s 1602 1473 m 42 Y s 1651 1494 m 21 Y s 1699 1494 m 21 Y s 1748 1494 m 21 Y s 1797 1473 m 42 Y s 1845 1494 m 21 Y s 1894 1494 m 21 Y s 1943 1494 m 21 Y s 1991 1473 m 42
 Y s 433 1473 m 42 Y s 384 1494 m 21 Y s 336 1494 m 21 Y s 287 1494 m 21 Y s 1991 1473 m 42 Y s 2040 1494 m 21 Y s 2089 1494 m 21 Y s 2138 1494 m 21 Y s 238 202 m 1313 Y s 291 202 m -53 X s 265 245 m -27 X s 265 288 m -27 X s 265 331 m -27 X s 291
 373 m -53 X s 265 416 m -27 X s 265 459 m -27 X s 265 502 m -27 X s 291 545 m -53 X s 265 587 m -27 X s 265 630 m -27 X s 265 673 m -27 X s 291 716 m -53 X s 265 759 m -27 X s 265 802 m -27 X s 265 844 m -27 X s 291 887 m -53 X s 265 930 m -27 X s
 265 973 m -27 X s 265 1016 m -27 X s 291 1058 m -53 X s 265 1101 m -27 X s 265 1144 m -27 X s 265 1187 m -27 X s 291 1230 m -53 X s 265 1273 m -27 X s 265 1315 m -27 X s 265 1358 m -27 X s 291 1401 m -53 X s 291 1401 m -53 X s 265 1444 m -27 X s 265
 1487 m -27 X s
 gsave  2268 1684 0 0 C 174.44 178.232 t 0 r /Helvetica-Bold findfont 64.4669 sf 0 0 m (0) show NC gr 
 gsave  2268 1684 0 0 C 174.44 348.879 t 0 r /Helvetica-Bold findfont 64.4669 sf 0 0 m (2) show NC gr 
 gsave  2268 1684 0 0 C 174.44 519.527 t 0 r /Helvetica-Bold findfont 64.4669 sf 0 0 m (4) show NC gr 
 gsave  2268 1684 0 0 C 174.44 690.175 t 0 r /Helvetica-Bold findfont 64.4669 sf 0 0 m (6) show NC gr 
 gsave  2268 1684 0 0 C 174.44 860.822 t 0 r /Helvetica-Bold findfont 64.4669 sf 0 0 m (8) show NC gr 
 gsave  2268 1684 0 0 C 136.518 1035.26 t 0 r /Helvetica-Bold findfont 64.4669 sf 0 0 m (10) show NC gr 
 gsave  2268 1684 0 0 C 136.518 1205.91 t 0 r /Helvetica-Bold findfont 64.4669 sf 0 0 m (12) show NC gr 
 gsave  2268 1684 0 0 C 136.518 1376.56 t 0 r /Helvetica-Bold findfont 64.4669 sf 0 0 m (14) show NC gr 
 gsave  2268 1684 0 0 C 64.4669 1433.44 t 90 r /Helvetica-Bold findfont 72.0512 sf 0 0 m (dx) show NC gr 
 gsave  2268 1684 0 0 C 30.3373 1422.06 t 90 r /Helvetica-Bold findfont 45.506 sf 0 0 m ( ) show NC gr 
 gsave  2268 1684 0 0 C 64.4669 1399.31 t 90 r /Helvetica-Bold findfont 72.0512 sf 0 0 m (/) show NC gr 
 gsave  2268 1684 0 0 C 30.3373 1387.93 t 90 r /Helvetica-Bold findfont 45.506 sf 0 0 m ( ) show NC gr 
 gsave  2268 1684 0 0 C 60.6747 1111.11 t 90 r /Helvetica-Bold findfont 72.0512 sf 0 0 m (\(1/N\) dN) show NC gr  2154 202 m 1313 Y s 2101 202 m 53 X s 2128 245 m 26 X s 2128 288 m 26 X s 2128 331 m 26 X s 2101 373 m 53 X s 2128 416 m 26 X s 2128 459
 m 26 X s 2128 502 m 26 X s 2101 545 m 53 X s 2128 587 m 26 X s 2128 630 m 26 X s 2128 673 m 26 X s 2101 716 m 53 X s 2128 759 m 26 X s 2128 802 m 26 X s 2128 844 m 26 X s 2101 887 m 53 X s 2128 930 m 26 X s 2128 973 m 26 X s 2128 1016 m 26 X s 2101
 1058 m 53 X s 2128 1101 m 26 X s 2128 1144 m 26 X s 2128 1187 m 26 X s 2101 1230 m 53 X s 2128 1273 m 26 X s 2128 1315 m 26 X s 2128 1358 m 26 X s 2101 1401 m 53 X s 2101 1401 m 53 X s 2128 1444 m 26 X s 2128 1487 m 26 X s 0.490196 0.545098 0.615686
 c 1 1 1 c 0.490196 0.545098 0.615686 c 907 202 238 1313 bl 238 1313 m 907 X s 1145 1313 m 202 Y s 1145 1515 m -907 X s 238 1515 m -202 Y s black
 gsave  2268 1684 0 0 C 417.138 1444.82 t 0 r /Helvetica-Bold findfont 53.0904 sf 0 0 m (Signal \(test sample\)) show NC gr  0.49 0.6 0.82 c 265 1429 m 127 X 71 Y -127 X f 0 0 0.933333 c 265 1500 m 127 X s 265 1429 m 127 X s 392 1429 m 71 Y s 265
 1429 m 71 Y s black
 gsave  2268 1684 0 0 C 417.138 1342.43 t 0 r /Helvetica-Bold findfont 53.0904 sf 0 0 m (Background \(test sample\)) show NC gr  1 0 0 c 392 1354 m -26 -26 d s 389 1399 m -71 -71 d s 341 1399 m -71 -71 d s 293 1399 m -28 -27 d s 0 0 0.933333 c 1 0 0
 c 265 1399 m 127 X s 265 1328 m 127 X s 392 1328 m 71 Y s 265 1328 m 71 Y s 0 0 0.933333 c 0.49 0.6 0.82 c black 0.49 0.6 0.82 c 238 202 m 19 Y 48 X -17 Y 48 X -1 Y 48 X 2 Y 48 X -1 Y 48 X 1 Y 143 X 1 Y 48 X 2 Y 48 X 1 Y 48 X -1 Y 48 X 1 Y 96 X 1 Y
 48 X 1 Y 48 X -1 Y 48 X 1 Y 47 X -2 Y 192 X -1 Y 96 X 2 Y 96 X 3 Y 48 X -1 Y 95 X 5 Y 48 X 3 Y 48 X -1 Y 48 X 4 Y 48 X 35 Y 48 X 16 Y 48 X 42 Y 48 X 44 Y 48 X 245 Y 48 X 80 Y 47 X -289 Y 48 X -194 Y f 0 0 0.933333 c 0.49 0.6 0.82 c 0 0 0.933333 c
 238 221 m 48 X -17 Y 48 X -1 Y 48 X 2 Y 48 X -1 Y 48 X 1 Y 143 X 1 Y 48 X 2 Y 48 X 1 Y 48 X -1 Y 48 X 1 Y 96 X 1 Y 48 X 1 Y 48 X -1 Y 48 X 1 Y 47 X -2 Y 192 X -1 Y 96 X 2 Y 96 X 3 Y 48 X -1 Y 95 X 5 Y 48 X 3 Y 48 X -1 Y 48 X 4 Y 48 X 35 Y 48 X 16 Y
 48 X 42 Y 48 X 44 Y 48 X 245 Y 48 X 80 Y 47 X -289 Y 48 X -194 Y s 1 0 0 c black 1 0 0 c 2128 203 m -2 -1 d s 2086 210 m -8 -8 d s 2044 216 m -14 -14 d s 1997 217 m -15 -15 d s 1951 220 m -17 -18 d s 1900 216 m -14 -14 d s 1850 214 m -12 -12 d s
 1799 211 m -9 -9 d s 1750 211 m -9 -9 d s 1701 210 m -8 -8 d s 1653 210 m -8 -8 d s 1606 210 m -9 -8 d s 1557 210 m -8 -8 d s 1508 209 m -7 -7 d s 1460 210 m -7 -8 d s 1412 209 m -7 -7 d s 1363 209 m -6 -7 d s 1316 209 m -8 -7 d s 1268 209 m -8 -7 d
 s 1220 210 m -8 -8 d s 1173 211 m -9 -9 d s 1126 212 m -10 -10 d s 1079 213 m -11 -11 d s 1032 215 m -12 -13 d s 986 217 m -14 -15 d s 941 219 m -17 -17 d s 896 222 m -20 -20 d s 850 224 m -23 -22 d s 805 228 m -26 -26 d s 760 231 m -29 -29 d s 717
 236 m -34 -34 d s 670 237 m -35 -35 d s 625 240 m -38 -38 d s 577 241 m -38 -39 d s 529 241 m -38 -39 d s 479 239 m -1 -2 d s 477 237 m -34 -35 d s 430 237 m -36 -35 d s 384 240 m -38 -38 d s 340 244 m -42 -42 d s 324 276 m -74 -74 d s 286 286 m -48
 -48 d s 286 334 m -48 -48 d s 286 382 m -48 -48 d s 286 430 m -48 -48 d s 286 478 m -48 -47 d s 286 527 m -48 -48 d s 286 575 m -48 -48 d s 286 623 m -48 -48 d s 286 671 m -48 -48 d s 286 719 m -48 -48 d s 286 767 m -48 -48 d s 286 815 m -48 -48 d s
 286 863 m -48 -48 d s 286 911 m -48 -48 d s 286 959 m -48 -47 d s 286 1008 m -48 -48 d s 286 1056 m -48 -48 d s 286 1104 m -48 -48 d s 286 1152 m -48 -48 d s 286 1200 m -48 -48 d s 250 1212 m -12 -12 d s 238 1212 m 48 X -936 Y 48 X -32 Y 48 X -4 Y
 48 X -3 Y 48 X 2 Y 48 X 2 Y 95 X -1 Y 48 X -3 Y 48 X -6 Y 48 X -3 Y 48 X -4 Y 48 X -2 Y 48 X -3 Y 48 X -2 Y 48 X -2 Y 48 X -2 Y 47 X -1 Y 48 X -1 Y 48 X -1 Y 48 X -1 Y 192 X 1 Y 48 X -1 Y 48 X 1 Y 191 X 1 Y 96 X 3 Y 48 X 2 Y 48 X 4 Y 48 X -3 Y 48 X
 -1 Y 48 X -6 Y 47 X -7 Y 48 X -1 Y s 0.490196 0.545098 0.615686 c 1 1 1 c 0.490196 0.545098 0.615686 c 952 202 1202 1313 bl 1202 1313 m 952 X s 2154 1313 m 202 Y s 2154 1515 m -952 X s 1202 1515 m -202 Y s black
 gsave  2268 1684 0 0 C 1296.92 1444.82 t 0 r /Helvetica-Bold findfont 56.8825 sf 0 0 m (Signal \(training sample\)) show NC gr  0 0 0.933333 c /w 21 def /w2 {w 2 div} def /w3 {w 3 div} def 1250 1465 m20 black
 gsave  2268 1684 0 0 C 1296.92 1342.43 t 0 r /Helvetica-Bold findfont 56.8825 sf 0 0 m (Background \(training sample\)) show NC gr  1 0 0 c 1250 1364 m20 0 0 0.933333 c 1 1 1 c 0 0 0.933333 c 238 223 m 16 X s 270 223 m 16 X s 238 215 m 16 Y s 286
 215 m 16 Y s 262 223 m20 286 204 m 16 X s 318 204 m 16 X s 286 197 m 15 Y s 334 197 m 15 Y s 310 204 m20 334 203 m 16 X s 365 203 m 17 X s 334 196 m 15 Y s 382 196 m 15 Y s 358 203 m20 382 204 m 16 X s 413 204 m 17 X s 382 196 m 15 Y s 430 196 m 15
 Y s 406 204 m20 430 204 m 16 X s 461 204 m 17 X s 430 197 m 15 Y s 478 197 m 15 Y s 454 204 m20 478 205 m 16 X s 509 205 m 17 X s 478 198 m 15 Y s 526 198 m 15 Y s 502 205 m20 526 205 m 16 X s 557 205 m 16 X s 526 198 m 15 Y s 573 198 m 15 Y s 549
 205 m20 573 206 m 17 X s 605 206 m 16 X s 573 198 m 15 Y s 621 198 m 15 Y s 597 206 m20 621 206 m 17 X s 653 206 m 16 X s 621 199 m 15 Y s 669 199 m 15 Y s 645 206 m20 669 207 m 17 X s 701 207 m 16 X s 669 199 m 15 Y s 717 199 m 15 Y s 693 207 m20
 717 208 m 17 X s 749 208 m 16 X s 717 201 m 15 Y s 765 201 m 15 Y s 741 208 m20 765 208 m 16 X s 797 208 m 16 X s 765 200 m 15 Y s 813 200 m 15 Y s 789 208 m20 813 209 m 16 X s 845 209 m 16 X s 813 202 m 15 Y s 861 202 m 15 Y s 837 209 m20 861 210 m
 16 X s 892 210 m 17 X s 861 202 m 15 Y s 909 202 m 15 Y s 885 210 m20 909 211 m 16 X s 940 211 m 17 X s 909 204 m 15 Y s 957 204 m 15 Y s 933 211 m20 957 210 m 16 X s 988 210 m 17 X s 957 202 m 15 Y s 1005 202 m 15 Y s 981 210 m20 1005 211 m 16 X s
 1036 211 m 17 X s 1005 203 m 15 Y s 1053 203 m 15 Y s 1029 211 m20 1053 209 m 16 X s 1084 209 m 16 X s 1053 201 m 16 Y s 1100 201 m 16 Y s 1076 209 m20 1100 210 m 17 X s 1132 210 m 16 X s 1100 202 m 15 Y s 1148 202 m 15 Y s 1124 210 m20 1148 209 m
 17 X s 1180 209 m 16 X s 1148 201 m 16 Y s 1196 201 m 16 Y s 1172 209 m20 1196 208 m 17 X s 1228 208 m 16 X s 1196 201 m 15 Y s 1244 201 m 15 Y s 1220 208 m20 1244 208 m 16 X s 1276 208 m 16 X s 1244 200 m 15 Y s 1292 200 m 15 Y s 1268 208 m20 1292
 208 m 16 X s 1324 208 m 16 X s 1292 201 m 15 Y s 1340 201 m 15 Y s 1316 208 m20 1340 208 m 16 X s 1371 208 m 17 X s 1340 200 m 15 Y s 1388 200 m 15 Y s 1364 208 m20 1388 210 m 16 X s 1419 210 m 17 X s 1388 202 m 16 Y s 1436 202 m 16 Y s 1412 210 m20
 1436 212 m 16 X s 1467 212 m 17 X s 1436 204 m 15 Y s 1484 204 m 15 Y s 1460 212 m20 1484 211 m 16 X s 1515 211 m 17 X s 1484 203 m 16 Y s 1532 203 m 16 Y s 1508 211 m20 1532 213 m 16 X s 1563 213 m 16 X s 1532 206 m 15 Y s 1579 206 m 15 Y s 1556
 213 m20 1579 214 m 17 X s 1611 214 m 16 X s 1579 207 m 15 Y s 1627 207 m 15 Y s 1603 214 m20 1627 216 m 17 X s 1659 216 m 16 X s 1627 208 m 16 Y s 1675 208 m 16 Y s 1651 216 m20 1675 221 m 17 X s 1707 221 m 16 X s 1675 213 m 15 Y s 1723 213 m 15 Y s
 1699 221 m20 1723 220 m 17 X s 1755 220 m 16 X s 1723 213 m 15 Y s 1771 213 m 15 Y s 1747 220 m20 1771 226 m 16 X s 1803 226 m 16 X s 1771 218 m 15 Y s 1819 218 m 15 Y s 1795 226 m20 1819 262 m 16 X s 1851 262 m 16 X s 1819 254 m 15 Y s 1867 254 m
 15 Y s 1843 262 m20 1867 276 m 16 X s 1898 276 m 17 X s 1867 268 m 15 Y s 1915 268 m 15 Y s 1891 276 m20 1915 311 m 16 X s 1946 311 m 17 X s 1915 304 m 15 Y s 1963 304 m 15 Y s 1939 311 m20 1963 359 m 16 X s 1994 359 m 17 X s 1963 351 m 16 Y s 2011
 351 m 16 Y s 1987 359 m20 2011 600 m 16 X s 2042 600 m 17 X s 2011 593 m 15 Y s 2059 593 m 15 Y s 2035 600 m20 2059 688 m 16 X s 2090 688 m 16 X s 2059 680 m 15 Y s 2106 680 m 15 Y s 2082 688 m20 2106 391 m 17 X s 2138 391 m 16 X s 2106 383 m 15 Y s
 2154 383 m 15 Y s 2130 391 m20 1 0 0 c 1 1 1 c 1 0 0 c 238 1212 m 16 X s 270 1212 m 16 X s 238 1204 m 15 Y s 286 1204 m 15 Y s 262 1212 m20 286 276 m 16 X s 318 276 m 16 X s 286 269 m 15 Y s 334 269 m 15 Y s 310 276 m20 334 244 m 16 X s 365 244 m 17
 X s 334 236 m 16 Y s 382 236 m 16 Y s 358 244 m20 382 240 m 16 X s 413 240 m 17 X s 382 232 m 16 Y s 430 232 m 16 Y s 406 240 m20 430 236 m 16 X s 461 236 m 17 X s 430 229 m 15 Y s 478 229 m 15 Y s 454 236 m20 478 239 m 16 X s 509 239 m 17 X s 478
 231 m 15 Y s 526 231 m 15 Y s 502 239 m20 526 241 m 16 X s 557 241 m 16 X s 526 233 m 15 Y s 573 233 m 15 Y s 549 241 m20 573 241 m 17 X s 605 241 m 16 X s 573 233 m 15 Y s 621 233 m 15 Y s 597 241 m20 621 240 m 17 X s 653 240 m 16 X s 621 233 m 15
 Y s 669 233 m 15 Y s 645 240 m20 669 238 m 17 X s 701 238 m 16 X s 669 230 m 15 Y s 717 230 m 15 Y s 693 238 m20 717 231 m 17 X s 749 231 m 16 X s 717 224 m 15 Y s 765 224 m 15 Y s 741 231 m20 765 228 m 16 X s 797 228 m 16 X s 765 220 m 15 Y s 813
 220 m 15 Y s 789 228 m20 813 224 m 16 X s 845 224 m 16 X s 813 217 m 15 Y s 861 217 m 15 Y s 837 224 m20 861 222 m 16 X s 892 222 m 17 X s 861 215 m 15 Y s 909 215 m 15 Y s 885 222 m20 909 219 m 16 X s 940 219 m 17 X s 909 212 m 15 Y s 957 212 m 15
 Y s 933 219 m20 957 216 m 16 X s 988 216 m 17 X s 957 209 m 15 Y s 1005 209 m 15 Y s 981 216 m20 1005 215 m 16 X s 1036 215 m 17 X s 1005 207 m 15 Y s 1053 207 m 15 Y s 1029 215 m20 1053 213 m 16 X s 1084 213 m 16 X s 1053 206 m 15 Y s 1100 206 m 15
 Y s 1076 213 m20 1100 212 m 17 X s 1132 212 m 16 X s 1100 205 m 15 Y s 1148 205 m 15 Y s 1124 212 m20 1148 211 m 17 X s 1180 211 m 16 X s 1148 204 m 15 Y s 1196 204 m 15 Y s 1172 211 m20 1196 210 m 17 X s 1228 210 m 16 X s 1196 203 m 15 Y s 1244 203
 m 15 Y s 1220 210 m20 1244 209 m 16 X s 1276 209 m 16 X s 1244 202 m 15 Y s 1292 202 m 15 Y s 1268 209 m20 1292 209 m 16 X s 1324 209 m 16 X s 1292 202 m 15 Y s 1340 202 m 15 Y s 1316 209 m20 1340 209 m 16 X s 1371 209 m 17 X s 1340 201 m 15 Y s
 1388 201 m 15 Y s 1364 209 m20 1388 209 m 16 X s 1419 209 m 17 X s 1388 202 m 15 Y s 1436 202 m 15 Y s 1412 209 m20 1436 210 m 16 X s 1467 210 m 17 X s 1436 202 m 15 Y s 1484 202 m 15 Y s 1460 210 m20 1484 209 m 16 X s 1515 209 m 17 X s 1484 202 m
 15 Y s 1532 202 m 15 Y s 1508 209 m20 1532 210 m 16 X s 1563 210 m 16 X s 1532 202 m 15 Y s 1579 202 m 15 Y s 1556 210 m20 1579 211 m 17 X s 1611 211 m 16 X s 1579 203 m 15 Y s 1627 203 m 15 Y s 1603 211 m20 1627 210 m 17 X s 1659 210 m 16 X s 1627
 202 m 15 Y s 1675 202 m 15 Y s 1651 210 m20 1675 210 m 17 X s 1707 210 m 16 X s 1675 203 m 15 Y s 1723 203 m 15 Y s 1699 210 m20 1723 210 m 17 X s 1755 210 m 16 X s 1723 203 m 15 Y s 1771 203 m 15 Y s 1747 210 m20 1771 211 m 16 X s 1803 211 m 16 X s
 1771 204 m 15 Y s 1819 204 m 15 Y s 1795 211 m20 1819 214 m 16 X s 1851 214 m 16 X s 1819 207 m 15 Y s 1867 207 m 15 Y s 1843 214 m20 1867 216 m 16 X s 1898 216 m 17 X s 1867 208 m 15 Y s 1915 208 m 15 Y s 1891 216 m20 1915 220 m 16 X s 1946 220 m
 17 X s 1915 212 m 15 Y s 1963 212 m 15 Y s 1939 220 m20 1963 217 m 16 X s 1994 217 m 17 X s 1963 210 m 15 Y s 2011 210 m 15 Y s 1987 217 m20 2011 216 m 16 X s 2042 216 m 17 X s 2011 208 m 15 Y s 2059 208 m 15 Y s 2035 216 m20 2059 210 m 16 X s 2090
 210 m 16 X s 2059 202 m 15 Y s 2106 202 m 15 Y s 2082 210 m20 2106 203 m 17 X s 2138 203 m 16 X s 2106 196 m 15 Y s 2154 196 m 15 Y s 2130 203 m20 black
 gsave  2268 1684 0 0 C 272.126 1245.95 t 0 r /Helvetica-Bold findfont 49.2982 sf 0 0 m (Kolmogorov\255Smirnov test: signal \(background\) probability = 0.004 \(0.168\)) show NC gr  238 202 m 1916 X s 433 245 m -43 Y s 482 223 m -21 Y s 530 223 m -21
 Y s 579 223 m -21 Y s 628 245 m -43 Y s 676 223 m -21 Y s 725 223 m -21 Y s 774 223 m -21 Y s 823 245 m -43 Y s 871 223 m -21 Y s 920 223 m -21 Y s 969 223 m -21 Y s 1017 245 m -43 Y s 1066 223 m -21 Y s 1115 223 m -21 Y s 1163 223 m -21 Y s 1212
 245 m -43 Y s 1261 223 m -21 Y s 1310 223 m -21 Y s 1358 223 m -21 Y s 1407 245 m -43 Y s 1456 223 m -21 Y s 1504 223 m -21 Y s 1553 223 m -21 Y s 1602 245 m -43 Y s 1651 223 m -21 Y s 1699 223 m -21 Y s 1748 223 m -21 Y s 1797 245 m -43 Y s 1845
 223 m -21 Y s 1894 223 m -21 Y s 1943 223 m -21 Y s 1991 245 m -43 Y s 433 245 m -43 Y s 384 223 m -21 Y s 336 223 m -21 Y s 287 223 m -21 Y s 1991 245 m -43 Y s 2040 223 m -21 Y s 2089 223 m -21 Y s 2138 223 m -21 Y s 238 1515 m 1916 X s 433 1473 m
 42 Y s 482 1494 m 21 Y s 530 1494 m 21 Y s 579 1494 m 21 Y s 628 1473 m 42 Y s 676 1494 m 21 Y s 725 1494 m 21 Y s 774 1494 m 21 Y s 823 1473 m 42 Y s 871 1494 m 21 Y s 920 1494 m 21 Y s 969 1494 m 21 Y s 1017 1473 m 42 Y s 1066 1494 m 21 Y s 1115
 1494 m 21 Y s 1163 1494 m 21 Y s 1212 1473 m 42 Y s 1261 1494 m 21 Y s 1310 1494 m 21 Y s 1358 1494 m 21 Y s 1407 1473 m 42 Y s 1456 1494 m 21 Y s 1504 1494 m 21 Y s 1553 1494 m 21 Y s 1602 1473 m 42 Y s 1651 1494 m 21 Y s 1699 1494 m 21 Y s 1748
 1494 m 21 Y s 1797 1473 m 42 Y s 1845 1494 m 21 Y s 1894 1494 m 21 Y s 1943 1494 m 21 Y s 1991 1473 m 42 Y s 433 1473 m 42 Y s 384 1494 m 21 Y s 336 1494 m 21 Y s 287 1494 m 21 Y s 1991 1473 m 42 Y s 2040 1494 m 21 Y s 2089 1494 m 21 Y s 2138 1494 m
 21 Y s 238 202 m 1313 Y s 291 202 m -53 X s 265 245 m -27 X s 265 288 m -27 X s 265 331 m -27 X s 291 373 m -53 X s 265 416 m -27 X s 265 459 m -27 X s 265 502 m -27 X s 291 545 m -53 X s 265 587 m -27 X s 265 630 m -27 X s 265 673 m -27 X s 291 716
 m -53 X s 265 759 m -27 X s 265 802 m -27 X s 265 844 m -27 X s 291 887 m -53 X s 265 930 m -27 X s 265 973 m -27 X s 265 1016 m -27 X s 291 1058 m -53 X s 265 1101 m -27 X s 265 1144 m -27 X s 265 1187 m -27 X s 291 1230 m -53 X s 265 1273 m -27 X
 s 265 1315 m -27 X s 265 1358 m -27 X s 291 1401 m -53 X s 291 1401 m -53 X s 265 1444 m -27 X s 265 1487 m -27 X s 2154 202 m 1313 Y s 2101 202 m 53 X s 2128 245 m 26 X s 2128 288 m 26 X s 2128 331 m 26 X s 2101 373 m 53 X s 2128 416 m 26 X s 2128
 459 m 26 X s 2128 502 m 26 X s 2101 545 m 53 X s 2128 587 m 26 X s 2128 630 m 26 X s 2128 673 m 26 X s 2101 716 m 53 X s 2128 759 m 26 X s 2128 802 m 26 X s 2128 844 m 26 X s 2101 887 m 53 X s 2128 930 m 26 X s 2128 973 m 26 X s 2128 1016 m 26 X s
 2101 1058 m 53 X s 2128 1101 m 26 X s 2128 1144 m 26 X s 2128 1187 m 26 X s 2101 1230 m 53 X s 2128 1273 m 26 X s 2128 1315 m 26 X s 2128 1358 m 26 X s 2101 1401 m 53 X s 2101 1401 m 53 X s 2128 1444 m 26 X s 2128 1487 m 26 X s
 gsave  2268 1684 0 0 C 2211.02 193.628 t 90 r /Helvetica-Bold findfont 45.506 sf 0 0 m (U/O\255flow \(S,B\): \(0.0, 0.0\)% / \(0.0, 0.0\)%) show NC gr  0.490196 0.545098 0.615686 c 0.364706 0.419608 0.490196 c 1587 100 23 1575 bf 0.490196 0.545098
 0.615686 c 23 1575 m 1587 X s 1610 1575 m 100 Y s 1610 1675 m -1587 X s 23 1675 m -100 Y s 1 1 1 c black 1 1 1 c
 gsave  2268 1684 0 0 C 72.0512 1604.09 t 0 r /Helvetica-Bold findfont 68.259 sf 0 0 m (TMVA overtraining check for classifier: BDTG) show NC gr 
 gr  gr showpage
end
%%EOF
