%!PS-Adobe-2.0 EPSF-2.0
%%BoundingBox:  0 0 567 414
%%Title: dataset/plots/rejBvsS.eps: the canvas
%%Creator: ROOT Version 6.18/00
%%CreationDate: Tue Aug  6 19:54:14 2019
%%DocumentNeededResources: ProcSet (FontSetInit)
%%EndComments
%%BeginProlog
80 dict begin
/s {stroke} def /l {lineto} def /m {moveto} def /t {translate} def
/r {rotate} def /rl {roll}  def /R {repeat} def
/d {rlineto} def /rm {rmoveto} def /gr {grestore} def /f {eofill} def
/c {setrgbcolor} def /black {0 setgray} def /sd {setdash} def
/cl {closepath} def /sf {scalefont setfont} def /lw {setlinewidth} def
/box {m dup 0 exch d exch 0 d 0 exch neg d cl} def
/NC{systemdict begin initclip end}def/C{NC box clip newpath}def
/bl {box s} def /bf {gsave box gsave f grestore 1 lw [] 0 sd s grestore} def /Y { 0 exch d} def /X { 0 d} def 
/K {{pop pop 0 moveto} exch kshow} bind def
/ita {/ang 15 def gsave [1 0 ang dup sin exch cos div 1 0 0] concat} def 
/mp {newpath /y exch def /x exch def} def
/side {[w .77 mul w .23 mul] .385 w mul sd w 0 l currentpoint t -144 r} def
/mr {mp x y w2 0 360 arc} def /m24 {mr s} def /m20 {mr f} def
/mb {mp x y w2 add m w2 neg 0 d 0 w neg d w 0 d 0 w d cl} def
/mt {mp x y w2 add m w2 neg w neg d w 0 d cl} def
/w4 {w 4 div} def
/w6 {w 6 div} def
/w8 {w 8 div} def
/m21 {mb f} def /m25 {mb s} def /m22 {mt f} def /m26{mt s} def
/m23 {mp x y w2 sub m w2 w d w neg 0 d cl f} def
/m27 {mp x y w2 add m w3 neg w2 neg d w3 w2 neg d w3 w2 d cl s} def
/m28 {mp x w2 sub y w2 sub w3 add m w3 0 d  0 w3 neg d w3 0 d 0 w3 d w3 0 d  0 w3 d w3 neg 0 d 0 w3 d w3 neg 0 d 0 w3 neg d w3 neg 0 d cl s } def
/m29 {mp gsave x w2 sub y w2 add w3 sub m currentpoint t 4 {side} repeat cl fill gr} def
/m30 {mp gsave x w2 sub y w2 add w3 sub m currentpoint t 4 {side} repeat cl s gr} def
/m31 {mp x y w2 sub m 0 w d x w2 sub y m w 0 d x w2 sub y w2 add m w w neg d x w2 sub y w2 sub m w w d s} def
/m32 {mp x y w2 sub m w2 w d w neg 0 d cl s} def
/m33 {mp x y w2 add m w3 neg w2 neg d w3 w2 neg d w3 w2 d cl f} def
/m34 {mp x w2 sub y w2 sub w3 add m w3 0 d  0 w3 neg d w3 0 d 0 w3 d w3 0 d  0 w3 d w3 neg 0 d 0 w3 d w3 neg 0 d 0 w3 neg d w3 neg 0 d cl f } def
/m35 {mp x y w2 add m w2 neg w2 neg d w2 w2 neg d w2 w2 d w2 neg w2 d x y w2 sub m 0 w d x w2 sub y m w 0 d s} def
/m36 {mb x w2 sub y w2 add m w w neg d x w2 sub y w2 sub m w w d s} def
/m37 {mp x y m w4 neg w2 d w4 neg w2 neg d w2 0 d  w4 neg w2 neg d w2 0 d w4 neg w2 d w2 0 d w4 neg w2 d w4 neg w2 neg d cl s} def
/m38 {mp x w4 sub y w2 add m w4 neg w4 neg d 0 w2 neg d w4 w4 neg d w2 0 d w4 w4 d 0 w2 d w4 neg w4 d w2 neg 0 d x y w2 sub m 0 w d x w2 sub y m w 0 d cl s} def
/m39 {mp x y m w4 neg w2 d w4 neg w2 neg d w2 0 d  w4 neg w2 neg d w2 0 d w4 neg w2 d w2 0 d w4 neg w2 d w4 neg w2 neg d cl f} def
/m40 {mp x y m w4 w2 d w4 w4 neg d w2 neg w4 neg d w2 w4 neg d w4 neg w4 neg d w4 neg w2 d w4 neg w2 neg d w4 neg w4 d w2 w4 d w2 neg w4 d w4 w4 d w4 w2 neg d cl s} def
/m41 {mp x y m w4 w2 d w4 w4 neg d w2 neg w4 neg d w2 w4 neg d w4 neg w4 neg d w4 neg w2 d w4 neg w2 neg d w4 neg w4 d w2 w4 d w2 neg w4 d w4 w4 d w4 w2 neg d cl f} def
/m42 {mp x y w2 add m w8 neg w2 -3 4 div mul d w2 -3 4 div mul w8 neg d w2 3 4 div mul w8 neg d w8 w2 -3 4 div mul d w8 w2 3 4 div mul d w2 3 4 div mul w8 d w2 -3 4 div mul w8 d w8 neg w2 3 4 div mul d cl s} def
/m43 {mp x y w2 add m w8 neg w2 -3 4 div mul d w2 -3 4 div mul w8 neg d w2 3 4 div mul w8 neg d w8 w2 -3 4 div mul d w8 w2 3 4 div mul d w2 3 4 div mul w8 d w2 -3 4 div mul w8 d w8 neg w2 3 4 div mul d cl f} def
/m44 {mp x y m w6 neg w2 d w2 2 3 div mul 0 d w6 neg w2 neg d w2 w6 d 0 w2 -2 3 div mul d w2 neg w6 d w6 w2 neg d w2 -2 3 div mul 0 d w6 w2 d w2 neg w6 neg d 0 w2 2 3 div mul d w2 w6 neg d cl s} def
/m45 {mp x y m w6 neg w2 d w2 2 3 div mul 0 d w6 neg w2 neg d w2 w6 d 0 w2 -2 3 div mul d w2 neg w6 d w6 w2 neg d w2 -2 3 div mul 0 d w6 w2 d w2 neg w6 neg d 0 w2 2 3 div mul d w2 w6 neg d cl f} def
/m46 {mp x y w4 add m w4 neg w4 d w4 neg w4 neg d  w4 w4 neg d w4 neg w4 neg d w4 w4 neg d w4 w4 d w4 w4 neg d w4 w4 d w4 neg w4 d w4 w4 d w4 neg w4 d w4 neg w4 neg d cl s} def
/m47 {mp x y w4 add m w4 neg w4 d w4 neg w4 neg d w4 w4 neg d w4 neg w4 neg d  w4 w4 neg d w4 w4 d w4 w4 neg d w4 w4 d w4 neg w4 d w4 w4 d w4 neg w4 d w4 neg w4 neg d cl f} def
/m48 {mp x y w4 add m w4 neg w4 d w4 neg w4 neg d w4 w4 neg d  w4 neg w4 neg d w4 w4 neg d w4 w4 d w4 w4 neg d w4 w4 d w4 neg w4 d w4 w4 d w4 neg w4 d w4 neg w4 neg d  w4 w4 neg d w4 neg w4 neg d w4 neg w4 d w4 w4 d cl f} def
/m49 {mp x w2 sub w3 add y w2 sub w3 add m  0 w3 neg d w3 0 d 0 w3 d w3 0 d 0 w3 d w3 neg 0 d 0 w3 d w3 neg 0 d 0 w3 neg d w3 neg 0 d 0 w3 neg d w3 0 d 0 w3 d w3 0 d 0 w3 neg d w3 neg 0 d cl f } def
/m2 {mp x y w2 sub m 0 w d x w2 sub y m w 0 d s} def
/m5 {mp x w2 sub y w2 sub m w w d x w2 sub y w2 add m w w neg d s} def
%%IncludeResource: ProcSet (FontSetInit)
%%IncludeResource: font Times-Roman
%%IncludeResource: font Times-Italic
%%IncludeResource: font Times-Bold
%%IncludeResource: font Times-BoldItalic
%%IncludeResource: font Helvetica
%%IncludeResource: font Helvetica-Oblique
%%IncludeResource: font Helvetica-Bold
%%IncludeResource: font Helvetica-BoldOblique
%%IncludeResource: font Courier
%%IncludeResource: font Courier-Oblique
%%IncludeResource: font Courier-Bold
%%IncludeResource: font Courier-BoldOblique
%%IncludeResource: font Symbol
%%IncludeResource: font ZapfDingbats
/reEncode {exch findfont dup length dict begin {1 index /FID eq  {pop pop} {def} ifelse } forall /Encoding exch def currentdict end dup /FontName get exch definefont pop } def [/Times-Bold /Times-Italic /Times-BoldItalic /Helvetica /Helvetica-Oblique
 /Helvetica-Bold /Helvetica-BoldOblique /Courier /Courier-Oblique /Courier-Bold /Courier-BoldOblique /Times-Roman /AvantGarde-Book /AvantGarde-BookOblique /AvantGarde-Demi /AvantGarde-DemiOblique /Bookman-Demi /Bookman-DemiItalic /Bookman-Light
 /Bookman-LightItalic /Helvetica-Narrow /Helvetica-Narrow-Bold /Helvetica-Narrow-BoldOblique /Helvetica-Narrow-Oblique /NewCenturySchlbk-Roman /NewCenturySchlbk-Bold /NewCenturySchlbk-BoldItalic /NewCenturySchlbk-Italic /Palatino-Bold
 /Palatino-BoldItalic /Palatino-Italic /Palatino-Roman ] {ISOLatin1Encoding reEncode } forall
%%EndProlog
%%BeginSetup
%%EndSetup
newpath  gsave  .25 .25 scale  gsave  0 0 t 0.490196 0.545098 0.615686 c[  ] 0 sd 3 lw 0.941176 0.941176 0.941176 c 2268 1655 0 0 bf black 1 1 0.992157 c 1909 1291 245 199 bf black 1909 1291 245 199 bl 1 1 0.992157 c 1909 1291 245 199 bf black 1909
 1291 245 199 bl 245 199 m 1909 X s 245 240 m -41 Y s[ 4 8] 0 sd 245 1490 m -1291 Y s[  ] 0 sd 283 220 m -21 Y s 321 220 m -21 Y s 359 220 m -21 Y s 398 220 m -21 Y s 436 240 m -41 Y s[ 4 8] 0 sd 436 1490 m -1291 Y s[  ] 0 sd 474 220 m -21 Y s 512
 220 m -21 Y s 550 220 m -21 Y s 589 220 m -21 Y s 627 240 m -41 Y s[ 4 8] 0 sd 627 1490 m -1291 Y s[  ] 0 sd 665 220 m -21 Y s 703 220 m -21 Y s 741 220 m -21 Y s 780 220 m -21 Y s 818 240 m -41 Y s[ 4 8] 0 sd 818 1490 m -1291 Y s[  ] 0 sd 856 220 m
 -21 Y s 894 220 m -21 Y s 932 220 m -21 Y s 970 220 m -21 Y s 1009 240 m -41 Y s[ 4 8] 0 sd 1009 1490 m -1291 Y s[  ] 0 sd 1047 220 m -21 Y s 1085 220 m -21 Y s 1123 220 m -21 Y s 1161 220 m -21 Y s 1200 240 m -41 Y s[ 4 8] 0 sd 1200 1490 m -1291 Y
 s[  ] 0 sd 1238 220 m -21 Y s 1276 220 m -21 Y s 1314 220 m -21 Y s 1352 220 m -21 Y s 1391 240 m -41 Y s[ 4 8] 0 sd 1391 1490 m -1291 Y s[  ] 0 sd 1429 220 m -21 Y s 1467 220 m -21 Y s 1505 220 m -21 Y s 1543 220 m -21 Y s 1582 240 m -41 Y s[ 4 8]
 0 sd 1582 1490 m -1291 Y s[  ] 0 sd 1620 220 m -21 Y s 1658 220 m -21 Y s 1696 220 m -21 Y s 1734 220 m -21 Y s 1772 240 m -41 Y s[ 4 8] 0 sd 1772 1490 m -1291 Y s[  ] 0 sd 1811 220 m -21 Y s 1849 220 m -21 Y s 1887 220 m -21 Y s 1925 220 m -21 Y s
 1963 240 m -41 Y s[ 4 8] 0 sd 1963 1490 m -1291 Y s[  ] 0 sd 2002 220 m -21 Y s 2040 220 m -21 Y s 2078 220 m -21 Y s 2116 220 m -21 Y s 2154 240 m -41 Y s[ 4 8] 0 sd 2154 1490 m -1291 Y s
 gsave  2268 1655 0 0 C 223.972 125.984 t 0 r /Helvetica-Bold findfont 62.9921 sf 0 0 m (0) show NC gr 
 gsave  2268 1655 0 0 C 395.451 125.984 t 0 r /Helvetica-Bold findfont 62.9921 sf 0 0 m (0.1) show NC gr 
 gsave  2268 1655 0 0 C 584.427 125.984 t 0 r /Helvetica-Bold findfont 62.9921 sf 0 0 m (0.2) show NC gr 
 gsave  2268 1655 0 0 C 773.403 125.984 t 0 r /Helvetica-Bold findfont 62.9921 sf 0 0 m (0.3) show NC gr 
 gsave  2268 1655 0 0 C 965.879 125.984 t 0 r /Helvetica-Bold findfont 62.9921 sf 0 0 m (0.4) show NC gr 
 gsave  2268 1655 0 0 C 1154.86 125.984 t 0 r /Helvetica-Bold findfont 62.9921 sf 0 0 m (0.5) show NC gr 
 gsave  2268 1655 0 0 C 1347.33 125.984 t 0 r /Helvetica-Bold findfont 62.9921 sf 0 0 m (0.6) show NC gr 
 gsave  2268 1655 0 0 C 1532.81 125.984 t 0 r /Helvetica-Bold findfont 62.9921 sf 0 0 m (0.7) show NC gr 
 gsave  2268 1655 0 0 C 1728.78 125.984 t 0 r /Helvetica-Bold findfont 62.9921 sf 0 0 m (0.8) show NC gr 
 gsave  2268 1655 0 0 C 1921.26 125.984 t 0 r /Helvetica-Bold findfont 62.9921 sf 0 0 m (0.9) show NC gr 
 gsave  2268 1655 0 0 C 2138.23 125.984 t 0 r /Helvetica-Bold findfont 62.9921 sf 0 0 m (1) show NC gr 
 gsave  2268 1655 0 0 C 1592.3 31.4961 t 0 r /Helvetica-Bold findfont 69.9912 sf 0 0 m (Signal efficiency) show NC gr [  ] 0 sd 245 1490 m 1909 X s 245 1448 m 42 Y s 283 1469 m 21 Y s 321 1469 m 21 Y s 359 1469 m 21 Y s 398 1469 m 21 Y s 436 1448 m
 42 Y s 474 1469 m 21 Y s 512 1469 m 21 Y s 550 1469 m 21 Y s 589 1469 m 21 Y s 627 1448 m 42 Y s 665 1469 m 21 Y s 703 1469 m 21 Y s 741 1469 m 21 Y s 780 1469 m 21 Y s 818 1448 m 42 Y s 856 1469 m 21 Y s 894 1469 m 21 Y s 932 1469 m 21 Y s 970 1469
 m 21 Y s 1009 1448 m 42 Y s 1047 1469 m 21 Y s 1085 1469 m 21 Y s 1123 1469 m 21 Y s 1161 1469 m 21 Y s 1200 1448 m 42 Y s 1238 1469 m 21 Y s 1276 1469 m 21 Y s 1314 1469 m 21 Y s 1352 1469 m 21 Y s 1391 1448 m 42 Y s 1429 1469 m 21 Y s 1467 1469 m
 21 Y s 1505 1469 m 21 Y s 1543 1469 m 21 Y s 1582 1448 m 42 Y s 1620 1469 m 21 Y s 1658 1469 m 21 Y s 1696 1469 m 21 Y s 1734 1469 m 21 Y s 1772 1448 m 42 Y s 1811 1469 m 21 Y s 1849 1469 m 21 Y s 1887 1469 m 21 Y s 1925 1469 m 21 Y s 1963 1448 m 42
 Y s 2002 1469 m 21 Y s 2040 1469 m 21 Y s 2078 1469 m 21 Y s 2116 1469 m 21 Y s 2154 1448 m 42 Y s 245 199 m 1291 Y s 298 199 m -53 X s[ 4 8] 0 sd 2154 199 m -1909 X s[  ] 0 sd 271 231 m -26 X s 271 263 m -26 X s 271 295 m -26 X s 271 328 m -26 X s
 298 360 m -53 X s[ 4 8] 0 sd 2154 360 m -1909 X s[  ] 0 sd 271 392 m -26 X s 271 425 m -26 X s 271 457 m -26 X s 271 489 m -26 X s 298 521 m -53 X s[ 4 8] 0 sd 2154 521 m -1909 X s[  ] 0 sd 271 554 m -26 X s 271 586 m -26 X s 271 618 m -26 X s 271
 651 m -26 X s 298 683 m -53 X s[ 4 8] 0 sd 2154 683 m -1909 X s[  ] 0 sd 271 715 m -26 X s 271 747 m -26 X s 271 780 m -26 X s 271 812 m -26 X s 298 844 m -53 X s[ 4 8] 0 sd 2154 844 m -1909 X s[  ] 0 sd 271 876 m -26 X s 271 909 m -26 X s 271 941 m
 -26 X s 271 973 m -26 X s 298 1006 m -53 X s[ 4 8] 0 sd 2154 1006 m -1909 X s[  ] 0 sd 271 1038 m -26 X s 271 1070 m -26 X s 271 1102 m -26 X s 271 1135 m -26 X s 298 1167 m -53 X s[ 4 8] 0 sd 2154 1167 m -1909 X s[  ] 0 sd 271 1199 m -26 X s 271
 1232 m -26 X s 271 1264 m -26 X s 271 1296 m -26 X s 298 1328 m -53 X s[ 4 8] 0 sd 2154 1328 m -1909 X s[  ] 0 sd 271 1361 m -26 X s 271 1393 m -26 X s 271 1425 m -26 X s 271 1457 m -26 X s 298 1490 m -53 X s[ 4 8] 0 sd 2154 1490 m -1909 X s[  ] 0
 sd 298 199 m -53 X s[ 4 8] 0 sd 2154 199 m -1909 X s
 gsave  2268 1655 0 0 C 132.983 174.978 t 0 r /Helvetica-Bold findfont 62.9921 sf 0 0 m (0.2) show NC gr 
 gsave  2268 1655 0 0 C 132.983 335.958 t 0 r /Helvetica-Bold findfont 62.9921 sf 0 0 m (0.3) show NC gr 
 gsave  2268 1655 0 0 C 132.983 496.938 t 0 r /Helvetica-Bold findfont 62.9921 sf 0 0 m (0.4) show NC gr 
 gsave  2268 1655 0 0 C 132.983 661.417 t 0 r /Helvetica-Bold findfont 62.9921 sf 0 0 m (0.5) show NC gr 
 gsave  2268 1655 0 0 C 132.983 822.397 t 0 r /Helvetica-Bold findfont 62.9921 sf 0 0 m (0.6) show NC gr 
 gsave  2268 1655 0 0 C 129.484 983.377 t 0 r /Helvetica-Bold findfont 62.9921 sf 0 0 m (0.7) show NC gr 
 gsave  2268 1655 0 0 C 132.983 1144.36 t 0 r /Helvetica-Bold findfont 62.9921 sf 0 0 m (0.8) show NC gr 
 gsave  2268 1655 0 0 C 132.983 1305.34 t 0 r /Helvetica-Bold findfont 62.9921 sf 0 0 m (0.9) show NC gr 
 gsave  2268 1655 0 0 C 192.476 1466.32 t 0 r /Helvetica-Bold findfont 62.9921 sf 0 0 m (1) show NC gr 
 gsave  2268 1655 0 0 C 62.9921 766.404 t 90 r /Helvetica-Bold findfont 69.9912 sf 0 0 m (Background rejection) show NC gr [  ] 0 sd 2154 199 m 1291 Y s 2101 199 m 53 X s 2128 231 m 26 X s 2128 263 m 26 X s 2128 295 m 26 X s 2128 328 m 26 X s 2101
 360 m 53 X s 2128 392 m 26 X s 2128 425 m 26 X s 2128 457 m 26 X s 2128 489 m 26 X s 2101 521 m 53 X s 2128 554 m 26 X s 2128 586 m 26 X s 2128 618 m 26 X s 2128 651 m 26 X s 2101 683 m 53 X s 2128 715 m 26 X s 2128 747 m 26 X s 2128 780 m 26 X s
 2128 812 m 26 X s 2101 844 m 53 X s 2128 876 m 26 X s 2128 909 m 26 X s 2128 941 m 26 X s 2128 973 m 26 X s 2101 1006 m 53 X s 2128 1038 m 26 X s 2128 1070 m 26 X s 2128 1102 m 26 X s 2128 1135 m 26 X s 2101 1167 m 53 X s 2128 1199 m 26 X s 2128
 1232 m 26 X s 2128 1264 m 26 X s 2128 1296 m 26 X s 2101 1328 m 53 X s 2128 1361 m 26 X s 2128 1393 m 26 X s 2128 1425 m 26 X s 2128 1457 m 26 X s 2101 1490 m 53 X s 2101 199 m 53 X s 9 lw 1 1 1 c black 254 1490 m 230 X 19 -1 d 382 X 19 -1 d 198 X
 12 -1 d 76 X s 1190 1487 m 38 X 19 -1 d 96 X 19 -1 d 38 X 19 -1 d 38 X 19 -1 d 39 X 19 -1 d 19 X 19 -1 d 19 X 19 -1 d 19 X 19 -1 d 19 -1 d 20 X 19 -1 d 19 -1 d 19 X 19 -1 d 19 -2 d 19 -1 d 19 -1 d 19 -2 d 19 -1 d 19 -3 d 20 -2 d 19 -3 d 19 -4 d 19
 -4 d 19 -5 d 19 -8 d 17 -6 d 2 -1 d 12 -7 d 7 -4 d 11 -8 d 6 -6 d 2 -2 d 8 -9 d 6 -7 d 4 -8 d 1 -1 d 8 -14 d 4 -8 d 3 -8 d 2 -8 d 3 -7 d 3 -11 d 3 -13 d 3 -14 d 3 -16 d 3 -15 d 3 -16 d 1 -7 d 2 -18 d 3 -22 d 2 -19 d 3 -21 d 2 -23 d 2 -24 d 2 -23 d 2
 -24 d 1 -5 d s 2126 1064 m 19 -364 d s 3 lw 245 199 m 1909 X s 245 240 m -41 Y s[ 4 8] 0 sd 245 1490 m -1291 Y s[  ] 0 sd 283 220 m -21 Y s 321 220 m -21 Y s 359 220 m -21 Y s 398 220 m -21 Y s 436 240 m -41 Y s[ 4 8] 0 sd 436 1490 m -1291 Y s[  ] 0
 sd 474 220 m -21 Y s 512 220 m -21 Y s 550 220 m -21 Y s 589 220 m -21 Y s 627 240 m -41 Y s[ 4 8] 0 sd 627 1490 m -1291 Y s[  ] 0 sd 665 220 m -21 Y s 703 220 m -21 Y s 741 220 m -21 Y s 780 220 m -21 Y s 818 240 m -41 Y s[ 4 8] 0 sd 818 1490 m
 -1291 Y s[  ] 0 sd 856 220 m -21 Y s 894 220 m -21 Y s 932 220 m -21 Y s 970 220 m -21 Y s 1009 240 m -41 Y s[ 4 8] 0 sd 1009 1490 m -1291 Y s[  ] 0 sd 1047 220 m -21 Y s 1085 220 m -21 Y s 1123 220 m -21 Y s 1161 220 m -21 Y s 1200 240 m -41 Y s[ 4
 8] 0 sd 1200 1490 m -1291 Y s[  ] 0 sd 1238 220 m -21 Y s 1276 220 m -21 Y s 1314 220 m -21 Y s 1352 220 m -21 Y s 1391 240 m -41 Y s[ 4 8] 0 sd 1391 1490 m -1291 Y s[  ] 0 sd 1429 220 m -21 Y s 1467 220 m -21 Y s 1505 220 m -21 Y s 1543 220 m -21 Y
 s 1582 240 m -41 Y s[ 4 8] 0 sd 1582 1490 m -1291 Y s[  ] 0 sd 1620 220 m -21 Y s 1658 220 m -21 Y s 1696 220 m -21 Y s 1734 220 m -21 Y s 1772 240 m -41 Y s[ 4 8] 0 sd 1772 1490 m -1291 Y s[  ] 0 sd 1811 220 m -21 Y s 1849 220 m -21 Y s 1887 220 m
 -21 Y s 1925 220 m -21 Y s 1963 240 m -41 Y s[ 4 8] 0 sd 1963 1490 m -1291 Y s[  ] 0 sd 2002 220 m -21 Y s 2040 220 m -21 Y s 2078 220 m -21 Y s 2116 220 m -21 Y s 2154 240 m -41 Y s[ 4 8] 0 sd 2154 1490 m -1291 Y s[  ] 0 sd 245 1490 m 1909 X s 245
 1448 m 42 Y s 283 1469 m 21 Y s 321 1469 m 21 Y s 359 1469 m 21 Y s 398 1469 m 21 Y s 436 1448 m 42 Y s 474 1469 m 21 Y s 512 1469 m 21 Y s 550 1469 m 21 Y s 589 1469 m 21 Y s 627 1448 m 42 Y s 665 1469 m 21 Y s 703 1469 m 21 Y s 741 1469 m 21 Y s
 780 1469 m 21 Y s 818 1448 m 42 Y s 856 1469 m 21 Y s 894 1469 m 21 Y s 932 1469 m 21 Y s 970 1469 m 21 Y s 1009 1448 m 42 Y s 1047 1469 m 21 Y s 1085 1469 m 21 Y s 1123 1469 m 21 Y s 1161 1469 m 21 Y s 1200 1448 m 42 Y s 1238 1469 m 21 Y s 1276
 1469 m 21 Y s 1314 1469 m 21 Y s 1352 1469 m 21 Y s 1391 1448 m 42 Y s 1429 1469 m 21 Y s 1467 1469 m 21 Y s 1505 1469 m 21 Y s 1543 1469 m 21 Y s 1582 1448 m 42 Y s 1620 1469 m 21 Y s 1658 1469 m 21 Y s 1696 1469 m 21 Y s 1734 1469 m 21 Y s 1772
 1448 m 42 Y s 1811 1469 m 21 Y s 1849 1469 m 21 Y s 1887 1469 m 21 Y s 1925 1469 m 21 Y s 1963 1448 m 42 Y s 2002 1469 m 21 Y s 2040 1469 m 21 Y s 2078 1469 m 21 Y s 2116 1469 m 21 Y s 2154 1448 m 42 Y s 245 199 m 1291 Y s 298 199 m -53 X s[ 4 8] 0
 sd 2154 199 m -1909 X s[  ] 0 sd 271 231 m -26 X s 271 263 m -26 X s 271 295 m -26 X s 271 328 m -26 X s 298 360 m -53 X s[ 4 8] 0 sd 2154 360 m -1909 X s[  ] 0 sd 271 392 m -26 X s 271 425 m -26 X s 271 457 m -26 X s 271 489 m -26 X s 298 521 m -53
 X s[ 4 8] 0 sd 2154 521 m -1909 X s[  ] 0 sd 271 554 m -26 X s 271 586 m -26 X s 271 618 m -26 X s 271 651 m -26 X s 298 683 m -53 X s[ 4 8] 0 sd 2154 683 m -1909 X s[  ] 0 sd 271 715 m -26 X s 271 747 m -26 X s 271 780 m -26 X s 271 812 m -26 X s
 298 844 m -53 X s[ 4 8] 0 sd 2154 844 m -1909 X s[  ] 0 sd 271 876 m -26 X s 271 909 m -26 X s 271 941 m -26 X s 271 973 m -26 X s 298 1006 m -53 X s[ 4 8] 0 sd 2154 1006 m -1909 X s[  ] 0 sd 271 1038 m -26 X s 271 1070 m -26 X s 271 1102 m -26 X s
 271 1135 m -26 X s 298 1167 m -53 X s[ 4 8] 0 sd 2154 1167 m -1909 X s[  ] 0 sd 271 1199 m -26 X s 271 1232 m -26 X s 271 1264 m -26 X s 271 1296 m -26 X s 298 1328 m -53 X s[ 4 8] 0 sd 2154 1328 m -1909 X s[  ] 0 sd 271 1361 m -26 X s 271 1393 m
 -26 X s 271 1425 m -26 X s 271 1457 m -26 X s 298 1490 m -53 X s[ 4 8] 0 sd 2154 1490 m -1909 X s[  ] 0 sd 298 199 m -53 X s[ 4 8] 0 sd 2154 199 m -1909 X s[  ] 0 sd 2154 199 m 1291 Y s 2101 199 m 53 X s 2128 231 m 26 X s 2128 263 m 26 X s 2128 295
 m 26 X s 2128 328 m 26 X s 2101 360 m 53 X s 2128 392 m 26 X s 2128 425 m 26 X s 2128 457 m 26 X s 2128 489 m 26 X s 2101 521 m 53 X s 2128 554 m 26 X s 2128 586 m 26 X s 2128 618 m 26 X s 2128 651 m 26 X s 2101 683 m 53 X s 2128 715 m 26 X s 2128
 747 m 26 X s 2128 780 m 26 X s 2128 812 m 26 X s 2101 844 m 53 X s 2128 876 m 26 X s 2128 909 m 26 X s 2128 941 m 26 X s 2128 973 m 26 X s 2101 1006 m 53 X s 2128 1038 m 26 X s 2128 1070 m 26 X s 2128 1102 m 26 X s 2128 1135 m 26 X s 2101 1167 m 53
 X s 2128 1199 m 26 X s 2128 1232 m 26 X s 2128 1264 m 26 X s 2128 1296 m 26 X s 2101 1328 m 53 X s 2128 1361 m 26 X s 2128 1393 m 26 X s 2128 1425 m 26 X s 2128 1457 m 26 X s 2101 1490 m 53 X s 2101 199 m 53 X s
 gsave  2268 1655 0 0 C 370.954 402.45 t 0 r /Helvetica-Bold findfont 55.993 sf 0 0 m (MVA Method:) show NC gr 
 gsave  2268 1655 0 0 C 654.418 311.461 t 0 r /Helvetica-Bold findfont 55.993 sf 0 0 m (BDTG) show NC gr  9 lw 388 329 m 222 X s 0.490196 0.545098 0.615686 c 3 lw 0.364706 0.419608 0.490196 c 1587 101 23 1546 bf 0.490196 0.545098 0.615686 c 23 1546 m
 1587 X s 1610 1546 m 101 Y s 1610 1647 m -1587 X s 23 1647 m -101 Y s 1 1 1 c black 1 1 1 c
 gsave  2268 1655 0 0 C 76.9904 1578.3 t 0 r /Helvetica-Bold findfont 66.4917 sf 0 0 m (Background rejection versus Signal efficiency) show NC gr 
 gr  gr showpage
end
%%EOF
